﻿inst#,actual,predicted,error,prediction
1,1:?,Y,,0.873
2,1:?,Y,,0.827
3,1:?,Y,,0.818
4,1:?,Y,,0.751
5,1:?,Y,,0.85
6,1:?,Y,,0.805
7,1:?,N,,0.827
8,1:?,Y,,0.641
9,1:?,N,,0.875
10,1:?,N,,0.888
11,1:?,Y,,0.774
12,1:?,Y,,0.753
13,1:?,Y,,0.811
14,1:?,Y,,0.736
15,1:?,Y,,0.641
16,1:?,N,,0.847
17,1:?,N,,0.955
18,1:?,N,,0.985
19,1:?,N,,0.958
20,1:?,Y,,0.666
21,1:?,N,,0.865
22,1:?,Y,,0.774
23,1:?,N,,0.802
24,1:?,Y,,0.666
25,1:?,N,,0.663
26,1:?,Y,,0.742
27,1:?,Y,,0.576
28,1:?,Y,,0.704
29,1:?,Y,,0.549
30,1:?,Y,,0.641
31,1:?,N,,0.847
32,1:?,N,,0.955
33,1:?,N,,0.994
34,1:?,N,,0.987
35,1:?,N,,0.821
36,1:?,N,,0.978
37,1:?,N,,0.985
38,1:?,N,,0.987
39,1:?,N,,0.987
40,1:?,N,,0.996
41,1:?,N,,0.951
42,1:?,N,,0.765
43,1:?,Y,,0.532
44,1:?,N,,0.895
45,1:?,Y,,0.774
46,1:?,N,,0.802
47,1:?,N,,0.821
48,1:?,N,,0.979
49,1:?,N,,0.951
50,1:?,N,,0.765
51,1:?,N,,0.685
52,1:?,N,,0.877
53,1:?,Y,,0.742
54,1:?,N,,0.948
55,1:?,Y,,0.532
56,1:?,N,,0.877
57,1:?,Y,,0.614
58,1:?,N,,0.728
59,1:?,N,,0.544
60,1:?,N,,0.753
61,1:?,N,,0.847
62,1:?,N,,0.955
63,1:?,N,,0.994
64,1:?,N,,0.987
65,1:?,N,,0.821
66,1:?,N,,0.978
67,1:?,N,,0.994
68,1:?,N,,0.999
69,1:?,N,,0.998
70,1:?,N,,1
71,1:?,N,,0.991
72,1:?,N,,0.984
73,1:?,N,,0.95
74,1:?,N,,0.99
75,1:?,N,,0.985
76,1:?,N,,0.987
77,1:?,N,,0.998
78,1:?,N,,1
79,1:?,N,,0.995
80,1:?,N,,0.997
81,1:?,N,,0.987
82,1:?,N,,0.999
83,1:?,N,,0.951
84,1:?,N,,0.984
85,1:?,N,,0.987
86,1:?,N,,0.998
87,1:?,N,,0.954
88,1:?,N,,0.906
89,1:?,N,,0.732
90,1:?,N,,0.951
91,1:?,N,,0.802
92,1:?,N,,0.821
93,1:?,N,,0.979
94,1:?,N,,0.991
95,1:?,N,,0.984
96,1:?,N,,0.983
97,1:?,N,,0.991
98,1:?,N,,0.951
99,1:?,N,,0.984
100,1:?,N,,0.987
101,1:?,N,,0.998
102,1:?,N,,0.863
103,1:?,N,,0.961
104,1:?,N,,0.907
105,1:?,N,,0.965
106,1:?,Y,,0.742
107,1:?,N,,0.948
108,1:?,N,,0.95
109,1:?,N,,0.991
110,1:?,N,,0.954
111,1:?,N,,0.906
112,1:?,N,,0.907
113,1:?,N,,0.965
114,1:?,Y,,0.614
115,1:?,N,,0.984
116,1:?,N,,0.732
117,1:?,N,,0.965
118,1:?,N,,0.657
119,1:?,N,,0.924
120,1:?,N,,0.836
121,1:?,N,,0.932
122,1:?,Y,,0.641
123,1:?,N,,0.847
124,1:?,N,,0.955
125,1:?,N,,0.994
126,1:?,N,,0.987
127,1:?,N,,0.821
128,1:?,N,,0.978
129,1:?,N,,0.994
130,1:?,N,,0.999
131,1:?,N,,0.998
132,1:?,N,,1
133,1:?,N,,0.991
134,1:?,N,,0.984
135,1:?,N,,0.95
136,1:?,N,,0.99
137,1:?,N,,0.999
138,1:?,N,,1
139,1:?,N,,1
140,1:?,N,,1
141,1:?,N,,1
142,1:?,N,,0.999
143,1:?,N,,1
144,1:?,N,,0.991
145,1:?,N,,0.997
146,1:?,N,,0.999
147,1:?,N,,1
148,1:?,N,,0.995
149,1:?,N,,0.993
150,1:?,N,,0.984
151,1:?,N,,0.995
152,1:?,N,,0.985
153,1:?,N,,0.987
154,1:?,N,,0.998
155,1:?,N,,1
156,1:?,N,,1
157,1:?,N,,1
158,1:?,N,,0.999
159,1:?,N,,1
160,1:?,N,,0.995
161,1:?,N,,1
162,1:?,N,,0.998
163,1:?,N,,1
164,1:?,N,,0.999
165,1:?,N,,0.999
166,1:?,N,,0.993
167,1:?,N,,1
168,1:?,N,,0.951
169,1:?,N,,0.984
170,1:?,N,,0.999
171,1:?,N,,1
172,1:?,N,,0.999
173,1:?,N,,0.999
174,1:?,N,,0.977
175,1:?,N,,0.999
176,1:?,N,,0.954
177,1:?,N,,0.993
178,1:?,N,,0.993
179,1:?,N,,0.999
180,1:?,N,,0.972
181,1:?,N,,0.971
182,1:?,N,,0.921
183,1:?,N,,0.981
184,1:?,Y,,0.774
185,1:?,N,,0.802
186,1:?,N,,0.821
187,1:?,N,,0.979
188,1:?,N,,0.991
189,1:?,N,,0.984
190,1:?,N,,0.983
191,1:?,N,,0.991
192,1:?,N,,0.991
193,1:?,N,,0.997
194,1:?,N,,0.999
195,1:?,N,,1
196,1:?,N,,0.992
197,1:?,N,,0.995
198,1:?,N,,0.992
199,1:?,N,,0.995
200,1:?,N,,0.951
201,1:?,N,,0.984
202,1:?,N,,0.999
203,1:?,N,,1
204,1:?,N,,0.999
205,1:?,N,,0.999
206,1:?,N,,0.977
207,1:?,N,,0.999
208,1:?,N,,0.863
209,1:?,N,,0.995
210,1:?,N,,0.977
211,1:?,N,,0.995
212,1:?,N,,0.958
213,1:?,N,,0.987
214,1:?,N,,0.974
215,1:?,N,,0.987
216,1:?,Y,,0.742
217,1:?,N,,0.948
218,1:?,N,,0.95
219,1:?,N,,0.991
220,1:?,N,,0.995
221,1:?,N,,0.993
222,1:?,N,,0.992
223,1:?,N,,0.995
224,1:?,N,,0.954
225,1:?,N,,0.993
226,1:?,N,,0.993
227,1:?,N,,0.999
228,1:?,N,,0.958
229,1:?,N,,0.987
230,1:?,N,,0.974
231,1:?,N,,0.987
232,1:?,N,,0.984
233,1:?,N,,0.984
234,1:?,N,,0.995
235,1:?,N,,0.972
236,1:?,N,,0.971
237,1:?,N,,0.974
238,1:?,N,,0.987
239,1:?,N,,0.657
240,1:?,N,,0.992
241,1:?,N,,0.921
242,1:?,N,,0.987
243,1:?,N,,0.893
244,1:?,N,,0.977
245,1:?,N,,0.956
246,1:?,N,,0.979
247,1:?,N,,0.827
248,1:?,Y,,0.641
249,1:?,N,,0.847
250,1:?,N,,0.955
251,1:?,N,,0.994
252,1:?,N,,0.987
253,1:?,N,,0.821
254,1:?,N,,0.978
255,1:?,N,,0.999
256,1:?,N,,0.998
257,1:?,N,,1
258,1:?,N,,0.991
259,1:?,N,,0.984
260,1:?,N,,0.95
261,1:?,N,,0.99
262,1:?,N,,0.994
263,1:?,N,,0.999
264,1:?,N,,1
265,1:?,N,,1
266,1:?,N,,1
267,1:?,N,,1
268,1:?,N,,0.999
269,1:?,N,,1
270,1:?,N,,0.991
271,1:?,N,,0.997
272,1:?,N,,0.999
273,1:?,N,,1
274,1:?,N,,0.995
275,1:?,N,,0.993
276,1:?,N,,0.984
277,1:?,N,,0.995
278,1:?,N,,0.994
279,1:?,N,,0.999
280,1:?,N,,1
281,1:?,N,,1
282,1:?,N,,1
283,1:?,N,,1
284,1:?,N,,1
285,1:?,N,,1
286,1:?,N,,1
287,1:?,N,,1
288,1:?,N,,1
289,1:?,N,,1
290,1:?,N,,1
291,1:?,N,,1
292,1:?,N,,0.999
293,1:?,N,,1
294,1:?,N,,0.991
295,1:?,N,,0.997
296,1:?,N,,1
297,1:?,N,,1
298,1:?,N,,1
299,1:?,N,,1
300,1:?,N,,0.997
301,1:?,N,,0.999
302,1:?,N,,0.995
303,1:?,N,,0.998
304,1:?,N,,0.999
305,1:?,N,,0.999
306,1:?,N,,0.997
307,1:?,N,,0.996
308,1:?,N,,0.993
309,1:?,N,,0.996
310,1:?,N,,0.985
311,1:?,N,,0.987
312,1:?,N,,0.998
313,1:?,N,,1
314,1:?,N,,1
315,1:?,N,,1
316,1:?,N,,0.999
317,1:?,N,,1
318,1:?,N,,1
319,1:?,N,,1
320,1:?,N,,1
321,1:?,N,,1
322,1:?,N,,1
323,1:?,N,,1
324,1:?,N,,0.999
325,1:?,N,,1
326,1:?,N,,0.995
327,1:?,N,,1
328,1:?,N,,1
329,1:?,N,,1
330,1:?,N,,0.999
331,1:?,N,,1
332,1:?,N,,1
333,1:?,N,,1
334,1:?,N,,0.999
335,1:?,N,,1
336,1:?,N,,1
337,1:?,N,,1
338,1:?,N,,1
339,1:?,N,,1
340,1:?,N,,0.997
341,1:?,N,,1
342,1:?,N,,0.951
343,1:?,N,,0.984
344,1:?,N,,0.999
345,1:?,N,,1
346,1:?,N,,1
347,1:?,N,,1
348,1:?,N,,0.997
349,1:?,N,,0.999
350,1:?,N,,1
351,1:?,N,,1
352,1:?,N,,1
353,1:?,N,,1
354,1:?,N,,0.998
355,1:?,N,,0.99
356,1:?,N,,0.999
357,1:?,N,,0.954
358,1:?,N,,0.993
359,1:?,N,,0.999
360,1:?,N,,0.999
361,1:?,N,,1
362,1:?,N,,1
363,1:?,N,,0.99
364,1:?,N,,0.999
365,1:?,N,,0.972
366,1:?,N,,0.996
367,1:?,N,,0.997
368,1:?,N,,0.999
369,1:?,N,,0.987
370,1:?,N,,0.989
371,1:?,N,,0.977
372,1:?,N,,0.991
373,1:?,Y,,0.774
374,1:?,N,,0.802
375,1:?,N,,0.821
376,1:?,N,,0.979
377,1:?,N,,0.991
378,1:?,N,,0.984
379,1:?,N,,0.983
380,1:?,N,,0.991
381,1:?,N,,0.991
382,1:?,N,,0.997
383,1:?,N,,0.999
384,1:?,N,,1
385,1:?,N,,0.992
386,1:?,N,,0.995
387,1:?,N,,0.992
388,1:?,N,,0.995
389,1:?,N,,0.991
390,1:?,N,,0.997
391,1:?,N,,1
392,1:?,N,,1
393,1:?,N,,1
394,1:?,N,,1
395,1:?,N,,0.997
396,1:?,N,,0.999
397,1:?,N,,0.998
398,1:?,N,,0.997
399,1:?,N,,0.998
400,1:?,N,,0.996
401,1:?,N,,0.996
402,1:?,N,,0.995
403,1:?,N,,0.996
404,1:?,N,,0.951
405,1:?,N,,0.984
406,1:?,N,,0.999
407,1:?,N,,1
408,1:?,N,,1
409,1:?,N,,1
410,1:?,N,,0.997
411,1:?,N,,0.999
412,1:?,N,,0.999
413,1:?,N,,1
414,1:?,N,,1
415,1:?,N,,1
416,1:?,N,,1
417,1:?,N,,0.998
418,1:?,N,,0.99
419,1:?,N,,0.999
420,1:?,N,,0.863
421,1:?,N,,0.995
422,1:?,N,,0.997
423,1:?,N,,0.998
424,1:?,N,,1
425,1:?,N,,0.998
426,1:?,N,,0.993
427,1:?,N,,0.996
428,1:?,N,,0.958
429,1:?,N,,0.996
430,1:?,N,,0.99
431,1:?,N,,0.996
432,1:?,N,,0.986
433,1:?,N,,0.993
434,1:?,N,,0.989
435,1:?,N,,0.993
436,1:?,Y,,0.742
437,1:?,N,,0.948
438,1:?,N,,0.95
439,1:?,N,,0.991
440,1:?,N,,0.995
441,1:?,N,,0.993
442,1:?,N,,0.992
443,1:?,N,,0.995
444,1:?,N,,0.995
445,1:?,N,,0.998
446,1:?,N,,0.999
447,1:?,N,,0.999
448,1:?,N,,0.996
449,1:?,N,,0.996
450,1:?,N,,0.995
451,1:?,N,,0.996
452,1:?,N,,0.954
453,1:?,N,,0.993
454,1:?,N,,0.999
455,1:?,N,,0.999
456,1:?,N,,1
457,1:?,N,,1
458,1:?,N,,0.99
459,1:?,N,,0.999
460,1:?,N,,0.958
461,1:?,N,,0.996
462,1:?,N,,0.99
463,1:?,N,,0.996
464,1:?,N,,0.986
465,1:?,N,,0.993
466,1:?,N,,0.989
467,1:?,N,,0.993
468,1:?,Y,,0.614
469,1:?,N,,0.984
470,1:?,N,,0.984
471,1:?,N,,0.995
472,1:?,N,,0.997
473,1:?,N,,0.996
474,1:?,N,,0.995
475,1:?,N,,0.996
476,1:?,N,,0.972
477,1:?,N,,0.996
478,1:?,N,,0.997
479,1:?,N,,0.999
480,1:?,N,,0.986
481,1:?,N,,0.993
482,1:?,N,,0.989
483,1:?,N,,0.993
484,1:?,N,,0.657
485,1:?,N,,0.992
486,1:?,N,,0.993
487,1:?,N,,0.996
488,1:?,N,,0.987
489,1:?,N,,0.989
490,1:?,N,,0.989
491,1:?,N,,0.993
492,1:?,N,,0.995
493,1:?,N,,0.977
494,1:?,N,,0.993
495,1:?,N,,0.971
496,1:?,N,,0.99
497,1:?,N,,0.985
498,1:?,N,,0.99
499,1:?,N,,0.827
500,1:?,Y,,0.641
501,1:?,N,,0.847
502,1:?,N,,0.955
503,1:?,N,,0.987
504,1:?,N,,0.821
505,1:?,N,,0.978
506,1:?,N,,0.994
507,1:?,N,,0.999
508,1:?,N,,0.998
509,1:?,N,,1
510,1:?,N,,0.991
511,1:?,N,,0.984
512,1:?,N,,0.95
513,1:?,N,,0.99
514,1:?,N,,0.994
515,1:?,N,,0.999
516,1:?,N,,1
517,1:?,N,,1
518,1:?,N,,1
519,1:?,N,,1
520,1:?,N,,0.999
521,1:?,N,,1
522,1:?,N,,0.991
523,1:?,N,,0.997
524,1:?,N,,0.999
525,1:?,N,,1
526,1:?,N,,0.995
527,1:?,N,,0.993
528,1:?,N,,0.984
529,1:?,N,,0.995
530,1:?,N,,0.994
531,1:?,N,,0.999
532,1:?,N,,1
533,1:?,N,,1
534,1:?,N,,1
535,1:?,N,,1
536,1:?,N,,1
537,1:?,N,,1
538,1:?,N,,1
539,1:?,N,,1
540,1:?,N,,1
541,1:?,N,,1
542,1:?,N,,1
543,1:?,N,,1
544,1:?,N,,0.999
545,1:?,N,,1
546,1:?,N,,0.991
547,1:?,N,,0.997
548,1:?,N,,1
549,1:?,N,,1
550,1:?,N,,1
551,1:?,N,,1
552,1:?,N,,0.997
553,1:?,N,,0.999
554,1:?,N,,0.995
555,1:?,N,,0.998
556,1:?,N,,0.999
557,1:?,N,,0.999
558,1:?,N,,0.997
559,1:?,N,,0.996
560,1:?,N,,0.993
561,1:?,N,,0.996
562,1:?,N,,0.994
563,1:?,N,,0.999
564,1:?,N,,1
565,1:?,N,,1
566,1:?,N,,1
567,1:?,N,,1
568,1:?,N,,1
569,1:?,N,,1
570,1:?,N,,1
571,1:?,N,,1
572,1:?,N,,1
573,1:?,N,,1
574,1:?,N,,1
575,1:?,N,,1
576,1:?,N,,0.999
577,1:?,N,,1
578,1:?,N,,1
579,1:?,N,,1
580,1:?,N,,1
581,1:?,N,,1
582,1:?,N,,1
583,1:?,N,,1
584,1:?,N,,1
585,1:?,N,,1
586,1:?,N,,1
587,1:?,N,,1
588,1:?,N,,1
589,1:?,N,,1
590,1:?,N,,1
591,1:?,N,,1
592,1:?,N,,0.999
593,1:?,N,,1
594,1:?,N,,0.991
595,1:?,N,,0.997
596,1:?,N,,1
597,1:?,N,,1
598,1:?,N,,1
599,1:?,N,,0.998
600,1:?,N,,0.999
601,1:?,N,,1
602,1:?,N,,1
603,1:?,N,,1
604,1:?,N,,1
605,1:?,N,,1
606,1:?,N,,0.999
607,1:?,N,,0.997
608,1:?,N,,0.999
609,1:?,N,,0.995
610,1:?,N,,0.998
611,1:?,N,,0.999
612,1:?,N,,0.999
613,1:?,N,,1
614,1:?,N,,1
615,1:?,N,,0.997
616,1:?,N,,0.999
617,1:?,N,,0.997
618,1:?,N,,0.998
619,1:?,N,,0.999
620,1:?,N,,0.999
621,1:?,N,,0.998
622,1:?,N,,0.997
623,1:?,N,,0.995
624,1:?,N,,0.997
625,1:?,N,,0.985
626,1:?,N,,0.987
627,1:?,N,,0.998
628,1:?,N,,1
629,1:?,N,,1
630,1:?,N,,1
631,1:?,N,,0.999
632,1:?,N,,1
633,1:?,N,,1
634,1:?,N,,1
635,1:?,N,,1
636,1:?,N,,1
637,1:?,N,,1
638,1:?,N,,1
639,1:?,N,,0.999
640,1:?,N,,1
641,1:?,N,,1
642,1:?,N,,1
643,1:?,N,,1
644,1:?,N,,1
645,1:?,N,,1
646,1:?,N,,1
647,1:?,N,,1
648,1:?,N,,1
649,1:?,N,,1
650,1:?,N,,1
651,1:?,N,,1
652,1:?,N,,1
653,1:?,N,,0.999
654,1:?,N,,1
655,1:?,N,,0.995
656,1:?,N,,1
657,1:?,N,,1
658,1:?,N,,1
659,1:?,N,,1
660,1:?,N,,1
661,1:?,N,,1
662,1:?,N,,1
663,1:?,N,,0.999
664,1:?,N,,1
665,1:?,N,,1
666,1:?,N,,1
667,1:?,N,,1
668,1:?,N,,1
669,1:?,N,,1
670,1:?,N,,1
671,1:?,N,,0.999
672,1:?,N,,1
673,1:?,N,,1
674,1:?,N,,1
675,1:?,N,,1
676,1:?,N,,1
677,1:?,N,,1
678,1:?,N,,1
679,1:?,N,,1
680,1:?,N,,1
681,1:?,N,,1
682,1:?,N,,1
683,1:?,N,,1
684,1:?,N,,1
685,1:?,N,,0.998
686,1:?,N,,1
687,1:?,N,,0.951
688,1:?,N,,0.984
689,1:?,N,,0.999
690,1:?,N,,1
691,1:?,N,,1
692,1:?,N,,1
693,1:?,N,,0.997
694,1:?,N,,0.999
695,1:?,N,,1
696,1:?,N,,1
697,1:?,N,,1
698,1:?,N,,1
699,1:?,N,,1
700,1:?,N,,0.999
701,1:?,N,,0.997
702,1:?,N,,0.999
703,1:?,N,,0.999
704,1:?,N,,1
705,1:?,N,,1
706,1:?,N,,1
707,1:?,N,,1
708,1:?,N,,1
709,1:?,N,,1
710,1:?,N,,1
711,1:?,N,,1
712,1:?,N,,0.999
713,1:?,N,,1
714,1:?,N,,1
715,1:?,N,,1
716,1:?,N,,0.998
717,1:?,N,,0.994
718,1:?,N,,0.999
719,1:?,N,,0.954
720,1:?,N,,0.993
721,1:?,N,,0.999
722,1:?,N,,0.999
723,1:?,N,,1
724,1:?,N,,1
725,1:?,N,,0.997
726,1:?,N,,0.999
727,1:?,N,,1
728,1:?,N,,1
729,1:?,N,,1
730,1:?,N,,1
731,1:?,N,,1
732,1:?,N,,0.998
733,1:?,N,,0.994
734,1:?,N,,0.999
735,1:?,N,,0.972
736,1:?,N,,0.996
737,1:?,N,,0.999
738,1:?,N,,0.999
739,1:?,N,,1
740,1:?,N,,0.994
741,1:?,N,,0.999
742,1:?,N,,0.987
743,1:?,N,,0.997
744,1:?,N,,0.998
745,1:?,N,,0.999
746,1:?,N,,0.993
747,1:?,N,,0.993
748,1:?,N,,0.99
749,1:?,N,,0.994
750,1:?,Y,,0.774
751,1:?,N,,0.821
752,1:?,N,,0.979
753,1:?,N,,0.991
754,1:?,N,,0.984
755,1:?,N,,0.983
756,1:?,N,,0.991
757,1:?,N,,0.991
758,1:?,N,,0.997
759,1:?,N,,0.999
760,1:?,N,,1
761,1:?,N,,0.995
762,1:?,N,,0.992
763,1:?,N,,0.995
764,1:?,N,,0.991
765,1:?,N,,0.997
766,1:?,N,,1
767,1:?,N,,1
768,1:?,N,,1
769,1:?,N,,1
770,1:?,N,,0.997
771,1:?,N,,0.999
772,1:?,N,,0.992
773,1:?,N,,0.998
774,1:?,N,,0.997
775,1:?,N,,0.998
776,1:?,N,,0.996
777,1:?,N,,0.996
778,1:?,N,,0.995
779,1:?,N,,0.996
780,1:?,N,,0.991
781,1:?,N,,0.997
782,1:?,N,,1
783,1:?,N,,1
784,1:?,N,,1
785,1:?,N,,1
786,1:?,N,,0.998
787,1:?,N,,0.999
788,1:?,N,,1
789,1:?,N,,1
790,1:?,N,,1
791,1:?,N,,1
792,1:?,N,,1
793,1:?,N,,0.999
794,1:?,N,,0.997
795,1:?,N,,0.999
796,1:?,N,,0.992
797,1:?,N,,0.998
798,1:?,N,,0.998
799,1:?,N,,0.998
800,1:?,N,,1
801,1:?,N,,0.999
802,1:?,N,,0.997
803,1:?,N,,0.998
804,1:?,N,,0.996
805,1:?,N,,0.998
806,1:?,N,,0.997
807,1:?,N,,0.998
808,1:?,N,,0.997
809,1:?,N,,0.997
810,1:?,N,,0.996
811,1:?,N,,0.997
812,1:?,N,,0.951
813,1:?,N,,0.984
814,1:?,N,,0.999
815,1:?,N,,1
816,1:?,N,,1
817,1:?,N,,1
818,1:?,N,,0.997
819,1:?,N,,0.999
820,1:?,N,,1
821,1:?,N,,1
822,1:?,N,,1
823,1:?,N,,1
824,1:?,N,,1
825,1:?,N,,0.999
826,1:?,N,,0.997
827,1:?,N,,0.999
828,1:?,N,,0.999
829,1:?,N,,1
830,1:?,N,,1
831,1:?,N,,1
832,1:?,N,,1
833,1:?,N,,1
834,1:?,N,,1
835,1:?,N,,1
836,1:?,N,,1
837,1:?,N,,0.999
838,1:?,N,,1
839,1:?,N,,1
840,1:?,N,,1
841,1:?,N,,0.998
842,1:?,N,,0.994
843,1:?,N,,0.999
844,1:?,N,,0.863
845,1:?,N,,0.995
846,1:?,N,,0.997
847,1:?,N,,0.998
848,1:?,N,,1
849,1:?,N,,0.999
850,1:?,N,,0.997
851,1:?,N,,0.998
852,1:?,N,,1
853,1:?,N,,0.999
854,1:?,N,,1
855,1:?,N,,1
856,1:?,N,,0.997
857,1:?,N,,0.995
858,1:?,N,,0.997
859,1:?,N,,0.958
860,1:?,N,,0.996
861,1:?,N,,0.997
862,1:?,N,,0.998
863,1:?,N,,1
864,1:?,N,,0.998
865,1:?,N,,0.995
866,1:?,N,,0.997
867,1:?,N,,0.986
868,1:?,N,,0.997
869,1:?,N,,0.994
870,1:?,N,,0.997
871,1:?,N,,0.993
872,1:?,N,,0.995
873,1:?,N,,0.993
874,1:?,N,,0.995
875,1:?,Y,,0.742
876,1:?,N,,0.95
877,1:?,N,,0.991
878,1:?,N,,0.995
879,1:?,N,,0.993
880,1:?,N,,0.992
881,1:?,N,,0.995
882,1:?,N,,0.995
883,1:?,N,,0.998
884,1:?,N,,0.999
885,1:?,N,,0.999
886,1:?,N,,0.996
887,1:?,N,,0.996
888,1:?,N,,0.995
889,1:?,N,,0.996
890,1:?,N,,0.995
891,1:?,N,,0.998
892,1:?,N,,0.999
893,1:?,N,,0.999
894,1:?,N,,1
895,1:?,N,,1
896,1:?,N,,0.997
897,1:?,N,,0.999
898,1:?,N,,0.996
899,1:?,N,,0.998
900,1:?,N,,0.997
901,1:?,N,,0.998
902,1:?,N,,0.997
903,1:?,N,,0.996
904,1:?,N,,0.997
905,1:?,N,,0.954
906,1:?,N,,0.993
907,1:?,N,,0.999
908,1:?,N,,0.999
909,1:?,N,,1
910,1:?,N,,1
911,1:?,N,,0.997
912,1:?,N,,0.999
913,1:?,N,,1
914,1:?,N,,1
915,1:?,N,,1
916,1:?,N,,1
917,1:?,N,,1
918,1:?,N,,0.998
919,1:?,N,,0.994
920,1:?,N,,0.999
921,1:?,N,,0.958
922,1:?,N,,0.996
923,1:?,N,,0.997
924,1:?,N,,0.998
925,1:?,N,,1
926,1:?,N,,0.998
927,1:?,N,,0.995
928,1:?,N,,0.997
929,1:?,N,,0.986
930,1:?,N,,0.997
931,1:?,N,,0.994
932,1:?,N,,0.997
933,1:?,N,,0.993
934,1:?,N,,0.995
935,1:?,N,,0.993
936,1:?,N,,0.995
937,1:?,Y,,0.614
938,1:?,N,,0.984
939,1:?,N,,0.984
940,1:?,N,,0.995
941,1:?,N,,0.997
942,1:?,N,,0.996
943,1:?,N,,0.995
944,1:?,N,,0.996
945,1:?,N,,0.997
946,1:?,N,,0.998
947,1:?,N,,0.999
948,1:?,N,,0.999
949,1:?,N,,0.997
950,1:?,N,,0.997
951,1:?,N,,0.996
952,1:?,N,,0.997
953,1:?,N,,0.972
954,1:?,N,,0.996
955,1:?,N,,0.999
956,1:?,N,,0.999
957,1:?,N,,1
958,1:?,N,,1
959,1:?,N,,0.994
960,1:?,N,,0.999
961,1:?,N,,0.986
962,1:?,N,,0.997
963,1:?,N,,0.994
964,1:?,N,,0.997
965,1:?,N,,0.993
966,1:?,N,,0.995
967,1:?,N,,0.993
968,1:?,N,,0.995
969,1:?,N,,0.657
970,1:?,N,,0.992
971,1:?,N,,0.993
972,1:?,N,,0.996
973,1:?,N,,0.998
974,1:?,N,,0.997
975,1:?,N,,0.996
976,1:?,N,,0.997
977,1:?,N,,0.987
978,1:?,N,,0.997
979,1:?,N,,0.998
980,1:?,N,,0.999
981,1:?,N,,0.993
982,1:?,N,,0.995
983,1:?,N,,0.993
984,1:?,N,,0.995
985,1:?,N,,0.893
986,1:?,N,,0.995
987,1:?,N,,0.995
988,1:?,N,,0.997
989,1:?,N,,0.993
990,1:?,N,,0.993
991,1:?,N,,0.993
992,1:?,N,,0.995
993,1:?,N,,0.971
994,1:?,N,,0.996
995,1:?,N,,0.99
996,1:?,N,,0.995
997,1:?,N,,0.993
998,1:?,N,,0.992
999,1:?,N,,0.993
1000,1:?,N,,0.978
1001,1:?,N,,0.827
1002,1:?,N,,0.978
1003,1:?,N,,0.99
1004,1:?,N,,0.985
1005,1:?,N,,0.79
1006,1:?,N,,0.976
1007,1:?,N,,0.99
1008,1:?,N,,0.994
1009,1:?,N,,0.991
1010,1:?,N,,0.995
1011,1:?,N,,0.988
1012,1:?,N,,0.951
1013,1:?,N,,0.691
1014,1:?,N,,0.978
1015,1:?,N,,0.99
1016,1:?,N,,0.994
1017,1:?,N,,0.997
1018,1:?,N,,1
1019,1:?,N,,0.994
1020,1:?,N,,0.995
1021,1:?,N,,0.992
1022,1:?,N,,0.997
1023,1:?,N,,0.988
1024,1:?,N,,0.991
1025,1:?,N,,0.992
1026,1:?,N,,0.998
1027,1:?,N,,0.989
1028,1:?,N,,0.954
1029,1:?,N,,0.675
1030,1:?,N,,0.985
1031,1:?,N,,0.99
1032,1:?,N,,0.994
1033,1:?,N,,0.997
1034,1:?,N,,1
1035,1:?,N,,0.999
1036,1:?,N,,1
1037,1:?,N,,0.999
1038,1:?,N,,1
1039,1:?,N,,0.994
1040,1:?,N,,1
1041,1:?,N,,0.996
1042,1:?,N,,0.999
1043,1:?,N,,0.997
1044,1:?,N,,0.999
1045,1:?,N,,0.996
1046,1:?,N,,0.999
1047,1:?,N,,0.988
1048,1:?,N,,0.991
1049,1:?,N,,0.999
1050,1:?,N,,1
1051,1:?,N,,0.997
1052,1:?,N,,0.999
1053,1:?,N,,0.99
1054,1:?,N,,1
1055,1:?,N,,0.989
1056,1:?,N,,0.995
1057,1:?,N,,0.996
1058,1:?,N,,1
1059,1:?,N,,0.992
1060,1:?,N,,0.972
1061,1:?,N,,0.789
1062,1:?,N,,0.992
1063,1:?,N,,0.99
1064,1:?,N,,0.997
1065,1:?,N,,1
1066,1:?,N,,0.999
1067,1:?,N,,1
1068,1:?,N,,0.999
1069,1:?,N,,1
1070,1:?,N,,0.999
1071,1:?,N,,1
1072,1:?,N,,1
1073,1:?,N,,1
1074,1:?,N,,1
1075,1:?,N,,1
1076,1:?,N,,1
1077,1:?,N,,1
1078,1:?,N,,0.994
1079,1:?,N,,1
1080,1:?,N,,1
1081,1:?,N,,1
1082,1:?,N,,0.997
1083,1:?,N,,0.999
1084,1:?,N,,0.999
1085,1:?,N,,1
1086,1:?,N,,0.997
1087,1:?,N,,1
1088,1:?,N,,0.999
1089,1:?,N,,1
1090,1:?,N,,0.999
1091,1:?,N,,1
1092,1:?,N,,0.998
1093,1:?,N,,1
1094,1:?,N,,0.988
1095,1:?,N,,0.991
1096,1:?,N,,1
1097,1:?,N,,1
1098,1:?,N,,1
1099,1:?,N,,0.999
1100,1:?,N,,1
1101,1:?,N,,0.997
1102,1:?,N,,1
1103,1:?,N,,0.999
1104,1:?,N,,1
1105,1:?,N,,1
1106,1:?,N,,1
1107,1:?,N,,0.995
1108,1:?,N,,1
1109,1:?,N,,0.989
1110,1:?,N,,0.995
1111,1:?,N,,1
1112,1:?,N,,1
1113,1:?,N,,0.999
1114,1:?,N,,1
1115,1:?,N,,0.995
1116,1:?,N,,1
1117,1:?,N,,0.992
1118,1:?,N,,0.997
1119,1:?,N,,0.998
1120,1:?,N,,1
1121,1:?,N,,0.996
1122,1:?,N,,0.987
1123,1:?,N,,0.921
1124,1:?,N,,0.996
1125,1:?,N,,0.99
1126,1:?,N,,0.994
1127,1:?,N,,0.997
1128,1:?,N,,1
1129,1:?,N,,0.999
1130,1:?,N,,1
1131,1:?,N,,0.999
1132,1:?,N,,1
1133,1:?,N,,0.999
1134,1:?,N,,1
1135,1:?,N,,1
1136,1:?,N,,1
1137,1:?,N,,1
1138,1:?,N,,1
1139,1:?,N,,1
1140,1:?,N,,1
1141,1:?,N,,0.999
1142,1:?,N,,1
1143,1:?,N,,1
1144,1:?,N,,1
1145,1:?,N,,1
1146,1:?,N,,1
1147,1:?,N,,1
1148,1:?,N,,1
1149,1:?,N,,1
1150,1:?,N,,1
1151,1:?,N,,1
1152,1:?,N,,1
1153,1:?,N,,1
1154,1:?,N,,1
1155,1:?,N,,1
1156,1:?,N,,0.994
1157,1:?,N,,1
1158,1:?,N,,1
1159,1:?,N,,1
1160,1:?,N,,1
1161,1:?,N,,1
1162,1:?,N,,1
1163,1:?,N,,1
1164,1:?,N,,0.997
1165,1:?,N,,1
1166,1:?,N,,0.999
1167,1:?,N,,1
1168,1:?,N,,1
1169,1:?,N,,1
1170,1:?,N,,1
1171,1:?,N,,1
1172,1:?,N,,0.997
1173,1:?,N,,1
1174,1:?,N,,1
1175,1:?,N,,1
1176,1:?,N,,1
1177,1:?,N,,1
1178,1:?,N,,1
1179,1:?,N,,1
1180,1:?,N,,0.999
1181,1:?,N,,1
1182,1:?,N,,1
1183,1:?,N,,1
1184,1:?,N,,1
1185,1:?,N,,1
1186,1:?,N,,0.999
1187,1:?,N,,1
1188,1:?,N,,0.988
1189,1:?,N,,0.991
1190,1:?,N,,0.999
1191,1:?,N,,1
1192,1:?,N,,1
1193,1:?,N,,1
1194,1:?,N,,0.999
1195,1:?,N,,1
1196,1:?,N,,1
1197,1:?,N,,1
1198,1:?,N,,1
1199,1:?,N,,1
1200,1:?,N,,1
1201,1:?,N,,1
1202,1:?,N,,0.999
1203,1:?,N,,1
1204,1:?,N,,0.997
1205,1:?,N,,1
1206,1:?,N,,1
1207,1:?,N,,1
1208,1:?,N,,1
1209,1:?,N,,1
1210,1:?,N,,1
1211,1:?,N,,1
1212,1:?,N,,1
1213,1:?,N,,1
1214,1:?,N,,1
1215,1:?,N,,1
1216,1:?,N,,1
1217,1:?,N,,1
1218,1:?,N,,0.997
1219,1:?,N,,1
1220,1:?,N,,0.989
1221,1:?,N,,0.995
1222,1:?,N,,1
1223,1:?,N,,1
1224,1:?,N,,1
1225,1:?,N,,1
1226,1:?,N,,0.999
1227,1:?,N,,1
1228,1:?,N,,0.999
1229,1:?,N,,1
1230,1:?,N,,1
1231,1:?,N,,1
1232,1:?,N,,1
1233,1:?,N,,1
1234,1:?,N,,0.997
1235,1:?,N,,1
1236,1:?,N,,0.992
1237,1:?,N,,0.997
1238,1:?,N,,1
1239,1:?,N,,1
1240,1:?,N,,1
1241,1:?,N,,0.997
1242,1:?,N,,1
1243,1:?,N,,0.996
1244,1:?,N,,0.998
1245,1:?,N,,0.999
1246,1:?,N,,1
1247,1:?,N,,0.998
1248,1:?,N,,0.993
1249,1:?,N,,0.975
1250,1:?,N,,0.997
1251,1:?,N,,0.989
1252,1:?,N,,0.985
1253,1:?,N,,0.991
1254,1:?,N,,0.995
1255,1:?,N,,0.994
1256,1:?,N,,0.995
1257,1:?,N,,0.992
1258,1:?,N,,0.997
1259,1:?,N,,0.994
1260,1:?,N,,1
1261,1:?,N,,0.999
1262,1:?,N,,0.997
1263,1:?,N,,0.999
1264,1:?,N,,0.996
1265,1:?,N,,0.999
1266,1:?,N,,0.994
1267,1:?,N,,1
1268,1:?,N,,1
1269,1:?,N,,1
1270,1:?,N,,0.997
1271,1:?,N,,0.999
1272,1:?,N,,0.999
1273,1:?,N,,1
1274,1:?,N,,0.997
1275,1:?,N,,1
1276,1:?,N,,0.999
1277,1:?,N,,1
1278,1:?,N,,0.999
1279,1:?,N,,1
1280,1:?,N,,0.998
1281,1:?,N,,1
1282,1:?,N,,0.994
1283,1:?,N,,1
1284,1:?,N,,1
1285,1:?,N,,1
1286,1:?,N,,1
1287,1:?,N,,1
1288,1:?,N,,1
1289,1:?,N,,1
1290,1:?,N,,0.997
1291,1:?,N,,1
1292,1:?,N,,0.999
1293,1:?,N,,1
1294,1:?,N,,1
1295,1:?,N,,1
1296,1:?,N,,1
1297,1:?,N,,1
1298,1:?,N,,0.997
1299,1:?,N,,1
1300,1:?,N,,1
1301,1:?,N,,1
1302,1:?,N,,1
1303,1:?,N,,1
1304,1:?,N,,1
1305,1:?,N,,1
1306,1:?,N,,0.999
1307,1:?,N,,1
1308,1:?,N,,1
1309,1:?,N,,1
1310,1:?,N,,1
1311,1:?,N,,1
1312,1:?,N,,0.999
1313,1:?,N,,1
1314,1:?,N,,0.992
1315,1:?,N,,0.995
1316,1:?,N,,0.996
1317,1:?,N,,0.999
1318,1:?,N,,0.997
1319,1:?,N,,0.999
1320,1:?,N,,0.999
1321,1:?,N,,1
1322,1:?,N,,0.997
1323,1:?,N,,1
1324,1:?,N,,0.999
1325,1:?,N,,1
1326,1:?,N,,1
1327,1:?,N,,1
1328,1:?,N,,1
1329,1:?,N,,1
1330,1:?,N,,0.994
1331,1:?,N,,0.999
1332,1:?,N,,0.999
1333,1:?,N,,1
1334,1:?,N,,0.996
1335,1:?,N,,0.998
1336,1:?,N,,0.998
1337,1:?,N,,0.999
1338,1:?,N,,0.996
1339,1:?,N,,1
1340,1:?,N,,0.998
1341,1:?,N,,1
1342,1:?,N,,0.998
1343,1:?,N,,0.999
1344,1:?,N,,0.998
1345,1:?,N,,0.999
1346,1:?,N,,0.992
1347,1:?,N,,0.999
1348,1:?,N,,0.999
1349,1:?,N,,1
1350,1:?,N,,1
1351,1:?,N,,1
1352,1:?,N,,1
1353,1:?,N,,1
1354,1:?,N,,0.996
1355,1:?,N,,1
1356,1:?,N,,1
1357,1:?,N,,0.999
1358,1:?,N,,1
1359,1:?,N,,0.999
1360,1:?,N,,1
1361,1:?,N,,0.994
1362,1:?,N,,1
1363,1:?,N,,1
1364,1:?,N,,1
1365,1:?,N,,0.998
1366,1:?,N,,0.999
1367,1:?,N,,0.999
1368,1:?,N,,1
1369,1:?,N,,0.996
1370,1:?,N,,1
1371,1:?,N,,0.998
1372,1:?,N,,1
1373,1:?,N,,0.998
1374,1:?,N,,0.999
1375,1:?,N,,0.996
1376,1:?,N,,0.999
1377,1:?,N,,0.985
1378,1:?,N,,0.951
1379,1:?,N,,0.992
1380,1:?,N,,0.998
1381,1:?,N,,0.997
1382,1:?,N,,0.999
1383,1:?,N,,0.99
1384,1:?,N,,1
1385,1:?,N,,0.997
1386,1:?,N,,1
1387,1:?,N,,0.999
1388,1:?,N,,1
1389,1:?,N,,1
1390,1:?,N,,1
1391,1:?,N,,0.995
1392,1:?,N,,1
1393,1:?,N,,0.997
1394,1:?,N,,1
1395,1:?,N,,1
1396,1:?,N,,1
1397,1:?,N,,1
1398,1:?,N,,1
1399,1:?,N,,1
1400,1:?,N,,1
1401,1:?,N,,1
1402,1:?,N,,1
1403,1:?,N,,1
1404,1:?,N,,1
1405,1:?,N,,1
1406,1:?,N,,0.997
1407,1:?,N,,1
1408,1:?,N,,0.992
1409,1:?,N,,0.999
1410,1:?,N,,0.999
1411,1:?,N,,1
1412,1:?,N,,1
1413,1:?,N,,1
1414,1:?,N,,1
1415,1:?,N,,1
1416,1:?,N,,0.996
1417,1:?,N,,1
1418,1:?,N,,0.998
1419,1:?,N,,1
1420,1:?,N,,0.999
1421,1:?,N,,1
1422,1:?,N,,0.999
1423,1:?,N,,1
1424,1:?,N,,0.995
1425,1:?,N,,1
1426,1:?,N,,1
1427,1:?,N,,1
1428,1:?,N,,0.999
1429,1:?,N,,1
1430,1:?,N,,1
1431,1:?,N,,1
1432,1:?,N,,0.997
1433,1:?,N,,1
1434,1:?,N,,0.999
1435,1:?,N,,1
1436,1:?,N,,0.999
1437,1:?,N,,0.999
1438,1:?,N,,0.986
1439,1:?,N,,1
1440,1:?,N,,0.982
1441,1:?,N,,0.954
1442,1:?,N,,0.996
1443,1:?,N,,1
1444,1:?,N,,0.999
1445,1:?,N,,1
1446,1:?,N,,0.995
1447,1:?,N,,1
1448,1:?,N,,0.999
1449,1:?,N,,1
1450,1:?,N,,1
1451,1:?,N,,1
1452,1:?,N,,1
1453,1:?,N,,1
1454,1:?,N,,0.997
1455,1:?,N,,1
1456,1:?,N,,0.994
1457,1:?,N,,1
1458,1:?,N,,1
1459,1:?,N,,1
1460,1:?,N,,0.998
1461,1:?,N,,0.999
1462,1:?,N,,0.999
1463,1:?,N,,1
1464,1:?,N,,0.997
1465,1:?,N,,1
1466,1:?,N,,0.999
1467,1:?,N,,1
1468,1:?,N,,0.999
1469,1:?,N,,0.999
1470,1:?,N,,0.986
1471,1:?,N,,1
1472,1:?,N,,0.98
1473,1:?,N,,0.972
1474,1:?,N,,0.998
1475,1:?,N,,1
1476,1:?,N,,1
1477,1:?,N,,1
1478,1:?,N,,0.997
1479,1:?,N,,1
1480,1:?,N,,0.996
1481,1:?,N,,1
1482,1:?,N,,0.998
1483,1:?,N,,1
1484,1:?,N,,0.999
1485,1:?,N,,0.999
1486,1:?,N,,0.986
1487,1:?,N,,1
1488,1:?,N,,0.98
1489,1:?,N,,0.987
1490,1:?,N,,0.999
1491,1:?,N,,1
1492,1:?,N,,0.998
1493,1:?,N,,0.999
1494,1:?,N,,0.986
1495,1:?,N,,1
1496,1:?,N,,0.983
1497,1:?,N,,0.993
1498,1:?,N,,1
1499,1:?,N,,0.99
1500,1:?,N,,0.971
1501,1:?,N,,0.872
1502,1:?,N,,0.99
1503,1:?,N,,0.79
1504,1:?,N,,0.84
1505,1:?,N,,0.988
1506,1:?,N,,0.951
1507,1:?,N,,0.851
1508,1:?,N,,0.988
1509,1:?,N,,0.991
1510,1:?,N,,0.992
1511,1:?,N,,0.998
1512,1:?,N,,0.945
1513,1:?,N,,0.863
1514,1:?,N,,0.637
1515,1:?,N,,0.922
1516,1:?,N,,0.988
1517,1:?,N,,0.991
1518,1:?,N,,0.999
1519,1:?,N,,1
1520,1:?,N,,0.997
1521,1:?,N,,0.999
1522,1:?,N,,0.99
1523,1:?,N,,1
1524,1:?,N,,0.945
1525,1:?,N,,0.992
1526,1:?,N,,0.99
1527,1:?,N,,0.999
1528,1:?,N,,0.96
1529,1:?,N,,0.958
1530,1:?,N,,0.877
1531,1:?,N,,0.972
1532,1:?,N,,0.988
1533,1:?,N,,0.991
1534,1:?,N,,0.999
1535,1:?,N,,1
1536,1:?,N,,1
1537,1:?,N,,1
1538,1:?,N,,0.999
1539,1:?,N,,1
1540,1:?,N,,0.997
1541,1:?,N,,1
1542,1:?,N,,0.999
1543,1:?,N,,1
1544,1:?,N,,1
1545,1:?,N,,1
1546,1:?,N,,0.995
1547,1:?,N,,1
1548,1:?,N,,0.945
1549,1:?,N,,0.992
1550,1:?,N,,0.999
1551,1:?,N,,1
1552,1:?,N,,1
1553,1:?,N,,1
1554,1:?,N,,0.988
1555,1:?,N,,0.999
1556,1:?,N,,0.96
1557,1:?,N,,0.996
1558,1:?,N,,0.995
1559,1:?,N,,0.999
1560,1:?,N,,0.981
1561,1:?,N,,0.986
1562,1:?,N,,0.967
1563,1:?,N,,0.989
1564,1:?,N,,0.988
1565,1:?,N,,0.991
1566,1:?,N,,0.999
1567,1:?,N,,1
1568,1:?,N,,1
1569,1:?,N,,1
1570,1:?,N,,0.999
1571,1:?,N,,1
1572,1:?,N,,1
1573,1:?,N,,1
1574,1:?,N,,1
1575,1:?,N,,1
1576,1:?,N,,1
1577,1:?,N,,1
1578,1:?,N,,0.999
1579,1:?,N,,1
1580,1:?,N,,0.997
1581,1:?,N,,1
1582,1:?,N,,1
1583,1:?,N,,1
1584,1:?,N,,1
1585,1:?,N,,1
1586,1:?,N,,1
1587,1:?,N,,1
1588,1:?,N,,1
1589,1:?,N,,1
1590,1:?,N,,1
1591,1:?,N,,1
1592,1:?,N,,1
1593,1:?,N,,1
1594,1:?,N,,0.997
1595,1:?,N,,1
1596,1:?,N,,0.945
1597,1:?,N,,0.992
1598,1:?,N,,0.999
1599,1:?,N,,1
1600,1:?,N,,1
1601,1:?,N,,1
1602,1:?,N,,0.999
1603,1:?,N,,1
1604,1:?,N,,1
1605,1:?,N,,1
1606,1:?,N,,1
1607,1:?,N,,1
1608,1:?,N,,0.998
1609,1:?,N,,0.994
1610,1:?,N,,0.999
1611,1:?,N,,0.96
1612,1:?,N,,0.996
1613,1:?,N,,0.999
1614,1:?,N,,0.999
1615,1:?,N,,1
1616,1:?,N,,1
1617,1:?,N,,0.994
1618,1:?,N,,0.999
1619,1:?,N,,0.981
1620,1:?,N,,0.997
1621,1:?,N,,0.997
1622,1:?,N,,0.999
1623,1:?,N,,0.991
1624,1:?,N,,0.993
1625,1:?,N,,0.988
1626,1:?,N,,0.994
1627,1:?,N,,0.985
1628,1:?,N,,0.951
1629,1:?,N,,0.992
1630,1:?,N,,0.998
1631,1:?,N,,0.997
1632,1:?,N,,0.999
1633,1:?,N,,0.99
1634,1:?,N,,1
1635,1:?,N,,0.997
1636,1:?,N,,1
1637,1:?,N,,0.999
1638,1:?,N,,1
1639,1:?,N,,1
1640,1:?,N,,1
1641,1:?,N,,0.995
1642,1:?,N,,1
1643,1:?,N,,0.997
1644,1:?,N,,1
1645,1:?,N,,1
1646,1:?,N,,1
1647,1:?,N,,1
1648,1:?,N,,1
1649,1:?,N,,1
1650,1:?,N,,1
1651,1:?,N,,1
1652,1:?,N,,1
1653,1:?,N,,1
1654,1:?,N,,1
1655,1:?,N,,1
1656,1:?,N,,0.997
1657,1:?,N,,1
1658,1:?,N,,0.992
1659,1:?,N,,0.999
1660,1:?,N,,0.999
1661,1:?,N,,1
1662,1:?,N,,1
1663,1:?,N,,1
1664,1:?,N,,1
1665,1:?,N,,1
1666,1:?,N,,0.996
1667,1:?,N,,1
1668,1:?,N,,0.998
1669,1:?,N,,1
1670,1:?,N,,0.999
1671,1:?,N,,1
1672,1:?,N,,0.999
1673,1:?,N,,1
1674,1:?,N,,0.995
1675,1:?,N,,1
1676,1:?,N,,1
1677,1:?,N,,1
1678,1:?,N,,0.999
1679,1:?,N,,1
1680,1:?,N,,1
1681,1:?,N,,1
1682,1:?,N,,0.997
1683,1:?,N,,1
1684,1:?,N,,0.999
1685,1:?,N,,1
1686,1:?,N,,0.999
1687,1:?,N,,0.999
1688,1:?,N,,0.986
1689,1:?,N,,1
1690,1:?,N,,0.933
1691,1:?,N,,0.863
1692,1:?,N,,0.99
1693,1:?,N,,0.999
1694,1:?,N,,1
1695,1:?,N,,1
1696,1:?,N,,0.988
1697,1:?,N,,0.999
1698,1:?,N,,1
1699,1:?,N,,1
1700,1:?,N,,1
1701,1:?,N,,1
1702,1:?,N,,1
1703,1:?,N,,0.998
1704,1:?,N,,0.994
1705,1:?,N,,0.999
1706,1:?,N,,0.995
1707,1:?,N,,1
1708,1:?,N,,1
1709,1:?,N,,1
1710,1:?,N,,0.999
1711,1:?,N,,1
1712,1:?,N,,1
1713,1:?,N,,1
1714,1:?,N,,0.997
1715,1:?,N,,0.998
1716,1:?,N,,1
1717,1:?,N,,1
1718,1:?,N,,0.999
1719,1:?,N,,0.994
1720,1:?,N,,0.979
1721,1:?,N,,0.997
1722,1:?,N,,0.892
1723,1:?,N,,0.958
1724,1:?,N,,0.995
1725,1:?,N,,0.999
1726,1:?,N,,1
1727,1:?,N,,1
1728,1:?,N,,0.994
1729,1:?,N,,0.999
1730,1:?,N,,0.997
1731,1:?,N,,1
1732,1:?,N,,0.999
1733,1:?,N,,1
1734,1:?,N,,0.999
1735,1:?,N,,0.994
1736,1:?,N,,0.979
1737,1:?,N,,0.997
1738,1:?,N,,0.865
1739,1:?,N,,0.986
1740,1:?,N,,0.997
1741,1:?,N,,0.999
1742,1:?,N,,0.999
1743,1:?,N,,0.999
1744,1:?,N,,0.997
1745,1:?,N,,0.896
1746,1:?,N,,0.993
1747,1:?,N,,0.986
1748,1:?,N,,0.997
1749,1:?,N,,0.953
1750,1:?,N,,0.978
1751,1:?,N,,0.951
1752,1:?,N,,0.982
1753,1:?,N,,0.733
1754,1:?,Y,,0.742
1755,1:?,N,,0.691
1756,1:?,N,,0.851
1757,1:?,N,,0.989
1758,1:?,N,,0.954
1759,1:?,N,,0.637
1760,1:?,N,,0.922
1761,1:?,N,,0.989
1762,1:?,N,,0.995
1763,1:?,N,,0.996
1764,1:?,N,,1
1765,1:?,N,,0.96
1766,1:?,N,,0.958
1767,1:?,N,,0.972
1768,1:?,N,,0.989
1769,1:?,N,,0.995
1770,1:?,N,,1
1771,1:?,N,,1
1772,1:?,N,,0.999
1773,1:?,N,,1
1774,1:?,N,,0.995
1775,1:?,N,,1
1776,1:?,N,,0.96
1777,1:?,N,,0.996
1778,1:?,N,,0.995
1779,1:?,N,,0.999
1780,1:?,N,,0.981
1781,1:?,N,,0.986
1782,1:?,N,,0.967
1783,1:?,N,,0.989
1784,1:?,N,,0.989
1785,1:?,N,,0.995
1786,1:?,N,,1
1787,1:?,N,,1
1788,1:?,N,,1
1789,1:?,N,,1
1790,1:?,N,,0.999
1791,1:?,N,,1
1792,1:?,N,,0.999
1793,1:?,N,,1
1794,1:?,N,,1
1795,1:?,N,,1
1796,1:?,N,,1
1797,1:?,N,,1
1798,1:?,N,,0.997
1799,1:?,N,,1
1800,1:?,N,,0.96
1801,1:?,N,,0.996
1802,1:?,N,,0.999
1803,1:?,N,,0.999
1804,1:?,N,,1
1805,1:?,N,,1
1806,1:?,N,,0.994
1807,1:?,N,,0.999
1808,1:?,N,,0.981
1809,1:?,N,,0.997
1810,1:?,N,,0.997
1811,1:?,N,,0.999
1812,1:?,N,,0.991
1813,1:?,N,,0.993
1814,1:?,N,,0.988
1815,1:?,N,,0.994
1816,1:?,N,,0.982
1817,1:?,N,,0.954
1818,1:?,N,,0.996
1819,1:?,N,,1
1820,1:?,N,,0.999
1821,1:?,N,,1
1822,1:?,N,,0.995
1823,1:?,N,,1
1824,1:?,N,,0.999
1825,1:?,N,,1
1826,1:?,N,,1
1827,1:?,N,,1
1828,1:?,N,,1
1829,1:?,N,,1
1830,1:?,N,,0.997
1831,1:?,N,,1
1832,1:?,N,,0.994
1833,1:?,N,,1
1834,1:?,N,,1
1835,1:?,N,,1
1836,1:?,N,,0.998
1837,1:?,N,,0.999
1838,1:?,N,,0.999
1839,1:?,N,,1
1840,1:?,N,,0.997
1841,1:?,N,,1
1842,1:?,N,,0.999
1843,1:?,N,,1
1844,1:?,N,,0.999
1845,1:?,N,,0.999
1846,1:?,N,,0.986
1847,1:?,N,,1
1848,1:?,N,,0.892
1849,1:?,N,,0.958
1850,1:?,N,,0.995
1851,1:?,N,,0.999
1852,1:?,N,,1
1853,1:?,N,,1
1854,1:?,N,,0.994
1855,1:?,N,,0.999
1856,1:?,N,,0.997
1857,1:?,N,,1
1858,1:?,N,,0.999
1859,1:?,N,,1
1860,1:?,N,,0.999
1861,1:?,N,,0.994
1862,1:?,N,,0.997
1863,1:?,N,,0.865
1864,1:?,N,,0.986
1865,1:?,N,,0.997
1866,1:?,N,,0.999
1867,1:?,N,,0.999
1868,1:?,N,,0.999
1869,1:?,N,,0.979
1870,1:?,N,,0.997
1871,1:?,N,,0.896
1872,1:?,N,,0.993
1873,1:?,N,,0.986
1874,1:?,N,,0.997
1875,1:?,N,,0.953
1876,1:?,N,,0.978
1877,1:?,N,,0.951
1878,1:?,N,,0.982
1879,1:?,N,,0.55
1880,1:?,Y,,0.614
1881,1:?,N,,0.675
1882,1:?,N,,0.922
1883,1:?,N,,0.992
1884,1:?,N,,0.972
1885,1:?,N,,0.877
1886,1:?,N,,0.972
1887,1:?,N,,0.992
1888,1:?,N,,0.997
1889,1:?,N,,0.998
1890,1:?,N,,1
1891,1:?,N,,0.981
1892,1:?,N,,0.986
1893,1:?,N,,0.967
1894,1:?,N,,0.989
1895,1:?,N,,0.992
1896,1:?,N,,0.997
1897,1:?,N,,1
1898,1:?,N,,1
1899,1:?,N,,1
1900,1:?,N,,1
1901,1:?,N,,0.997
1902,1:?,N,,1
1903,1:?,N,,0.981
1904,1:?,N,,0.997
1905,1:?,N,,0.997
1906,1:?,N,,0.999
1907,1:?,N,,0.991
1908,1:?,N,,0.993
1909,1:?,N,,0.994
1910,1:?,N,,0.98
1911,1:?,N,,0.972
1912,1:?,N,,0.998
1913,1:?,N,,1
1914,1:?,N,,1
1915,1:?,N,,1
1916,1:?,N,,0.997
1917,1:?,N,,1
1918,1:?,N,,0.996
1919,1:?,N,,1
1920,1:?,N,,0.998
1921,1:?,N,,1
1922,1:?,N,,0.999
1923,1:?,N,,0.999
1924,1:?,N,,0.986
1925,1:?,N,,1
1926,1:?,N,,0.865
1927,1:?,N,,0.986
1928,1:?,N,,0.997
1929,1:?,N,,0.999
1930,1:?,N,,0.999
1931,1:?,N,,0.999
1932,1:?,N,,0.979
1933,1:?,N,,0.997
1934,1:?,N,,0.896
1935,1:?,N,,0.993
1936,1:?,N,,0.986
1937,1:?,N,,0.997
1938,1:?,N,,0.953
1939,1:?,N,,0.978
1940,1:?,N,,0.951
1941,1:?,N,,0.982
1942,1:?,Y,,0.603
1943,1:?,N,,0.657
1944,1:?,N,,0.789
1945,1:?,N,,0.972
1946,1:?,N,,0.996
1947,1:?,N,,0.987
1948,1:?,N,,0.967
1949,1:?,N,,0.989
1950,1:?,N,,0.996
1951,1:?,N,,0.998
1952,1:?,N,,0.999
1953,1:?,N,,1
1954,1:?,N,,0.991
1955,1:?,N,,0.993
1956,1:?,N,,0.988
1957,1:?,N,,0.994
1958,1:?,N,,0.98
1959,1:?,N,,0.987
1960,1:?,N,,0.999
1961,1:?,N,,1
1962,1:?,N,,0.998
1963,1:?,N,,0.999
1964,1:?,N,,0.986
1965,1:?,N,,1
1966,1:?,N,,0.896
1967,1:?,N,,0.993
1968,1:?,N,,0.986
1969,1:?,N,,0.997
1970,1:?,N,,0.953
1971,1:?,N,,0.978
1972,1:?,N,,0.951
1973,1:?,N,,0.982
1974,1:?,Y,,0.669
1975,1:?,N,,0.893
1976,1:?,N,,0.921
1977,1:?,N,,0.989
1978,1:?,N,,0.998
1979,1:?,N,,0.993
1980,1:?,N,,0.988
1981,1:?,N,,0.994
1982,1:?,N,,0.983
1983,1:?,N,,0.993
1984,1:?,N,,0.996
1985,1:?,N,,1
1986,1:?,N,,0.953
1987,1:?,N,,0.978
1988,1:?,N,,0.951
1989,1:?,N,,0.982
1990,1:?,Y,,0.633
1991,1:?,N,,0.971
1992,1:?,N,,0.975
1993,1:?,N,,0.994
1994,1:?,N,,0.99
1995,1:?,N,,0.971
1996,1:?,N,,0.951
1997,1:?,N,,0.982
1998,1:?,N,,0.543
1999,1:?,N,,0.988
2000,1:?,N,,0.872
2001,1:?,N,,0.982
2002,1:?,N,,0.807
2003,1:?,N,,0.96
2004,1:?,N,,0.964
2005,1:?,N,,0.827
2006,1:?,N,,0.804
2007,1:?,N,,0.984
2008,1:?,N,,0.932
2009,1:?,Y,,0.774
2010,1:?,N,,0.692
2011,1:?,N,,0.984
2012,1:?,N,,0.938
2013,1:?,N,,0.985
2014,1:?,N,,0.991
2015,1:?,N,,0.898
2016,1:?,Y,,0.537
2017,1:?,Y,,0.742
2018,1:?,N,,0.647
2019,1:?,N,,0.984
2020,1:?,N,,0.938
2021,1:?,N,,0.994
2022,1:?,N,,0.999
2023,1:?,N,,0.993
2024,1:?,N,,0.993
2025,1:?,N,,0.951
2026,1:?,N,,0.995
2027,1:?,N,,0.898
2028,1:?,N,,0.915
2029,1:?,N,,0.951
2030,1:?,N,,0.988
2031,1:?,N,,0.845
2032,1:?,N,,0.622
2033,1:?,Y,,0.614
2034,1:?,N,,0.738
2035,1:?,N,,0.984
2036,1:?,N,,0.938
2037,1:?,N,,0.994
2038,1:?,N,,0.999
2039,1:?,N,,0.998
2040,1:?,N,,0.999
2041,1:?,N,,0.991
2042,1:?,N,,1
2043,1:?,N,,0.993
2044,1:?,N,,0.999
2045,1:?,N,,0.995
2046,1:?,N,,0.999
2047,1:?,N,,0.996
2048,1:?,N,,0.996
2049,1:?,N,,0.954
2050,1:?,N,,0.998
2051,1:?,N,,0.898
2052,1:?,N,,0.915
2053,1:?,N,,0.991
2054,1:?,N,,0.999
2055,1:?,N,,0.996
2056,1:?,N,,0.996
2057,1:?,N,,0.863
2058,1:?,N,,0.993
2059,1:?,N,,0.845
2060,1:?,N,,0.976
2061,1:?,N,,0.954
2062,1:?,N,,0.993
2063,1:?,N,,0.841
2064,1:?,N,,0.847
2065,1:?,N,,0.657
2066,1:?,N,,0.889
2067,1:?,N,,0.984
2068,1:?,N,,0.938
2069,1:?,N,,0.994
2070,1:?,N,,0.999
2071,1:?,N,,0.998
2072,1:?,N,,0.999
2073,1:?,N,,0.991
2074,1:?,N,,1
2075,1:?,N,,0.998
2076,1:?,N,,1
2077,1:?,N,,1
2078,1:?,N,,1
2079,1:?,N,,1
2080,1:?,N,,1
2081,1:?,N,,0.995
2082,1:?,N,,1
2083,1:?,N,,0.993
2084,1:?,N,,0.999
2085,1:?,N,,1
2086,1:?,N,,1
2087,1:?,N,,0.997
2088,1:?,N,,0.999
2089,1:?,N,,0.999
2090,1:?,N,,1
2091,1:?,N,,0.996
2092,1:?,N,,1
2093,1:?,N,,0.999
2094,1:?,N,,1
2095,1:?,N,,0.998
2096,1:?,N,,0.998
2097,1:?,N,,0.972
2098,1:?,N,,0.999
2099,1:?,N,,0.898
2100,1:?,N,,0.991
2101,1:?,N,,0.999
2102,1:?,N,,1
2103,1:?,N,,1
2104,1:?,N,,0.992
2105,1:?,N,,0.999
2106,1:?,N,,0.996
2107,1:?,N,,1
2108,1:?,N,,0.999
2109,1:?,N,,1
2110,1:?,N,,0.998
2111,1:?,N,,0.991
2112,1:?,N,,0.958
2113,1:?,N,,0.996
2114,1:?,N,,0.845
2115,1:?,N,,0.976
2116,1:?,N,,0.995
2117,1:?,N,,0.999
2118,1:?,N,,0.998
2119,1:?,N,,0.998
2120,1:?,N,,0.958
2121,1:?,N,,0.996
2122,1:?,N,,0.841
2123,1:?,N,,0.991
2124,1:?,N,,0.972
2125,1:?,N,,0.996
2126,1:?,N,,0.907
2127,1:?,N,,0.957
2128,1:?,N,,0.893
2129,1:?,N,,0.966
2130,1:?,N,,0.984
2131,1:?,N,,0.938
2132,1:?,N,,0.994
2133,1:?,N,,0.999
2134,1:?,N,,0.998
2135,1:?,N,,0.999
2136,1:?,N,,0.991
2137,1:?,N,,1
2138,1:?,N,,0.998
2139,1:?,N,,1
2140,1:?,N,,1
2141,1:?,N,,1
2142,1:?,N,,1
2143,1:?,N,,1
2144,1:?,N,,0.995
2145,1:?,N,,1
2146,1:?,N,,0.998
2147,1:?,N,,1
2148,1:?,N,,1
2149,1:?,N,,1
2150,1:?,N,,1
2151,1:?,N,,1
2152,1:?,N,,1
2153,1:?,N,,1
2154,1:?,N,,1
2155,1:?,N,,1
2156,1:?,N,,1
2157,1:?,N,,1
2158,1:?,N,,0.997
2159,1:?,N,,1
2160,1:?,N,,0.993
2161,1:?,N,,0.999
2162,1:?,N,,1
2163,1:?,N,,1
2164,1:?,N,,1
2165,1:?,N,,1
2166,1:?,N,,1
2167,1:?,N,,1
2168,1:?,N,,0.997
2169,1:?,N,,1
2170,1:?,N,,0.999
2171,1:?,N,,1
2172,1:?,N,,1
2173,1:?,N,,1
2174,1:?,N,,1
2175,1:?,N,,1
2176,1:?,N,,0.996
2177,1:?,N,,1
2178,1:?,N,,1
2179,1:?,N,,1
2180,1:?,N,,1
2181,1:?,N,,1
2182,1:?,N,,1
2183,1:?,N,,1
2184,1:?,N,,0.998
2185,1:?,N,,1
2186,1:?,N,,1
2187,1:?,N,,1
2188,1:?,N,,1
2189,1:?,N,,0.999
2190,1:?,N,,0.987
2191,1:?,N,,1
2192,1:?,N,,0.898
2193,1:?,N,,0.915
2194,1:?,N,,0.991
2195,1:?,N,,0.999
2196,1:?,N,,1
2197,1:?,N,,1
2198,1:?,N,,0.992
2199,1:?,N,,0.999
2200,1:?,N,,1
2201,1:?,N,,1
2202,1:?,N,,1
2203,1:?,N,,1
2204,1:?,N,,1
2205,1:?,N,,0.998
2206,1:?,N,,0.996
2207,1:?,N,,0.999
2208,1:?,N,,0.996
2209,1:?,N,,1
2210,1:?,N,,1
2211,1:?,N,,1
2212,1:?,N,,1
2213,1:?,N,,1
2214,1:?,N,,1
2215,1:?,N,,1
2216,1:?,N,,0.998
2217,1:?,N,,0.998
2218,1:?,N,,1
2219,1:?,N,,1
2220,1:?,N,,0.999
2221,1:?,N,,0.995
2222,1:?,N,,0.986
2223,1:?,N,,0.997
2224,1:?,N,,0.845
2225,1:?,N,,0.976
2226,1:?,N,,0.995
2227,1:?,N,,0.999
2228,1:?,N,,1
2229,1:?,N,,1
2230,1:?,N,,0.996
2231,1:?,N,,0.999
2232,1:?,N,,0.998
2233,1:?,N,,1
2234,1:?,N,,1
2235,1:?,N,,1
2236,1:?,N,,0.999
2237,1:?,N,,0.995
2238,1:?,N,,0.986
2239,1:?,N,,0.997
2240,1:?,N,,0.841
2241,1:?,N,,0.997
2242,1:?,N,,0.999
2243,1:?,N,,1
2244,1:?,N,,0.999
2245,1:?,N,,0.986
2246,1:?,N,,0.997
2247,1:?,N,,0.907
2248,1:?,N,,0.995
2249,1:?,N,,0.987
2250,1:?,N,,0.997
2251,1:?,N,,0.966
2252,1:?,N,,0.985
2253,1:?,N,,0.971
2254,1:?,N,,0.987
2255,1:?,N,,0.984
2256,1:?,N,,0.938
2257,1:?,N,,0.994
2258,1:?,N,,0.999
2259,1:?,N,,0.998
2260,1:?,N,,0.999
2261,1:?,N,,0.991
2262,1:?,N,,1
2263,1:?,N,,0.998
2264,1:?,N,,1
2265,1:?,N,,1
2266,1:?,N,,1
2267,1:?,N,,1
2268,1:?,N,,0.995
2269,1:?,N,,1
2270,1:?,N,,0.998
2271,1:?,N,,1
2272,1:?,N,,1
2273,1:?,N,,1
2274,1:?,N,,1
2275,1:?,N,,1
2276,1:?,N,,1
2277,1:?,N,,1
2278,1:?,N,,1
2279,1:?,N,,1
2280,1:?,N,,1
2281,1:?,N,,1
2282,1:?,N,,1
2283,1:?,N,,1
2284,1:?,N,,0.997
2285,1:?,N,,1
2286,1:?,N,,0.998
2287,1:?,N,,1
2288,1:?,N,,1
2289,1:?,N,,1
2290,1:?,N,,1
2291,1:?,N,,1
2292,1:?,N,,1
2293,1:?,N,,1
2294,1:?,N,,1
2295,1:?,N,,1
2296,1:?,N,,1
2297,1:?,N,,1
2298,1:?,N,,1
2299,1:?,N,,1
2300,1:?,N,,1
2301,1:?,N,,1
2302,1:?,N,,1
2303,1:?,N,,1
2304,1:?,N,,1
2305,1:?,N,,1
2306,1:?,N,,1
2307,1:?,N,,1
2308,1:?,N,,1
2309,1:?,N,,1
2310,1:?,N,,1
2311,1:?,N,,1
2312,1:?,N,,1
2313,1:?,N,,1
2314,1:?,N,,1
2315,1:?,N,,1
2316,1:?,N,,0.998
2317,1:?,N,,1
2318,1:?,N,,0.993
2319,1:?,N,,0.999
2320,1:?,N,,1
2321,1:?,N,,1
2322,1:?,N,,1
2323,1:?,N,,1
2324,1:?,N,,1
2325,1:?,N,,1
2326,1:?,N,,1
2327,1:?,N,,1
2328,1:?,N,,1
2329,1:?,N,,1
2330,1:?,N,,1
2331,1:?,N,,1
2332,1:?,N,,1
2333,1:?,N,,1
2334,1:?,N,,0.997
2335,1:?,N,,1
2336,1:?,N,,1
2337,1:?,N,,1
2338,1:?,N,,0.999
2339,1:?,N,,1
2340,1:?,N,,1
2341,1:?,N,,1
2342,1:?,N,,1
2343,1:?,N,,1
2344,1:?,N,,1
2345,1:?,N,,1
2346,1:?,N,,1
2347,1:?,N,,1
2348,1:?,N,,1
2349,1:?,N,,1
2350,1:?,N,,0.996
2351,1:?,N,,1
2352,1:?,N,,1
2353,1:?,N,,1
2354,1:?,N,,1
2355,1:?,N,,1
2356,1:?,N,,1
2357,1:?,N,,1
2358,1:?,N,,1
2359,1:?,N,,1
2360,1:?,N,,1
2361,1:?,N,,1
2362,1:?,N,,1
2363,1:?,N,,1
2364,1:?,N,,1
2365,1:?,N,,0.998
2366,1:?,N,,1
2367,1:?,N,,1
2368,1:?,N,,1
2369,1:?,N,,1
2370,1:?,N,,1
2371,1:?,N,,1
2372,1:?,N,,1
2373,1:?,N,,1
2374,1:?,N,,1
2375,1:?,N,,1
2376,1:?,N,,1
2377,1:?,N,,1
2378,1:?,N,,0.999
2379,1:?,N,,0.993
2380,1:?,N,,1
2381,1:?,N,,0.898
2382,1:?,N,,0.915
2383,1:?,N,,0.991
2384,1:?,N,,0.999
2385,1:?,N,,1
2386,1:?,N,,1
2387,1:?,N,,0.992
2388,1:?,N,,0.999
2389,1:?,N,,1
2390,1:?,N,,1
2391,1:?,N,,1
2392,1:?,N,,1
2393,1:?,N,,1
2394,1:?,N,,0.998
2395,1:?,N,,0.996
2396,1:?,N,,0.999
2397,1:?,N,,1
2398,1:?,N,,1
2399,1:?,N,,1
2400,1:?,N,,1
2401,1:?,N,,1
2402,1:?,N,,1
2403,1:?,N,,1
2404,1:?,N,,1
2405,1:?,N,,1
2406,1:?,N,,1
2407,1:?,N,,1
2408,1:?,N,,1
2409,1:?,N,,0.998
2410,1:?,N,,0.997
2411,1:?,N,,0.998
2412,1:?,N,,0.996
2413,1:?,N,,1
2414,1:?,N,,1
2415,1:?,N,,1
2416,1:?,N,,1
2417,1:?,N,,1
2418,1:?,N,,1
2419,1:?,N,,1
2420,1:?,N,,1
2421,1:?,N,,1
2422,1:?,N,,1
2423,1:?,N,,1
2424,1:?,N,,1
2425,1:?,N,,1
2426,1:?,N,,1
2427,1:?,N,,1
2428,1:?,N,,0.998
2429,1:?,N,,0.998
2430,1:?,N,,1
2431,1:?,N,,1
2432,1:?,N,,1
2433,1:?,N,,1
2434,1:?,N,,0.998
2435,1:?,N,,1
2436,1:?,N,,0.999
2437,1:?,N,,0.998
2438,1:?,N,,1
2439,1:?,N,,1
2440,1:?,N,,0.999
2441,1:?,N,,0.996
2442,1:?,N,,0.993
2443,1:?,N,,0.997
2444,1:?,N,,0.845
2445,1:?,N,,0.976
2446,1:?,N,,0.995
2447,1:?,N,,0.999
2448,1:?,N,,1
2449,1:?,N,,1
2450,1:?,N,,0.996
2451,1:?,N,,0.999
2452,1:?,N,,1
2453,1:?,N,,1
2454,1:?,N,,1
2455,1:?,N,,1
2456,1:?,N,,1
2457,1:?,N,,0.998
2458,1:?,N,,0.997
2459,1:?,N,,0.998
2460,1:?,N,,0.998
2461,1:?,N,,1
2462,1:?,N,,1
2463,1:?,N,,1
2464,1:?,N,,1
2465,1:?,N,,1
2466,1:?,N,,1
2467,1:?,N,,1
2468,1:?,N,,0.999
2469,1:?,N,,0.998
2470,1:?,N,,1
2471,1:?,N,,1
2472,1:?,N,,0.999
2473,1:?,N,,0.996
2474,1:?,N,,0.993
2475,1:?,N,,0.997
2476,1:?,N,,0.841
2477,1:?,N,,0.991
2478,1:?,N,,0.997
2479,1:?,N,,0.999
2480,1:?,N,,1
2481,1:?,N,,1
2482,1:?,N,,0.997
2483,1:?,N,,0.998
2484,1:?,N,,1
2485,1:?,N,,1
2486,1:?,N,,1
2487,1:?,N,,1
2488,1:?,N,,0.999
2489,1:?,N,,0.996
2490,1:?,N,,0.993
2491,1:?,N,,0.997
2492,1:?,N,,0.907
2493,1:?,N,,0.995
2494,1:?,N,,0.998
2495,1:?,N,,0.998
2496,1:?,N,,1
2497,1:?,N,,0.999
2498,1:?,N,,0.993
2499,1:?,N,,0.997
2500,1:?,N,,0.966
2501,1:?,N,,0.993
2502,1:?,N,,0.997
2503,1:?,N,,0.987
2504,1:?,N,,0.993
2505,1:?,N,,0.988
2506,1:?,N,,0.993
2507,1:?,N,,0.985
2508,1:?,N,,0.932
2509,1:?,N,,0.985
2510,1:?,N,,0.991
2511,1:?,N,,0.993
2512,1:?,N,,0.951
2513,1:?,N,,0.995
2514,1:?,N,,0.993
2515,1:?,N,,0.999
2516,1:?,N,,0.995
2517,1:?,N,,0.999
2518,1:?,N,,0.996
2519,1:?,N,,0.996
2520,1:?,N,,0.954
2521,1:?,N,,0.998
2522,1:?,N,,0.993
2523,1:?,N,,0.999
2524,1:?,N,,1
2525,1:?,N,,1
2526,1:?,N,,0.997
2527,1:?,N,,0.999
2528,1:?,N,,1
2529,1:?,N,,0.996
2530,1:?,N,,1
2531,1:?,N,,0.999
2532,1:?,N,,1
2533,1:?,N,,0.998
2534,1:?,N,,0.998
2535,1:?,N,,0.972
2536,1:?,N,,0.999
2537,1:?,N,,0.993
2538,1:?,N,,0.999
2539,1:?,N,,1
2540,1:?,N,,1
2541,1:?,N,,1
2542,1:?,N,,1
2543,1:?,N,,1
2544,1:?,N,,1
2545,1:?,N,,0.997
2546,1:?,N,,1
2547,1:?,N,,0.999
2548,1:?,N,,1
2549,1:?,N,,1
2550,1:?,N,,1
2551,1:?,N,,1
2552,1:?,N,,1
2553,1:?,N,,0.996
2554,1:?,N,,1
2555,1:?,N,,1
2556,1:?,N,,1
2557,1:?,N,,1
2558,1:?,N,,1
2559,1:?,N,,1
2560,1:?,N,,1
2561,1:?,N,,0.998
2562,1:?,N,,1
2563,1:?,N,,1
2564,1:?,N,,1
2565,1:?,N,,1
2566,1:?,N,,0.999
2567,1:?,N,,0.987
2568,1:?,N,,1
2569,1:?,N,,0.993
2570,1:?,N,,0.999
2571,1:?,N,,1
2572,1:?,N,,1
2573,1:?,N,,1
2574,1:?,N,,1
2575,1:?,N,,1
2576,1:?,N,,1
2577,1:?,N,,1
2578,1:?,N,,1
2579,1:?,N,,1
2580,1:?,N,,1
2581,1:?,N,,1
2582,1:?,N,,1
2583,1:?,N,,1
2584,1:?,N,,1
2585,1:?,N,,0.997
2586,1:?,N,,1
2587,1:?,N,,1
2588,1:?,N,,1
2589,1:?,N,,0.999
2590,1:?,N,,1
2591,1:?,N,,1
2592,1:?,N,,1
2593,1:?,N,,1
2594,1:?,N,,1
2595,1:?,N,,1
2596,1:?,N,,1
2597,1:?,N,,1
2598,1:?,N,,1
2599,1:?,N,,1
2600,1:?,N,,1
2601,1:?,N,,0.996
2602,1:?,N,,1
2603,1:?,N,,1
2604,1:?,N,,1
2605,1:?,N,,1
2606,1:?,N,,1
2607,1:?,N,,1
2608,1:?,N,,1
2609,1:?,N,,1
2610,1:?,N,,1
2611,1:?,N,,1
2612,1:?,N,,1
2613,1:?,N,,1
2614,1:?,N,,1
2615,1:?,N,,1
2616,1:?,N,,0.998
2617,1:?,N,,1
2618,1:?,N,,1
2619,1:?,N,,1
2620,1:?,N,,1
2621,1:?,N,,1
2622,1:?,N,,1
2623,1:?,N,,1
2624,1:?,N,,1
2625,1:?,N,,1
2626,1:?,N,,1
2627,1:?,N,,1
2628,1:?,N,,1
2629,1:?,N,,0.999
2630,1:?,N,,0.993
2631,1:?,N,,1
2632,1:?,N,,0.991
2633,1:?,N,,0.993
2634,1:?,N,,0.995
2635,1:?,N,,0.999
2636,1:?,N,,0.997
2637,1:?,N,,0.999
2638,1:?,N,,1
2639,1:?,N,,0.997
2640,1:?,N,,1
2641,1:?,N,,0.999
2642,1:?,N,,1
2643,1:?,N,,1
2644,1:?,N,,1
2645,1:?,N,,1
2646,1:?,N,,1
2647,1:?,N,,0.997
2648,1:?,N,,1
2649,1:?,N,,1
2650,1:?,N,,1
2651,1:?,N,,1
2652,1:?,N,,1
2653,1:?,N,,1
2654,1:?,N,,1
2655,1:?,N,,1
2656,1:?,N,,1
2657,1:?,N,,1
2658,1:?,N,,0.993
2659,1:?,N,,0.999
2660,1:?,N,,0.999
2661,1:?,N,,1
2662,1:?,N,,0.999
2663,1:?,N,,1
2664,1:?,N,,1
2665,1:?,N,,1
2666,1:?,N,,0.996
2667,1:?,N,,1
2668,1:?,N,,0.998
2669,1:?,N,,1
2670,1:?,N,,0.999
2671,1:?,N,,1
2672,1:?,N,,0.999
2673,1:?,N,,1
2674,1:?,N,,0.996
2675,1:?,N,,1
2676,1:?,N,,1
2677,1:?,N,,1
2678,1:?,N,,0.999
2679,1:?,N,,1
2680,1:?,N,,1
2681,1:?,N,,0.998
2682,1:?,N,,1
2683,1:?,N,,0.999
2684,1:?,N,,1
2685,1:?,N,,0.999
2686,1:?,N,,1
2687,1:?,N,,0.999
2688,1:?,N,,1
2689,1:?,N,,0.99
2690,1:?,N,,0.996
2691,1:?,N,,0.999
2692,1:?,N,,1
2693,1:?,N,,1
2694,1:?,N,,1
2695,1:?,N,,1
2696,1:?,N,,1
2697,1:?,N,,1
2698,1:?,N,,1
2699,1:?,N,,1
2700,1:?,N,,1
2701,1:?,N,,1
2702,1:?,N,,1
2703,1:?,N,,1
2704,1:?,N,,1
2705,1:?,N,,0.996
2706,1:?,N,,1
2707,1:?,N,,1
2708,1:?,N,,1
2709,1:?,N,,0.999
2710,1:?,N,,1
2711,1:?,N,,1
2712,1:?,N,,0.999
2713,1:?,N,,1
2714,1:?,N,,1
2715,1:?,N,,1
2716,1:?,N,,1
2717,1:?,N,,1
2718,1:?,N,,0.999
2719,1:?,N,,1
2720,1:?,N,,0.991
2721,1:?,N,,0.998
2722,1:?,N,,1
2723,1:?,N,,1
2724,1:?,N,,1
2725,1:?,N,,1
2726,1:?,N,,1
2727,1:?,N,,1
2728,1:?,N,,0.998
2729,1:?,N,,1
2730,1:?,N,,0.999
2731,1:?,N,,1
2732,1:?,N,,1
2733,1:?,N,,1
2734,1:?,N,,0.999
2735,1:?,N,,1
2736,1:?,N,,0.993
2737,1:?,N,,0.999
2738,1:?,N,,1
2739,1:?,N,,1
2740,1:?,N,,0.999
2741,1:?,N,,0.999
2742,1:?,N,,1
2743,1:?,N,,0.997
2744,1:?,N,,0.999
2745,1:?,N,,0.999
2746,1:?,N,,1
2747,1:?,N,,0.999
2748,1:?,N,,0.997
2749,1:?,N,,0.971
2750,1:?,N,,0.999
2751,1:?,N,,0.941
2752,1:?,Y,,0.537
2753,1:?,N,,0.951
2754,1:?,N,,0.988
2755,1:?,N,,0.996
2756,1:?,N,,0.996
2757,1:?,N,,0.863
2758,1:?,N,,0.993
2759,1:?,N,,0.996
2760,1:?,N,,1
2761,1:?,N,,0.999
2762,1:?,N,,1
2763,1:?,N,,0.998
2764,1:?,N,,0.958
2765,1:?,N,,0.996
2766,1:?,N,,0.996
2767,1:?,N,,1
2768,1:?,N,,1
2769,1:?,N,,1
2770,1:?,N,,1
2771,1:?,N,,1
2772,1:?,N,,1
2773,1:?,N,,1
2774,1:?,N,,0.998
2775,1:?,N,,0.998
2776,1:?,N,,1
2777,1:?,N,,1
2778,1:?,N,,0.999
2779,1:?,N,,0.995
2780,1:?,N,,0.986
2781,1:?,N,,0.997
2782,1:?,N,,0.996
2783,1:?,N,,1
2784,1:?,N,,1
2785,1:?,N,,1
2786,1:?,N,,1
2787,1:?,N,,1
2788,1:?,N,,1
2789,1:?,N,,1
2790,1:?,N,,1
2791,1:?,N,,1
2792,1:?,N,,1
2793,1:?,N,,1
2794,1:?,N,,1
2795,1:?,N,,1
2796,1:?,N,,1
2797,1:?,N,,1
2798,1:?,N,,0.998
2799,1:?,N,,0.998
2800,1:?,N,,1
2801,1:?,N,,1
2802,1:?,N,,1
2803,1:?,N,,1
2804,1:?,N,,0.998
2805,1:?,N,,1
2806,1:?,N,,0.999
2807,1:?,N,,0.998
2808,1:?,N,,1
2809,1:?,N,,1
2810,1:?,N,,0.999
2811,1:?,N,,0.996
2812,1:?,N,,0.993
2813,1:?,N,,0.997
2814,1:?,N,,0.99
2815,1:?,N,,0.996
2816,1:?,N,,0.999
2817,1:?,N,,1
2818,1:?,N,,1
2819,1:?,N,,1
2820,1:?,N,,1
2821,1:?,N,,1
2822,1:?,N,,1
2823,1:?,N,,1
2824,1:?,N,,1
2825,1:?,N,,1
2826,1:?,N,,1
2827,1:?,N,,1
2828,1:?,N,,1
2829,1:?,N,,1
2830,1:?,N,,0.996
2831,1:?,N,,1
2832,1:?,N,,1
2833,1:?,N,,1
2834,1:?,N,,0.999
2835,1:?,N,,1
2836,1:?,N,,1
2837,1:?,N,,1
2838,1:?,N,,0.999
2839,1:?,N,,1
2840,1:?,N,,1
2841,1:?,N,,1
2842,1:?,N,,1
2843,1:?,N,,1
2844,1:?,N,,0.999
2845,1:?,N,,1
2846,1:?,N,,0.984
2847,1:?,N,,0.991
2848,1:?,N,,1
2849,1:?,N,,1
2850,1:?,N,,1
2851,1:?,N,,1
2852,1:?,N,,0.998
2853,1:?,N,,1
2854,1:?,N,,0.999
2855,1:?,N,,1
2856,1:?,N,,1
2857,1:?,N,,1
2858,1:?,N,,1
2859,1:?,N,,0.994
2860,1:?,N,,1
2861,1:?,N,,0.987
2862,1:?,N,,0.995
2863,1:?,N,,1
2864,1:?,N,,1
2865,1:?,N,,1
2866,1:?,N,,1
2867,1:?,N,,0.994
2868,1:?,N,,1
2869,1:?,N,,0.992
2870,1:?,N,,0.996
2871,1:?,N,,0.999
2872,1:?,N,,1
2873,1:?,N,,0.996
2874,1:?,N,,0.991
2875,1:?,N,,0.978
2876,1:?,N,,0.994
2877,1:?,N,,0.89
2878,1:?,N,,0.622
2879,1:?,N,,0.954
2880,1:?,N,,0.993
2881,1:?,N,,0.998
2882,1:?,N,,0.998
2883,1:?,N,,0.958
2884,1:?,N,,0.996
2885,1:?,N,,0.998
2886,1:?,N,,1
2887,1:?,N,,1
2888,1:?,N,,1
2889,1:?,N,,0.999
2890,1:?,N,,0.995
2891,1:?,N,,0.986
2892,1:?,N,,0.997
2893,1:?,N,,0.998
2894,1:?,N,,1
2895,1:?,N,,1
2896,1:?,N,,1
2897,1:?,N,,1
2898,1:?,N,,1
2899,1:?,N,,1
2900,1:?,N,,0.999
2901,1:?,N,,0.998
2902,1:?,N,,1
2903,1:?,N,,1
2904,1:?,N,,0.999
2905,1:?,N,,0.993
2906,1:?,N,,0.997
2907,1:?,N,,0.991
2908,1:?,N,,0.998
2909,1:?,N,,1
2910,1:?,N,,1
2911,1:?,N,,1
2912,1:?,N,,1
2913,1:?,N,,1
2914,1:?,N,,1
2915,1:?,N,,0.998
2916,1:?,N,,1
2917,1:?,N,,0.999
2918,1:?,N,,1
2919,1:?,N,,1
2920,1:?,N,,1
2921,1:?,N,,0.999
2922,1:?,N,,1
2923,1:?,N,,0.987
2924,1:?,N,,0.995
2925,1:?,N,,1
2926,1:?,N,,1
2927,1:?,N,,1
2928,1:?,N,,1
2929,1:?,N,,0.994
2930,1:?,N,,1
2931,1:?,N,,0.992
2932,1:?,N,,0.996
2933,1:?,N,,0.999
2934,1:?,N,,1
2935,1:?,N,,0.996
2936,1:?,N,,0.991
2937,1:?,N,,0.978
2938,1:?,N,,0.994
2939,1:?,N,,0.801
2940,1:?,N,,0.847
2941,1:?,N,,0.972
2942,1:?,N,,0.996
2943,1:?,N,,1
2944,1:?,N,,0.999
2945,1:?,N,,0.986
2946,1:?,N,,0.997
2947,1:?,N,,1
2948,1:?,N,,1
2949,1:?,N,,1
2950,1:?,N,,1
2951,1:?,N,,0.999
2952,1:?,N,,0.996
2953,1:?,N,,0.993
2954,1:?,N,,0.997
2955,1:?,N,,0.993
2956,1:?,N,,0.999
2957,1:?,N,,1
2958,1:?,N,,1
2959,1:?,N,,0.999
2960,1:?,N,,1
2961,1:?,N,,0.999
2962,1:?,N,,1
2963,1:?,N,,0.992
2964,1:?,N,,0.996
2965,1:?,N,,0.999
2966,1:?,N,,1
2967,1:?,N,,0.996
2968,1:?,N,,0.991
2969,1:?,N,,0.978
2970,1:?,N,,0.994
2971,1:?,N,,0.708
2972,1:?,N,,0.957
2973,1:?,N,,0.987
2974,1:?,N,,0.997
2975,1:?,N,,1
2976,1:?,N,,0.999
2977,1:?,N,,0.993
2978,1:?,N,,0.997
2979,1:?,N,,0.997
2980,1:?,N,,0.999
2981,1:?,N,,0.999
2982,1:?,N,,1
2983,1:?,N,,0.996
2984,1:?,N,,0.991
2985,1:?,N,,0.978
2986,1:?,N,,0.994
2987,1:?,N,,0.704
2988,1:?,N,,0.985
2989,1:?,N,,0.993
2990,1:?,N,,0.997
2991,1:?,N,,0.999
2992,1:?,N,,0.997
2993,1:?,N,,0.978
2994,1:?,N,,0.994
2995,1:?,N,,0.82
2996,1:?,N,,0.993
2997,1:?,N,,0.971
2998,1:?,N,,0.994
2999,1:?,N,,0.935
3000,1:?,N,,0.96
3001,1:?,N,,0.982
3002,1:?,Y,,0.754
3003,1:?,Y,,0.864
3004,1:?,Y,,0.798
3005,1:?,N,,0.897
3006,1:?,Y,,0.673
3007,1:?,Y,,0.823
3008,1:?,Y,,0.742
3009,1:?,N,,0.897
3010,1:?,N,,0.557
3011,1:?,N,,0.927
3012,1:?,N,,0.951
3013,1:?,Y,,0.685
3014,1:?,Y,,0.638
3015,1:?,Y,,0.749
3016,1:?,Y,,0.614
3017,1:?,N,,0.897
3018,1:?,N,,0.557
3019,1:?,N,,0.945
3020,1:?,N,,0.991
3021,1:?,N,,0.991
3022,1:?,N,,0.982
3023,1:?,N,,0.5
3024,1:?,N,,0.954
3025,1:?,Y,,0.685
3026,1:?,N,,0.927
3027,1:?,N,,0.5
3028,1:?,N,,0.863
3029,1:?,Y,,0.615
3030,1:?,N,,0.629
3031,1:?,Y,,0.56
3032,1:?,N,,0.657
3033,1:?,N,,0.897
3034,1:?,N,,0.557
3035,1:?,N,,0.945
3036,1:?,N,,0.991
3037,1:?,N,,0.998
3038,1:?,N,,0.998
3039,1:?,N,,0.942
3040,1:?,N,,0.995
3041,1:?,N,,0.991
3042,1:?,N,,0.998
3043,1:?,N,,0.994
3044,1:?,N,,0.999
3045,1:?,N,,0.985
3046,1:?,N,,0.923
3047,1:?,N,,0.69
3048,1:?,N,,0.972
3049,1:?,Y,,0.685
3050,1:?,N,,0.927
3051,1:?,N,,0.942
3052,1:?,N,,0.992
3053,1:?,N,,0.985
3054,1:?,N,,0.923
3055,1:?,N,,0.864
3056,1:?,N,,0.958
3057,1:?,Y,,0.615
3058,1:?,N,,0.98
3059,1:?,N,,0.69
3060,1:?,N,,0.958
3061,1:?,N,,0.593
3062,1:?,N,,0.881
3063,1:?,N,,0.747
3064,1:?,N,,0.893
3065,1:?,N,,0.897
3066,1:?,N,,0.557
3067,1:?,N,,0.945
3068,1:?,N,,0.991
3069,1:?,N,,0.998
3070,1:?,N,,0.998
3071,1:?,N,,0.942
3072,1:?,N,,0.995
3073,1:?,N,,0.998
3074,1:?,N,,1
3075,1:?,N,,1
3076,1:?,N,,1
3077,1:?,N,,0.998
3078,1:?,N,,0.995
3079,1:?,N,,0.983
3080,1:?,N,,0.997
3081,1:?,N,,0.991
3082,1:?,N,,0.998
3083,1:?,N,,1
3084,1:?,N,,1
3085,1:?,N,,0.998
3086,1:?,N,,0.999
3087,1:?,N,,0.997
3088,1:?,N,,1
3089,1:?,N,,0.985
3090,1:?,N,,0.995
3091,1:?,N,,0.997
3092,1:?,N,,1
3093,1:?,N,,0.989
3094,1:?,N,,0.972
3095,1:?,N,,0.892
3096,1:?,N,,0.987
3097,1:?,Y,,0.685
3098,1:?,N,,0.927
3099,1:?,N,,0.942
3100,1:?,N,,0.998
3101,1:?,N,,0.995
3102,1:?,N,,0.992
3103,1:?,N,,0.996
3104,1:?,N,,0.985
3105,1:?,N,,0.995
3106,1:?,N,,0.997
3107,1:?,N,,1
3108,1:?,N,,0.963
3109,1:?,N,,0.985
3110,1:?,N,,0.965
3111,1:?,N,,0.986
3112,1:?,Y,,0.615
3113,1:?,N,,0.98
3114,1:?,N,,0.983
3115,1:?,N,,0.996
3116,1:?,N,,0.989
3117,1:?,N,,0.972
3118,1:?,N,,0.965
3119,1:?,N,,0.986
3120,1:?,N,,0.593
3121,1:?,N,,0.992
3122,1:?,N,,0.892
3123,1:?,N,,0.986
3124,1:?,N,,0.847
3125,1:?,N,,0.968
3126,1:?,N,,0.931
3127,1:?,N,,0.971
3128,1:?,N,,0.897
3129,1:?,N,,0.557
3130,1:?,N,,0.945
3131,1:?,N,,0.991
3132,1:?,N,,0.998
3133,1:?,N,,0.998
3134,1:?,N,,0.942
3135,1:?,N,,0.995
3136,1:?,N,,0.998
3137,1:?,N,,1
3138,1:?,N,,1
3139,1:?,N,,1
3140,1:?,N,,0.998
3141,1:?,N,,0.995
3142,1:?,N,,0.983
3143,1:?,N,,0.997
3144,1:?,N,,0.998
3145,1:?,N,,1
3146,1:?,N,,1
3147,1:?,N,,1
3148,1:?,N,,1
3149,1:?,N,,1
3150,1:?,N,,1
3151,1:?,N,,0.998
3152,1:?,N,,0.998
3153,1:?,N,,1
3154,1:?,N,,1
3155,1:?,N,,0.999
3156,1:?,N,,0.997
3157,1:?,N,,0.993
3158,1:?,N,,0.998
3159,1:?,N,,0.991
3160,1:?,N,,0.998
3161,1:?,N,,1
3162,1:?,N,,1
3163,1:?,N,,1
3164,1:?,N,,1
3165,1:?,N,,1
3166,1:?,N,,1
3167,1:?,N,,0.998
3168,1:?,N,,1
3169,1:?,N,,0.999
3170,1:?,N,,1
3171,1:?,N,,1
3172,1:?,N,,1
3173,1:?,N,,0.999
3174,1:?,N,,1
3175,1:?,N,,0.985
3176,1:?,N,,0.995
3177,1:?,N,,1
3178,1:?,N,,1
3179,1:?,N,,1
3180,1:?,N,,1
3181,1:?,N,,0.993
3182,1:?,N,,1
3183,1:?,N,,0.989
3184,1:?,N,,0.997
3185,1:?,N,,0.999
3186,1:?,N,,1
3187,1:?,N,,0.994
3188,1:?,N,,0.989
3189,1:?,N,,0.97
3190,1:?,N,,0.993
3191,1:?,Y,,0.685
3192,1:?,N,,0.927
3193,1:?,N,,0.942
3194,1:?,N,,0.992
3195,1:?,N,,0.998
3196,1:?,N,,0.995
3197,1:?,N,,0.992
3198,1:?,N,,0.996
3199,1:?,N,,0.998
3200,1:?,N,,0.998
3201,1:?,N,,1
3202,1:?,N,,1
3203,1:?,N,,0.997
3204,1:?,N,,0.997
3205,1:?,N,,0.996
3206,1:?,N,,0.997
3207,1:?,N,,0.985
3208,1:?,N,,0.995
3209,1:?,N,,1
3210,1:?,N,,1
3211,1:?,N,,1
3212,1:?,N,,1
3213,1:?,N,,0.993
3214,1:?,N,,1
3215,1:?,N,,0.963
3216,1:?,N,,0.997
3217,1:?,N,,0.993
3218,1:?,N,,0.998
3219,1:?,N,,0.987
3220,1:?,N,,0.993
3221,1:?,N,,0.988
3222,1:?,N,,0.993
3223,1:?,Y,,0.615
3224,1:?,N,,0.98
3225,1:?,N,,0.983
3226,1:?,N,,0.996
3227,1:?,N,,0.999
3228,1:?,N,,0.997
3229,1:?,N,,0.996
3230,1:?,N,,0.997
3231,1:?,N,,0.989
3232,1:?,N,,0.997
3233,1:?,N,,0.999
3234,1:?,N,,1
3235,1:?,N,,0.987
3236,1:?,N,,0.993
3237,1:?,N,,0.988
3238,1:?,N,,0.993
3239,1:?,N,,0.593
3240,1:?,N,,0.992
3241,1:?,N,,0.993
3242,1:?,N,,0.994
3243,1:?,N,,0.989
3244,1:?,N,,0.988
3245,1:?,N,,0.993
3246,1:?,N,,0.847
3247,1:?,N,,0.995
3248,1:?,N,,0.97
3249,1:?,N,,0.993
3250,1:?,N,,0.959
3251,1:?,N,,0.988
3252,1:?,N,,0.979
3253,1:?,N,,0.988
3254,1:?,N,,0.946
3255,1:?,Y,,0.673
3256,1:?,N,,0.927
3257,1:?,N,,0.951
3258,1:?,N,,0.991
3259,1:?,N,,0.982
3260,1:?,N,,0.5
3261,1:?,N,,0.954
3262,1:?,N,,0.991
3263,1:?,N,,0.998
3264,1:?,N,,0.994
3265,1:?,N,,0.985
3266,1:?,N,,0.923
3267,1:?,N,,0.69
3268,1:?,N,,0.972
3269,1:?,N,,0.991
3270,1:?,N,,0.998
3271,1:?,N,,1
3272,1:?,N,,1
3273,1:?,N,,0.998
3274,1:?,N,,0.999
3275,1:?,N,,0.997
3276,1:?,N,,1
3277,1:?,N,,0.985
3278,1:?,N,,0.995
3279,1:?,N,,0.997
3280,1:?,N,,1
3281,1:?,N,,0.989
3282,1:?,N,,0.972
3283,1:?,N,,0.892
3284,1:?,N,,0.987
3285,1:?,N,,0.991
3286,1:?,N,,0.998
3287,1:?,N,,1
3288,1:?,N,,1
3289,1:?,N,,1
3290,1:?,N,,1
3291,1:?,N,,1
3292,1:?,N,,1
3293,1:?,N,,0.998
3294,1:?,N,,1
3295,1:?,N,,0.999
3296,1:?,N,,1
3297,1:?,N,,1
3298,1:?,N,,1
3299,1:?,N,,0.999
3300,1:?,N,,1
3301,1:?,N,,0.985
3302,1:?,N,,0.995
3303,1:?,N,,1
3304,1:?,N,,1
3305,1:?,N,,1
3306,1:?,N,,1
3307,1:?,N,,0.993
3308,1:?,N,,1
3309,1:?,N,,0.989
3310,1:?,N,,0.997
3311,1:?,N,,0.999
3312,1:?,N,,1
3313,1:?,N,,0.994
3314,1:?,N,,0.989
3315,1:?,N,,0.97
3316,1:?,N,,0.993
3317,1:?,N,,0.988
3318,1:?,N,,0.982
3319,1:?,N,,0.994
3320,1:?,N,,0.999
3321,1:?,N,,0.998
3322,1:?,N,,0.999
3323,1:?,N,,0.997
3324,1:?,N,,1
3325,1:?,N,,0.998
3326,1:?,N,,1
3327,1:?,N,,0.999
3328,1:?,N,,1
3329,1:?,N,,1
3330,1:?,N,,1
3331,1:?,N,,0.999
3332,1:?,N,,1
3333,1:?,N,,0.993
3334,1:?,N,,0.999
3335,1:?,N,,0.999
3336,1:?,N,,1
3337,1:?,N,,0.996
3338,1:?,N,,0.998
3339,1:?,N,,0.998
3340,1:?,N,,0.999
3341,1:?,N,,0.996
3342,1:?,N,,1
3343,1:?,N,,0.998
3344,1:?,N,,1
3345,1:?,N,,0.998
3346,1:?,N,,0.999
3347,1:?,N,,0.992
3348,1:?,N,,0.999
3349,1:?,N,,0.973
3350,1:?,N,,0.923
3351,1:?,N,,0.997
3352,1:?,N,,1
3353,1:?,N,,1
3354,1:?,N,,1
3355,1:?,N,,0.993
3356,1:?,N,,1
3357,1:?,N,,0.996
3358,1:?,N,,1
3359,1:?,N,,0.998
3360,1:?,N,,0.999
3361,1:?,N,,0.997
3362,1:?,N,,0.961
3363,1:?,N,,0.999
3364,1:?,N,,0.965
3365,1:?,N,,0.972
3366,1:?,N,,0.999
3367,1:?,N,,1
3368,1:?,N,,0.998
3369,1:?,N,,0.999
3370,1:?,N,,0.961
3371,1:?,N,,0.999
3372,1:?,N,,0.96
3373,1:?,N,,0.989
3374,1:?,N,,0.992
3375,1:?,N,,0.999
3376,1:?,N,,0.968
3377,1:?,N,,0.945
3378,1:?,N,,0.832
3379,1:?,N,,0.971
3380,1:?,Y,,0.678
3381,1:?,Y,,0.638
3382,1:?,N,,0.5
3383,1:?,N,,0.863
3384,1:?,N,,0.985
3385,1:?,N,,0.923
3386,1:?,N,,0.864
3387,1:?,N,,0.958
3388,1:?,N,,0.985
3389,1:?,N,,0.995
3390,1:?,N,,0.997
3391,1:?,N,,1
3392,1:?,N,,0.963
3393,1:?,N,,0.985
3394,1:?,N,,0.965
3395,1:?,N,,0.986
3396,1:?,N,,0.985
3397,1:?,N,,0.995
3398,1:?,N,,1
3399,1:?,N,,1
3400,1:?,N,,1
3401,1:?,N,,1
3402,1:?,N,,0.993
3403,1:?,N,,1
3404,1:?,N,,0.963
3405,1:?,N,,0.997
3406,1:?,N,,0.993
3407,1:?,N,,0.987
3408,1:?,N,,0.993
3409,1:?,N,,0.988
3410,1:?,N,,0.993
3411,1:?,N,,0.973
3412,1:?,N,,0.923
3413,1:?,N,,0.997
3414,1:?,N,,1
3415,1:?,N,,1
3416,1:?,N,,1
3417,1:?,N,,0.993
3418,1:?,N,,1
3419,1:?,N,,0.996
3420,1:?,N,,1
3421,1:?,N,,0.998
3422,1:?,N,,1
3423,1:?,N,,0.999
3424,1:?,N,,0.997
3425,1:?,N,,0.961
3426,1:?,N,,0.999
3427,1:?,N,,0.687
3428,1:?,N,,0.985
3429,1:?,N,,0.993
3430,1:?,N,,0.998
3431,1:?,N,,0.999
3432,1:?,N,,0.997
3433,1:?,N,,0.975
3434,1:?,N,,0.994
3435,1:?,N,,0.788
3436,1:?,N,,0.993
3437,1:?,N,,0.961
3438,1:?,N,,0.994
3439,1:?,N,,0.918
3440,1:?,N,,0.976
3441,1:?,N,,0.946
3442,1:?,N,,0.978
3443,1:?,Y,,0.748
3444,1:?,N,,0.629
3445,1:?,N,,0.69
3446,1:?,N,,0.958
3447,1:?,N,,0.989
3448,1:?,N,,0.972
3449,1:?,N,,0.965
3450,1:?,N,,0.986
3451,1:?,N,,0.989
3452,1:?,N,,0.997
3453,1:?,N,,0.999
3454,1:?,N,,1
3455,1:?,N,,0.987
3456,1:?,N,,0.993
3457,1:?,N,,0.988
3458,1:?,N,,0.993
3459,1:?,N,,0.965
3460,1:?,N,,0.972
3461,1:?,N,,0.999
3462,1:?,N,,1
3463,1:?,N,,0.998
3464,1:?,N,,0.999
3465,1:?,N,,0.961
3466,1:?,N,,0.999
3467,1:?,N,,0.788
3468,1:?,N,,0.993
3469,1:?,N,,0.961
3470,1:?,N,,0.994
3471,1:?,N,,0.918
3472,1:?,N,,0.976
3473,1:?,N,,0.946
3474,1:?,N,,0.978
3475,1:?,Y,,0.758
3476,1:?,N,,0.881
3477,1:?,N,,0.892
3478,1:?,N,,0.986
3479,1:?,N,,0.994
3480,1:?,N,,0.989
3481,1:?,N,,0.988
3482,1:?,N,,0.993
3483,1:?,N,,0.96
3484,1:?,N,,0.989
3485,1:?,N,,0.992
3486,1:?,N,,0.999
3487,1:?,N,,0.918
3488,1:?,N,,0.976
3489,1:?,N,,0.946
3490,1:?,N,,0.978
3491,1:?,Y,,0.699
3492,1:?,N,,0.968
3493,1:?,N,,0.97
3494,1:?,N,,0.993
3495,1:?,N,,0.968
3496,1:?,N,,0.945
3497,1:?,N,,0.946
3498,1:?,N,,0.978
3499,1:?,Y,,0.514
3500,1:?,N,,0.988
3501,1:?,N,,0.832
3502,1:?,N,,0.774
3503,1:?,N,,0.955
3504,1:?,N,,0.905
3505,1:?,N,,0.96
3506,1:?,Y,,0.816
3507,1:?,Y,,0.742
3508,1:?,N,,0.806
3509,1:?,Y,,0.678
3510,1:?,Y,,0.749
3511,1:?,N,,0.806
3512,1:?,N,,0.787
3513,1:?,N,,0.89
3514,1:?,N,,0.954
3515,1:?,Y,,0.615
3516,1:?,N,,0.629
3517,1:?,Y,,0.56
3518,1:?,N,,0.657
3519,1:?,N,,0.806
3520,1:?,N,,0.787
3521,1:?,N,,0.961
3522,1:?,N,,0.995
3523,1:?,N,,0.993
3524,1:?,N,,0.986
3525,1:?,N,,0.69
3526,1:?,N,,0.972
3527,1:?,Y,,0.615
3528,1:?,N,,0.98
3529,1:?,N,,0.69
3530,1:?,N,,0.958
3531,1:?,N,,0.593
3532,1:?,N,,0.881
3533,1:?,N,,0.747
3534,1:?,N,,0.893
3535,1:?,N,,0.806
3536,1:?,N,,0.787
3537,1:?,N,,0.961
3538,1:?,N,,0.995
3539,1:?,N,,0.999
3540,1:?,N,,0.999
3541,1:?,N,,0.983
3542,1:?,N,,0.997
3543,1:?,N,,0.993
3544,1:?,N,,0.999
3545,1:?,N,,0.997
3546,1:?,N,,1
3547,1:?,N,,0.989
3548,1:?,N,,0.972
3549,1:?,N,,0.892
3550,1:?,N,,0.987
3551,1:?,Y,,0.615
3552,1:?,N,,0.98
3553,1:?,N,,0.983
3554,1:?,N,,0.996
3555,1:?,N,,0.989
3556,1:?,N,,0.972
3557,1:?,N,,0.965
3558,1:?,N,,0.986
3559,1:?,N,,0.593
3560,1:?,N,,0.992
3561,1:?,N,,0.892
3562,1:?,N,,0.986
3563,1:?,N,,0.847
3564,1:?,N,,0.968
3565,1:?,N,,0.931
3566,1:?,N,,0.971
3567,1:?,N,,0.806
3568,1:?,N,,0.787
3569,1:?,N,,0.961
3570,1:?,N,,0.995
3571,1:?,N,,0.999
3572,1:?,N,,0.999
3573,1:?,N,,0.983
3574,1:?,N,,0.997
3575,1:?,N,,0.999
3576,1:?,N,,1
3577,1:?,N,,1
3578,1:?,N,,1
3579,1:?,N,,0.999
3580,1:?,N,,0.997
3581,1:?,N,,0.993
3582,1:?,N,,0.998
3583,1:?,N,,0.993
3584,1:?,N,,0.999
3585,1:?,N,,1
3586,1:?,N,,1
3587,1:?,N,,0.999
3588,1:?,N,,1
3589,1:?,N,,0.999
3590,1:?,N,,1
3591,1:?,N,,0.989
3592,1:?,N,,0.997
3593,1:?,N,,0.999
3594,1:?,N,,1
3595,1:?,N,,0.994
3596,1:?,N,,0.989
3597,1:?,N,,0.97
3598,1:?,N,,0.993
3599,1:?,Y,,0.615
3600,1:?,N,,0.98
3601,1:?,N,,0.983
3602,1:?,N,,0.996
3603,1:?,N,,0.999
3604,1:?,N,,0.997
3605,1:?,N,,0.996
3606,1:?,N,,0.989
3607,1:?,N,,0.997
3608,1:?,N,,0.999
3609,1:?,N,,1
3610,1:?,N,,0.987
3611,1:?,N,,0.993
3612,1:?,N,,0.988
3613,1:?,N,,0.993
3614,1:?,N,,0.593
3615,1:?,N,,0.992
3616,1:?,N,,0.993
3617,1:?,N,,0.997
3618,1:?,N,,0.994
3619,1:?,N,,0.989
3620,1:?,N,,0.988
3621,1:?,N,,0.993
3622,1:?,N,,0.847
3623,1:?,N,,0.995
3624,1:?,N,,0.97
3625,1:?,N,,0.993
3626,1:?,N,,0.959
3627,1:?,N,,0.988
3628,1:?,N,,0.979
3629,1:?,N,,0.988
3630,1:?,N,,0.904
3631,1:?,Y,,0.678
3632,1:?,N,,0.89
3633,1:?,N,,0.954
3634,1:?,N,,0.993
3635,1:?,N,,0.986
3636,1:?,N,,0.69
3637,1:?,N,,0.972
3638,1:?,N,,0.993
3639,1:?,N,,0.999
3640,1:?,N,,0.997
3641,1:?,N,,1
3642,1:?,N,,0.989
3643,1:?,N,,0.972
3644,1:?,N,,0.892
3645,1:?,N,,0.987
3646,1:?,N,,0.993
3647,1:?,N,,0.999
3648,1:?,N,,1
3649,1:?,N,,1
3650,1:?,N,,0.999
3651,1:?,N,,0.999
3652,1:?,N,,0.989
3653,1:?,N,,0.997
3654,1:?,N,,0.999
3655,1:?,N,,1
3656,1:?,N,,0.994
3657,1:?,N,,0.989
3658,1:?,N,,0.97
3659,1:?,N,,0.993
3660,1:?,N,,0.987
3661,1:?,N,,0.986
3662,1:?,N,,0.997
3663,1:?,N,,1
3664,1:?,N,,0.999
3665,1:?,N,,1
3666,1:?,N,,0.999
3667,1:?,N,,1
3668,1:?,N,,0.994
3669,1:?,N,,1
3670,1:?,N,,0.997
3671,1:?,N,,0.999
3672,1:?,N,,0.998
3673,1:?,N,,0.999
3674,1:?,N,,0.992
3675,1:?,N,,0.999
3676,1:?,N,,0.965
3677,1:?,N,,0.972
3678,1:?,N,,0.999
3679,1:?,N,,1
3680,1:?,N,,0.998
3681,1:?,N,,0.999
3682,1:?,N,,0.961
3683,1:?,N,,0.999
3684,1:?,N,,0.96
3685,1:?,N,,0.989
3686,1:?,N,,0.992
3687,1:?,N,,0.999
3688,1:?,N,,0.968
3689,1:?,N,,0.945
3690,1:?,N,,0.832
3691,1:?,N,,0.971
3692,1:?,Y,,0.748
3693,1:?,N,,0.629
3694,1:?,N,,0.69
3695,1:?,N,,0.958
3696,1:?,N,,0.989
3697,1:?,N,,0.972
3698,1:?,N,,0.965
3699,1:?,N,,0.986
3700,1:?,N,,0.989
3701,1:?,N,,0.997
3702,1:?,N,,0.999
3703,1:?,N,,1
3704,1:?,N,,0.987
3705,1:?,N,,0.993
3706,1:?,N,,0.988
3707,1:?,N,,0.993
3708,1:?,N,,0.965
3709,1:?,N,,0.972
3710,1:?,N,,0.999
3711,1:?,N,,1
3712,1:?,N,,0.998
3713,1:?,N,,0.999
3714,1:?,N,,0.961
3715,1:?,N,,0.999
3716,1:?,N,,0.788
3717,1:?,N,,0.993
3718,1:?,N,,0.961
3719,1:?,N,,0.994
3720,1:?,N,,0.918
3721,1:?,N,,0.976
3722,1:?,N,,0.946
3723,1:?,N,,0.978
3724,1:?,Y,,0.758
3725,1:?,N,,0.881
3726,1:?,N,,0.892
3727,1:?,N,,0.986
3728,1:?,N,,0.994
3729,1:?,N,,0.989
3730,1:?,N,,0.988
3731,1:?,N,,0.993
3732,1:?,N,,0.96
3733,1:?,N,,0.989
3734,1:?,N,,0.992
3735,1:?,N,,0.999
3736,1:?,N,,0.918
3737,1:?,N,,0.976
3738,1:?,N,,0.946
3739,1:?,N,,0.978
3740,1:?,Y,,0.699
3741,1:?,N,,0.968
3742,1:?,N,,0.97
3743,1:?,N,,0.993
3744,1:?,N,,0.968
3745,1:?,N,,0.945
3746,1:?,N,,0.946
3747,1:?,Y,,0.514
3748,1:?,N,,0.988
3749,1:?,N,,0.832
3750,1:?,N,,0.978
3751,1:?,N,,0.774
3752,1:?,N,,0.955
3753,1:?,N,,0.905
3754,1:?,N,,0.96
3755,1:?,Y,,0.8
3756,1:?,Y,,0.614
3757,1:?,N,,0.697
3758,1:?,Y,,0.569
3759,1:?,Y,,0.56
3760,1:?,N,,0.657
3761,1:?,N,,0.697
3762,1:?,N,,0.939
3763,1:?,N,,0.87
3764,1:?,N,,0.972
3765,1:?,N,,0.593
3766,1:?,N,,0.881
3767,1:?,N,,0.747
3768,1:?,N,,0.697
3769,1:?,N,,0.939
3770,1:?,N,,0.982
3771,1:?,N,,0.997
3772,1:?,N,,0.996
3773,1:?,N,,0.992
3774,1:?,N,,0.892
3775,1:?,N,,0.987
3776,1:?,N,,0.593
3777,1:?,N,,0.992
3778,1:?,N,,0.892
3779,1:?,N,,0.986
3780,1:?,N,,0.847
3781,1:?,N,,0.968
3782,1:?,N,,0.931
3783,1:?,N,,0.971
3784,1:?,N,,0.697
3785,1:?,N,,0.939
3786,1:?,N,,0.982
3787,1:?,N,,0.997
3788,1:?,N,,1
3789,1:?,N,,0.999
3790,1:?,N,,0.993
3791,1:?,N,,0.998
3792,1:?,N,,0.996
3793,1:?,N,,0.999
3794,1:?,N,,0.999
3795,1:?,N,,1
3796,1:?,N,,0.994
3797,1:?,N,,0.989
3798,1:?,N,,0.97
3799,1:?,N,,0.993
3800,1:?,N,,0.593
3801,1:?,N,,0.992
3802,1:?,N,,0.993
3803,1:?,N,,0.997
3804,1:?,N,,0.994
3805,1:?,N,,0.989
3806,1:?,N,,0.988
3807,1:?,N,,0.993
3808,1:?,N,,0.847
3809,1:?,N,,0.995
3810,1:?,N,,0.97
3811,1:?,N,,0.993
3812,1:?,N,,0.959
3813,1:?,N,,0.988
3814,1:?,N,,0.979
3815,1:?,N,,0.988
3816,1:?,N,,0.816
3817,1:?,Y,,0.569
3818,1:?,N,,0.87
3819,1:?,N,,0.972
3820,1:?,N,,0.996
3821,1:?,N,,0.992
3822,1:?,N,,0.892
3823,1:?,N,,0.987
3824,1:?,N,,0.996
3825,1:?,N,,0.999
3826,1:?,N,,0.999
3827,1:?,N,,1
3828,1:?,N,,0.994
3829,1:?,N,,0.989
3830,1:?,N,,0.97
3831,1:?,N,,0.993
3832,1:?,N,,0.986
3833,1:?,N,,0.992
3834,1:?,N,,0.999
3835,1:?,N,,1
3836,1:?,N,,0.996
3837,1:?,N,,0.998
3838,1:?,N,,0.992
3839,1:?,N,,0.999
3840,1:?,N,,0.96
3841,1:?,N,,0.989
3842,1:?,N,,0.992
3843,1:?,N,,0.999
3844,1:?,N,,0.968
3845,1:?,N,,0.945
3846,1:?,N,,0.832
3847,1:?,N,,0.971
3848,1:?,Y,,0.758
3849,1:?,N,,0.881
3850,1:?,N,,0.892
3851,1:?,N,,0.986
3852,1:?,N,,0.994
3853,1:?,N,,0.989
3854,1:?,N,,0.988
3855,1:?,N,,0.993
3856,1:?,N,,0.96
3857,1:?,N,,0.989
3858,1:?,N,,0.992
3859,1:?,N,,0.999
3860,1:?,N,,0.918
3861,1:?,N,,0.976
3862,1:?,N,,0.946
3863,1:?,Y,,0.699
3864,1:?,N,,0.968
3865,1:?,N,,0.97
3866,1:?,N,,0.993
3867,1:?,N,,0.968
3868,1:?,N,,0.945
3869,1:?,N,,0.946
3870,1:?,N,,0.978
3871,1:?,Y,,0.514
3872,1:?,N,,0.988
3873,1:?,N,,0.832
3874,1:?,N,,0.978
3875,1:?,N,,0.774
3876,1:?,N,,0.955
3877,1:?,N,,0.905
3878,1:?,N,,0.96
3879,1:?,Y,,0.855
3880,1:?,Y,,0.733
3881,1:?,Y,,0.727
3882,1:?,N,,0.657
3883,1:?,N,,0.659
3884,1:?,N,,0.68
3885,1:?,N,,0.747
3886,1:?,N,,0.893
3887,1:?,N,,0.659
3888,1:?,N,,0.982
3889,1:?,N,,0.902
3890,1:?,N,,0.987
3891,1:?,N,,0.847
3892,1:?,N,,0.968
3893,1:?,N,,0.931
3894,1:?,N,,0.971
3895,1:?,N,,0.659
3896,1:?,N,,0.982
3897,1:?,N,,0.992
3898,1:?,N,,0.998
3899,1:?,N,,0.998
3900,1:?,N,,0.996
3901,1:?,N,,0.97
3902,1:?,N,,0.993
3903,1:?,N,,0.847
3904,1:?,N,,0.995
3905,1:?,N,,0.97
3906,1:?,N,,0.993
3907,1:?,N,,0.959
3908,1:?,N,,0.988
3909,1:?,N,,0.979
3910,1:?,N,,0.676
3911,1:?,N,,0.68
3912,1:?,N,,0.902
3913,1:?,N,,0.987
3914,1:?,N,,0.998
3915,1:?,N,,0.996
3916,1:?,N,,0.97
3917,1:?,N,,0.993
3918,1:?,N,,0.987
3919,1:?,N,,0.996
3920,1:?,N,,0.994
3921,1:?,N,,0.999
3922,1:?,N,,0.968
3923,1:?,N,,0.945
3924,1:?,N,,0.832
3925,1:?,N,,0.971
3926,1:?,Y,,0.699
3927,1:?,N,,0.968
3928,1:?,N,,0.97
3929,1:?,N,,0.993
3930,1:?,N,,0.968
3931,1:?,N,,0.945
3932,1:?,N,,0.946
3933,1:?,N,,0.978
3934,1:?,Y,,0.514
3935,1:?,N,,0.988
3936,1:?,N,,0.832
3937,1:?,N,,0.978
3938,1:?,N,,0.774
3939,1:?,N,,0.955
3940,1:?,N,,0.905
3941,1:?,N,,0.96
3942,1:?,Y,,0.855
3943,1:?,Y,,0.517
3944,1:?,Y,,0.53
3945,1:?,N,,0.893
3946,1:?,N,,0.756
3947,1:?,N,,0.899
3948,1:?,N,,0.931
3949,1:?,N,,0.971
3950,1:?,N,,0.756
3951,1:?,N,,0.992
3952,1:?,N,,0.956
3953,1:?,N,,0.993
3954,1:?,N,,0.959
3955,1:?,N,,0.988
3956,1:?,N,,0.979
3957,1:?,N,,0.988
3958,1:?,N,,0.543
3959,1:?,N,,0.899
3960,1:?,N,,0.956
3961,1:?,N,,0.993
3962,1:?,N,,0.991
3963,1:?,N,,0.979
3964,1:?,N,,0.832
3965,1:?,N,,0.971
3966,1:?,Y,,0.514
3967,1:?,N,,0.988
3968,1:?,N,,0.832
3969,1:?,N,,0.978
3970,1:?,N,,0.774
3971,1:?,N,,0.955
3972,1:?,N,,0.905
3973,1:?,N,,0.96
3974,1:?,Y,,0.838
3975,1:?,N,,0.79
3976,1:?,N,,0.771
3977,1:?,N,,0.971
3978,1:?,N,,0.901
3979,1:?,N,,0.972
3980,1:?,N,,0.979
3981,1:?,N,,0.988
3982,1:?,N,,0.511
3983,1:?,N,,0.972
3984,1:?,N,,0.811
3985,1:?,N,,0.971
3986,1:?,N,,0.774
3987,1:?,N,,0.955
3988,1:?,N,,0.905
3989,1:?,N,,0.96
3990,1:?,Y,,0.787
3991,1:?,N,,0.944
3992,1:?,N,,0.938
3993,1:?,N,,0.988
3994,1:?,N,,0.63
3995,1:?,N,,0.854
3996,1:?,N,,0.905
3997,1:?,N,,0.96
3998,1:?,Y,,0.647
3999,1:?,N,,0.982
4000,1:?,N,,0.704
4001,1:?,N,,0.96
4002,1:?,N,,0.64
4003,1:?,N,,0.925
4004,1:?,N,,0.842