﻿inst#,actual,predicted,error,prediction
1,1:?,Y,,0.893
2,1:?,Y,,0.883
3,1:?,Y,,0.862
4,1:?,Y,,0.869
5,1:?,Y,,0.892
6,1:?,Y,,0.89
7,1:?,N,,0.8
8,1:?,Y,,0.883
9,1:?,Y,,0.675
10,1:?,N,,0.83
11,1:?,N,,0.999
12,1:?,Y,,0.518
13,1:?,Y,,0.885
14,1:?,Y,,0.872
15,1:?,Y,,0.843
16,1:?,N,,0.948
17,1:?,N,,0.994
18,1:?,N,,0.999
19,1:?,N,,0.992
20,1:?,Y,,0.825
21,1:?,Y,,0.574
22,1:?,N,,0.997
23,1:?,Y,,0.769
24,1:?,N,,0.989
25,1:?,N,,0.998
26,1:?,N,,0.999
27,1:?,N,,0.994
28,1:?,Y,,0.803
29,1:?,N,,0.528
30,1:?,Y,,0.728
31,1:?,N,,0.992
32,1:?,N,,0.998
33,1:?,N,,0.999
34,1:?,N,,0.998
35,1:?,Y,,0.654
36,1:?,N,,0.851
37,1:?,N,,0.999
38,1:?,N,,0.991
39,1:?,N,,0.999
40,1:?,N,,0.999
41,1:?,N,,0.999
42,1:?,N,,0.999
43,1:?,N,,0.985
44,1:?,N,,0.997
45,1:?,N,,0.996
46,1:?,Y,,0.824
47,1:?,N,,0.972
48,1:?,N,,0.996
49,1:?,N,,0.999
50,1:?,N,,0.995
51,1:?,Y,,0.797
52,1:?,N,,0.551
53,1:?,N,,0.998
54,1:?,Y,,0.711
55,1:?,N,,0.993
56,1:?,N,,0.998
57,1:?,N,,0.999
58,1:?,N,,0.996
59,1:?,Y,,0.764
60,1:?,N,,0.665
61,1:?,Y,,0.888
62,1:?,Y,,0.881
63,1:?,N,,0.829
64,1:?,Y,,0.883
65,1:?,Y,,0.893
66,1:?,Y,,0.892
67,1:?,Y,,0.635
68,1:?,Y,,0.889
69,1:?,Y,,0.831
70,1:?,Y,,0.605
71,1:?,N,,0.997
72,1:?,Y,,0.789
73,1:?,Y,,0.89
74,1:?,Y,,0.884
75,1:?,N,,0.961
76,1:?,Y,,0.874
77,1:?,N,,0.65
78,1:?,N,,0.967
79,1:?,N,,0.999
80,1:?,N,,0.944
81,1:?,Y,,0.869
82,1:?,Y,,0.805
83,1:?,N,,0.991
84,1:?,Y,,0.853
85,1:?,N,,0.915
86,1:?,N,,0.992
87,1:?,N,,0.999
88,1:?,N,,0.966
89,1:?,Y,,0.863
90,1:?,Y,,0.775
91,1:?,N,,0.987
92,1:?,N,,0.999
93,1:?,N,,0.999
94,1:?,N,,0.999
95,1:?,N,,0.999
96,1:?,N,,0.992
97,1:?,N,,0.998
98,1:?,N,,0.999
99,1:?,N,,0.999
100,1:?,N,,0.999
101,1:?,N,,0.999
102,1:?,N,,1
103,1:?,N,,0.999
104,1:?,N,,0.999
105,1:?,N,,0.999
106,1:?,N,,0.999
107,1:?,N,,0.948
108,1:?,N,,0.999
109,1:?,N,,0.999
110,1:?,N,,0.999
111,1:?,N,,0.999
112,1:?,N,,0.971
113,1:?,N,,0.996
114,1:?,N,,0.999
115,1:?,N,,0.989
116,1:?,N,,0.999
117,1:?,N,,0.999
118,1:?,N,,0.999
119,1:?,N,,0.999
120,1:?,N,,0.982
121,1:?,N,,0.997
122,1:?,Y,,0.856
123,1:?,N,,0.909
124,1:?,N,,0.991
125,1:?,N,,0.999
126,1:?,N,,0.987
127,1:?,Y,,0.842
128,1:?,Y,,0.663
129,1:?,N,,0.999
130,1:?,N,,0.884
131,1:?,N,,0.998
132,1:?,N,,0.999
133,1:?,N,,0.999
134,1:?,N,,0.999
135,1:?,N,,0.809
136,1:?,N,,0.984
137,1:?,N,,0.996
138,1:?,N,,0.999
139,1:?,N,,0.999
140,1:?,N,,1
141,1:?,N,,0.999
142,1:?,N,,0.997
143,1:?,N,,0.999
144,1:?,N,,0.999
145,1:?,N,,0.998
146,1:?,N,,0.999
147,1:?,N,,0.999
148,1:?,N,,1
149,1:?,N,,0.999
150,1:?,N,,0.997
151,1:?,N,,0.999
152,1:?,N,,0.999
153,1:?,N,,0.998
154,1:?,N,,0.999
155,1:?,N,,0.999
156,1:?,N,,1
157,1:?,N,,0.999
158,1:?,N,,0.998
159,1:?,N,,0.999
160,1:?,N,,1
161,1:?,N,,0.999
162,1:?,N,,0.999
163,1:?,N,,1
164,1:?,N,,1
165,1:?,N,,0.999
166,1:?,N,,0.999
167,1:?,N,,0.999
168,1:?,N,,0.999
169,1:?,N,,0.997
170,1:?,N,,0.999
171,1:?,N,,0.999
172,1:?,N,,1
173,1:?,N,,0.999
174,1:?,N,,0.998
175,1:?,N,,0.999
176,1:?,N,,0.999
177,1:?,N,,0.998
178,1:?,N,,0.999
179,1:?,N,,0.999
180,1:?,N,,1
181,1:?,N,,0.999
182,1:?,N,,0.998
183,1:?,N,,0.999
184,1:?,Y,,0.757
185,1:?,Y,,0.89
186,1:?,Y,,0.856
187,1:?,Y,,0.741
188,1:?,N,,0.997
189,1:?,Y,,0.782
190,1:?,Y,,0.889
191,1:?,Y,,0.883
192,1:?,N,,0.988
193,1:?,Y,,0.86
194,1:?,N,,0.877
195,1:?,N,,0.989
196,1:?,N,,0.999
197,1:?,N,,0.951
198,1:?,Y,,0.868
199,1:?,Y,,0.798
200,1:?,N,,0.998
201,1:?,Y,,0.617
202,1:?,N,,0.995
203,1:?,N,,0.998
204,1:?,N,,0.999
205,1:?,N,,0.998
206,1:?,Y,,0.503
207,1:?,N,,0.934
208,1:?,N,,0.999
209,1:?,N,,0.727
210,1:?,N,,0.998
211,1:?,N,,0.999
212,1:?,N,,0.999
213,1:?,N,,0.998
214,1:?,N,,0.607
215,1:?,N,,0.96
216,1:?,N,,0.999
217,1:?,N,,0.999
218,1:?,N,,0.999
219,1:?,N,,0.999
220,1:?,N,,1
221,1:?,N,,0.999
222,1:?,N,,0.999
223,1:?,N,,0.999
224,1:?,N,,1
225,1:?,N,,0.999
226,1:?,N,,1
227,1:?,N,,1
228,1:?,N,,1
229,1:?,N,,1
230,1:?,N,,0.999
231,1:?,N,,0.999
232,1:?,N,,0.998
233,1:?,N,,0.999
234,1:?,N,,0.999
235,1:?,N,,1
236,1:?,N,,0.999
237,1:?,N,,0.999
238,1:?,N,,0.999
239,1:?,N,,0.999
240,1:?,N,,0.999
241,1:?,N,,0.999
242,1:?,N,,0.999
243,1:?,N,,1
244,1:?,N,,0.999
245,1:?,N,,0.999
246,1:?,N,,0.999
247,1:?,N,,0.575
248,1:?,Y,,0.887
249,1:?,Y,,0.78
250,1:?,N,,0.615
251,1:?,N,,0.999
252,1:?,Y,,0.502
253,1:?,Y,,0.885
254,1:?,Y,,0.871
255,1:?,Y,,0.796
256,1:?,N,,0.984
257,1:?,N,,0.997
258,1:?,N,,0.999
259,1:?,N,,0.992
260,1:?,Y,,0.822
261,1:?,Y,,0.557
262,1:?,N,,0.999
263,1:?,N,,0.811
264,1:?,N,,0.998
265,1:?,N,,0.999
266,1:?,N,,0.999
267,1:?,N,,0.999
268,1:?,N,,0.892
269,1:?,N,,0.99
270,1:?,N,,0.999
271,1:?,N,,0.962
272,1:?,N,,0.999
273,1:?,N,,0.999
274,1:?,N,,0.999
275,1:?,N,,0.999
276,1:?,N,,0.934
277,1:?,N,,0.993
278,1:?,N,,0.999
279,1:?,N,,0.976
280,1:?,N,,0.999
281,1:?,N,,0.999
282,1:?,N,,0.999
283,1:?,N,,0.999
284,1:?,N,,0.985
285,1:?,N,,0.997
286,1:?,N,,0.999
287,1:?,N,,0.999
288,1:?,N,,0.999
289,1:?,N,,0.999
290,1:?,N,,1
291,1:?,N,,0.999
292,1:?,N,,0.999
293,1:?,N,,0.999
294,1:?,N,,0.999
295,1:?,N,,0.893
296,1:?,N,,0.999
297,1:?,N,,0.999
298,1:?,N,,0.999
299,1:?,N,,0.999
300,1:?,N,,0.941
301,1:?,N,,0.994
302,1:?,N,,0.999
303,1:?,N,,0.979
304,1:?,N,,0.999
305,1:?,N,,0.999
306,1:?,N,,0.999
307,1:?,N,,0.999
308,1:?,N,,0.964
309,1:?,N,,0.995
310,1:?,Y,,0.76
311,1:?,Y,,0.89
312,1:?,Y,,0.857
313,1:?,Y,,0.744
314,1:?,N,,0.997
315,1:?,Y,,0.784
316,1:?,Y,,0.89
317,1:?,Y,,0.884
318,1:?,N,,0.987
319,1:?,Y,,0.861
320,1:?,N,,0.872
321,1:?,N,,0.989
322,1:?,N,,0.999
323,1:?,N,,0.949
324,1:?,Y,,0.868
325,1:?,Y,,0.801
326,1:?,N,,0.998
327,1:?,Y,,0.624
328,1:?,N,,0.995
329,1:?,N,,0.998
330,1:?,N,,0.999
331,1:?,N,,0.998
332,1:?,Y,,0.511
333,1:?,N,,0.931
334,1:?,N,,0.999
335,1:?,N,,0.718
336,1:?,N,,0.998
337,1:?,N,,0.999
338,1:?,N,,0.999
339,1:?,N,,0.998
340,1:?,N,,0.599
341,1:?,N,,0.959
342,1:?,N,,0.999
343,1:?,N,,0.999
344,1:?,N,,0.999
345,1:?,N,,0.999
346,1:?,N,,1
347,1:?,N,,0.999
348,1:?,N,,0.999
349,1:?,N,,0.999
350,1:?,N,,0.999
351,1:?,N,,0.999
352,1:?,N,,1
353,1:?,N,,1
354,1:?,N,,1
355,1:?,N,,0.999
356,1:?,N,,0.999
357,1:?,N,,0.999
358,1:?,N,,0.998
359,1:?,N,,0.999
360,1:?,N,,0.999
361,1:?,N,,1
362,1:?,N,,0.999
363,1:?,N,,0.998
364,1:?,N,,0.999
365,1:?,N,,0.999
366,1:?,N,,0.999
367,1:?,N,,0.999
368,1:?,N,,0.999
369,1:?,N,,1
370,1:?,N,,0.999
371,1:?,N,,0.999
372,1:?,N,,0.999
373,1:?,N,,0.996
374,1:?,Y,,0.819
375,1:?,N,,0.974
376,1:?,N,,0.996
377,1:?,N,,0.999
378,1:?,N,,0.995
379,1:?,Y,,0.789
380,1:?,N,,0.583
381,1:?,N,,0.999
382,1:?,N,,0.968
383,1:?,N,,0.999
384,1:?,N,,0.999
385,1:?,N,,0.999
386,1:?,N,,0.999
387,1:?,N,,0.945
388,1:?,N,,0.994
389,1:?,N,,0.999
390,1:?,N,,0.998
391,1:?,N,,0.999
392,1:?,N,,0.999
393,1:?,N,,1
394,1:?,N,,0.999
395,1:?,N,,0.998
396,1:?,N,,0.999
397,1:?,N,,0.999
398,1:?,N,,0.999
399,1:?,N,,0.999
400,1:?,N,,1
401,1:?,N,,0.999
402,1:?,N,,0.998
403,1:?,N,,0.999
404,1:?,N,,0.999
405,1:?,N,,0.999
406,1:?,N,,0.999
407,1:?,N,,0.999
408,1:?,N,,1
409,1:?,N,,0.999
410,1:?,N,,0.999
411,1:?,N,,0.999
412,1:?,N,,1
413,1:?,N,,0.999
414,1:?,N,,1
415,1:?,N,,1
416,1:?,N,,1
417,1:?,N,,1
418,1:?,N,,0.999
419,1:?,N,,0.999
420,1:?,N,,0.999
421,1:?,N,,0.998
422,1:?,N,,0.999
423,1:?,N,,0.999
424,1:?,N,,1
425,1:?,N,,0.999
426,1:?,N,,0.998
427,1:?,N,,0.999
428,1:?,N,,0.999
429,1:?,N,,0.999
430,1:?,N,,0.999
431,1:?,N,,0.999
432,1:?,N,,1
433,1:?,N,,0.999
434,1:?,N,,0.999
435,1:?,N,,0.999
436,1:?,Y,,0.592
437,1:?,Y,,0.888
438,1:?,Y,,0.822
439,1:?,Y,,0.559
440,1:?,N,,0.998
441,1:?,Y,,0.648
442,1:?,Y,,0.887
443,1:?,Y,,0.877
444,1:?,N,,0.995
445,1:?,Y,,0.83
446,1:?,N,,0.966
447,1:?,N,,0.996
448,1:?,N,,0.999
449,1:?,N,,0.986
450,1:?,Y,,0.846
451,1:?,Y,,0.686
452,1:?,N,,0.999
453,1:?,N,,0.652
454,1:?,N,,0.998
455,1:?,N,,0.999
456,1:?,N,,0.999
457,1:?,N,,0.999
458,1:?,N,,0.776
459,1:?,N,,0.981
460,1:?,N,,0.999
461,1:?,N,,0.916
462,1:?,N,,0.999
463,1:?,N,,0.999
464,1:?,N,,0.999
465,1:?,N,,0.999
466,1:?,N,,0.856
467,1:?,N,,0.988
468,1:?,N,,0.999
469,1:?,N,,0.999
470,1:?,N,,0.999
471,1:?,N,,0.999
472,1:?,N,,1
473,1:?,N,,0.999
474,1:?,N,,0.999
475,1:?,N,,0.999
476,1:?,N,,1
477,1:?,N,,0.999
478,1:?,N,,1
479,1:?,N,,1
480,1:?,N,,1
481,1:?,N,,1
482,1:?,N,,0.999
483,1:?,N,,0.999
484,1:?,N,,0.999
485,1:?,N,,0.999
486,1:?,N,,0.999
487,1:?,N,,0.999
488,1:?,N,,1
489,1:?,N,,0.999
490,1:?,N,,0.999
491,1:?,N,,0.999
492,1:?,N,,0.999
493,1:?,N,,0.999
494,1:?,N,,0.999
495,1:?,N,,1
496,1:?,N,,0.999
497,1:?,N,,0.999
498,1:?,N,,0.999
499,1:?,N,,0.999
500,1:?,N,,0.503
501,1:?,N,,0.997
502,1:?,N,,0.999
503,1:?,N,,0.998
504,1:?,N,,0.638
505,1:?,N,,0.965
506,1:?,N,,0.999
507,1:?,N,,0.996
508,1:?,N,,0.999
509,1:?,N,,0.999
510,1:?,N,,0.999
511,1:?,N,,0.999
512,1:?,N,,0.995
513,1:?,N,,0.998
514,1:?,N,,0.999
515,1:?,N,,0.999
516,1:?,N,,0.999
517,1:?,N,,0.999
518,1:?,N,,1
519,1:?,N,,0.999
520,1:?,N,,0.999
521,1:?,N,,0.999
522,1:?,N,,0.999
523,1:?,N,,0.999
524,1:?,N,,0.999
525,1:?,N,,0.999
526,1:?,N,,1
527,1:?,N,,0.999
528,1:?,N,,0.999
529,1:?,N,,0.999
530,1:?,N,,0.999
531,1:?,N,,0.999
532,1:?,N,,0.999
533,1:?,N,,0.999
534,1:?,N,,1
535,1:?,N,,0.999
536,1:?,N,,0.999
537,1:?,N,,0.999
538,1:?,N,,1
539,1:?,N,,0.999
540,1:?,N,,1
541,1:?,N,,1
542,1:?,N,,1
543,1:?,N,,1
544,1:?,N,,0.999
545,1:?,N,,0.999
546,1:?,N,,0.999
547,1:?,N,,0.999
548,1:?,N,,0.999
549,1:?,N,,0.999
550,1:?,N,,1
551,1:?,N,,0.999
552,1:?,N,,0.999
553,1:?,N,,0.999
554,1:?,N,,0.999
555,1:?,N,,0.999
556,1:?,N,,0.999
557,1:?,N,,1
558,1:?,N,,1
559,1:?,N,,0.999
560,1:?,N,,0.999
561,1:?,N,,0.999
562,1:?,N,,0.997
563,1:?,Y,,0.783
564,1:?,N,,0.986
565,1:?,N,,0.997
566,1:?,N,,0.999
567,1:?,N,,0.997
568,1:?,Y,,0.734
569,1:?,N,,0.737
570,1:?,N,,0.999
571,1:?,N,,0.984
572,1:?,N,,0.999
573,1:?,N,,0.999
574,1:?,N,,0.999
575,1:?,N,,0.999
576,1:?,N,,0.972
577,1:?,N,,0.996
578,1:?,N,,0.999
579,1:?,N,,0.998
580,1:?,N,,0.999
581,1:?,N,,0.999
582,1:?,N,,1
583,1:?,N,,0.999
584,1:?,N,,0.998
585,1:?,N,,0.999
586,1:?,N,,0.999
587,1:?,N,,0.999
588,1:?,N,,0.999
589,1:?,N,,0.999
590,1:?,N,,1
591,1:?,N,,0.999
592,1:?,N,,0.999
593,1:?,N,,0.999
594,1:?,N,,1
595,1:?,N,,0.999
596,1:?,N,,1
597,1:?,N,,1
598,1:?,N,,1
599,1:?,N,,0.999
600,1:?,N,,0.999
601,1:?,N,,1
602,1:?,N,,1
603,1:?,N,,1
604,1:?,N,,1
605,1:?,N,,1
606,1:?,N,,1
607,1:?,N,,1
608,1:?,N,,1
609,1:?,N,,1
610,1:?,N,,0.999
611,1:?,N,,1
612,1:?,N,,1
613,1:?,N,,1
614,1:?,N,,1
615,1:?,N,,0.999
616,1:?,N,,0.999
617,1:?,N,,1
618,1:?,N,,0.999
619,1:?,N,,1
620,1:?,N,,1
621,1:?,N,,1
622,1:?,N,,1
623,1:?,N,,0.999
624,1:?,N,,0.999
625,1:?,N,,0.999
626,1:?,N,,0.999
627,1:?,N,,0.999
628,1:?,N,,0.999
629,1:?,N,,1
630,1:?,N,,0.999
631,1:?,N,,0.999
632,1:?,N,,0.999
633,1:?,N,,1
634,1:?,N,,0.999
635,1:?,N,,0.999
636,1:?,N,,1
637,1:?,N,,1
638,1:?,N,,1
639,1:?,N,,0.999
640,1:?,N,,0.999
641,1:?,N,,1
642,1:?,N,,0.999
643,1:?,N,,1
644,1:?,N,,1
645,1:?,N,,0.999
646,1:?,N,,1
647,1:?,N,,1
648,1:?,N,,0.999
649,1:?,N,,1
650,1:?,N,,1
651,1:?,N,,1
652,1:?,N,,1
653,1:?,N,,0.999
654,1:?,N,,1
655,1:?,N,,1
656,1:?,N,,0.999
657,1:?,N,,1
658,1:?,N,,1
659,1:?,N,,1
660,1:?,N,,1
661,1:?,N,,0.999
662,1:?,N,,1
663,1:?,N,,1
664,1:?,N,,1
665,1:?,N,,1
666,1:?,N,,1
667,1:?,N,,1
668,1:?,N,,1
669,1:?,N,,1
670,1:?,N,,1
671,1:?,N,,1
672,1:?,N,,0.999
673,1:?,N,,1
674,1:?,N,,1
675,1:?,N,,1
676,1:?,N,,1
677,1:?,N,,0.999
678,1:?,N,,1
679,1:?,N,,1
680,1:?,N,,1
681,1:?,N,,1
682,1:?,N,,1
683,1:?,N,,1
684,1:?,N,,1
685,1:?,N,,0.999
686,1:?,N,,1
687,1:?,N,,0.999
688,1:?,N,,0.956
689,1:?,N,,0.999
690,1:?,N,,0.999
691,1:?,N,,0.999
692,1:?,N,,0.999
693,1:?,N,,0.975
694,1:?,N,,0.996
695,1:?,N,,0.999
696,1:?,N,,0.999
697,1:?,N,,0.999
698,1:?,N,,0.999
699,1:?,N,,1
700,1:?,N,,0.999
701,1:?,N,,0.999
702,1:?,N,,0.999
703,1:?,N,,1
704,1:?,N,,0.999
705,1:?,N,,0.999
706,1:?,N,,1
707,1:?,N,,1
708,1:?,N,,1
709,1:?,N,,0.999
710,1:?,N,,0.999
711,1:?,N,,1
712,1:?,N,,0.999
713,1:?,N,,0.999
714,1:?,N,,1
715,1:?,N,,1
716,1:?,N,,1
717,1:?,N,,0.999
718,1:?,N,,0.999
719,1:?,N,,1
720,1:?,N,,1
721,1:?,N,,1
722,1:?,N,,1
723,1:?,N,,1
724,1:?,N,,1
725,1:?,N,,1
726,1:?,N,,1
727,1:?,N,,1
728,1:?,N,,1
729,1:?,N,,1
730,1:?,N,,1
731,1:?,N,,1
732,1:?,N,,1
733,1:?,N,,1
734,1:?,N,,1
735,1:?,N,,1
736,1:?,N,,1
737,1:?,N,,1
738,1:?,N,,1
739,1:?,N,,1
740,1:?,N,,1
741,1:?,N,,1
742,1:?,N,,1
743,1:?,N,,1
744,1:?,N,,1
745,1:?,N,,1
746,1:?,N,,1
747,1:?,N,,1
748,1:?,N,,1
749,1:?,N,,1
750,1:?,N,,0.999
751,1:?,N,,0.999
752,1:?,N,,0.999
753,1:?,N,,0.999
754,1:?,N,,0.999
755,1:?,N,,0.983
756,1:?,N,,0.997
757,1:?,N,,0.999
758,1:?,N,,0.999
759,1:?,N,,0.999
760,1:?,N,,0.999
761,1:?,N,,0.999
762,1:?,N,,0.999
763,1:?,N,,0.999
764,1:?,N,,0.999
765,1:?,N,,0.999
766,1:?,N,,0.999
767,1:?,N,,0.999
768,1:?,N,,1
769,1:?,N,,0.999
770,1:?,N,,0.999
771,1:?,N,,0.999
772,1:?,N,,1
773,1:?,N,,0.999
774,1:?,N,,0.999
775,1:?,N,,1
776,1:?,N,,1
777,1:?,N,,0.999
778,1:?,N,,0.999
779,1:?,N,,0.999
780,1:?,N,,1
781,1:?,N,,0.999
782,1:?,N,,0.999
783,1:?,N,,1
784,1:?,N,,1
785,1:?,N,,1
786,1:?,N,,0.999
787,1:?,N,,0.999
788,1:?,N,,1
789,1:?,N,,0.999
790,1:?,N,,1
791,1:?,N,,1
792,1:?,N,,1
793,1:?,N,,1
794,1:?,N,,0.999
795,1:?,N,,1
796,1:?,N,,1
797,1:?,N,,0.999
798,1:?,N,,0.999
799,1:?,N,,1
800,1:?,N,,1
801,1:?,N,,1
802,1:?,N,,0.999
803,1:?,N,,0.999
804,1:?,N,,1
805,1:?,N,,0.999
806,1:?,N,,0.999
807,1:?,N,,1
808,1:?,N,,1
809,1:?,N,,1
810,1:?,N,,0.999
811,1:?,N,,0.999
812,1:?,N,,0.999
813,1:?,N,,0.788
814,1:?,N,,0.998
815,1:?,N,,0.999
816,1:?,N,,0.999
817,1:?,N,,0.999
818,1:?,N,,0.877
819,1:?,N,,0.989
820,1:?,N,,0.999
821,1:?,N,,0.998
822,1:?,N,,0.999
823,1:?,N,,0.999
824,1:?,N,,0.999
825,1:?,N,,0.999
826,1:?,N,,0.997
827,1:?,N,,0.999
828,1:?,N,,0.999
829,1:?,N,,0.999
830,1:?,N,,0.999
831,1:?,N,,0.999
832,1:?,N,,1
833,1:?,N,,0.999
834,1:?,N,,0.999
835,1:?,N,,0.999
836,1:?,N,,0.999
837,1:?,N,,0.999
838,1:?,N,,0.999
839,1:?,N,,0.999
840,1:?,N,,1
841,1:?,N,,0.999
842,1:?,N,,0.999
843,1:?,N,,0.999
844,1:?,N,,1
845,1:?,N,,0.999
846,1:?,N,,1
847,1:?,N,,1
848,1:?,N,,1
849,1:?,N,,1
850,1:?,N,,0.999
851,1:?,N,,1
852,1:?,N,,1
853,1:?,N,,1
854,1:?,N,,1
855,1:?,N,,1
856,1:?,N,,1
857,1:?,N,,1
858,1:?,N,,1
859,1:?,N,,1
860,1:?,N,,0.999
861,1:?,N,,1
862,1:?,N,,1
863,1:?,N,,1
864,1:?,N,,1
865,1:?,N,,0.999
866,1:?,N,,1
867,1:?,N,,1
868,1:?,N,,0.999
869,1:?,N,,1
870,1:?,N,,1
871,1:?,N,,1
872,1:?,N,,1
873,1:?,N,,0.999
874,1:?,N,,1
875,1:?,N,,0.999
876,1:?,N,,0.999
877,1:?,N,,0.999
878,1:?,N,,1
879,1:?,N,,0.999
880,1:?,N,,0.999
881,1:?,N,,0.999
882,1:?,N,,1
883,1:?,N,,0.999
884,1:?,N,,0.999
885,1:?,N,,1
886,1:?,N,,1
887,1:?,N,,0.999
888,1:?,N,,0.999
889,1:?,N,,0.999
890,1:?,N,,1
891,1:?,N,,0.999
892,1:?,N,,1
893,1:?,N,,1
894,1:?,N,,1
895,1:?,N,,1
896,1:?,N,,0.999
897,1:?,N,,0.999
898,1:?,N,,1
899,1:?,N,,0.999
900,1:?,N,,1
901,1:?,N,,1
902,1:?,N,,1
903,1:?,N,,0.999
904,1:?,N,,0.999
905,1:?,N,,1
906,1:?,N,,0.999
907,1:?,N,,1
908,1:?,N,,1
909,1:?,N,,1
910,1:?,N,,1
911,1:?,N,,0.999
912,1:?,N,,1
913,1:?,N,,1
914,1:?,N,,1
915,1:?,N,,1
916,1:?,N,,1
917,1:?,N,,1
918,1:?,N,,1
919,1:?,N,,1
920,1:?,N,,1
921,1:?,N,,1
922,1:?,N,,0.999
923,1:?,N,,1
924,1:?,N,,1
925,1:?,N,,1
926,1:?,N,,1
927,1:?,N,,0.999
928,1:?,N,,1
929,1:?,N,,1
930,1:?,N,,0.999
931,1:?,N,,1
932,1:?,N,,1
933,1:?,N,,1
934,1:?,N,,1
935,1:?,N,,0.999
936,1:?,N,,1
937,1:?,N,,0.999
938,1:?,N,,0.94
939,1:?,N,,0.999
940,1:?,N,,0.999
941,1:?,N,,0.999
942,1:?,N,,0.999
943,1:?,N,,0.966
944,1:?,N,,0.995
945,1:?,N,,0.999
946,1:?,N,,0.999
947,1:?,N,,0.999
948,1:?,N,,0.999
949,1:?,N,,1
950,1:?,N,,0.999
951,1:?,N,,0.998
952,1:?,N,,0.999
953,1:?,N,,0.999
954,1:?,N,,0.999
955,1:?,N,,0.999
956,1:?,N,,0.999
957,1:?,N,,1
958,1:?,N,,0.999
959,1:?,N,,0.999
960,1:?,N,,0.999
961,1:?,N,,1
962,1:?,N,,0.999
963,1:?,N,,0.999
964,1:?,N,,1
965,1:?,N,,1
966,1:?,N,,0.999
967,1:?,N,,0.999
968,1:?,N,,0.999
969,1:?,N,,1
970,1:?,N,,1
971,1:?,N,,1
972,1:?,N,,1
973,1:?,N,,1
974,1:?,N,,1
975,1:?,N,,1
976,1:?,N,,1
977,1:?,N,,1
978,1:?,N,,1
979,1:?,N,,1
980,1:?,N,,1
981,1:?,N,,1
982,1:?,N,,1
983,1:?,N,,1
984,1:?,N,,1
985,1:?,N,,1
986,1:?,N,,0.999
987,1:?,N,,1
988,1:?,N,,1
989,1:?,N,,1
990,1:?,N,,1
991,1:?,N,,0.999
992,1:?,N,,1
993,1:?,N,,1
994,1:?,N,,1
995,1:?,N,,1
996,1:?,N,,1
997,1:?,N,,1
998,1:?,N,,1
999,1:?,N,,1
1000,1:?,N,,0.999
1001,1:?,N,,0.997
1002,1:?,N,,0.999
1003,1:?,N,,1
1004,1:?,N,,0.999
1005,1:?,N,,0.998
1006,1:?,N,,0.999
1007,1:?,N,,0.999
1008,1:?,N,,0.999
1009,1:?,N,,0.999
1010,1:?,N,,0.999
1011,1:?,N,,1
1012,1:?,N,,0.999
1013,1:?,N,,0.999
1014,1:?,N,,0.999
1015,1:?,N,,1
1016,1:?,N,,0.999
1017,1:?,N,,1
1018,1:?,N,,1
1019,1:?,N,,1
1020,1:?,N,,1
1021,1:?,N,,0.999
1022,1:?,N,,0.999
1023,1:?,N,,1
1024,1:?,N,,0.999
1025,1:?,N,,1
1026,1:?,N,,1
1027,1:?,N,,1
1028,1:?,N,,1
1029,1:?,N,,0.999
1030,1:?,N,,0.999
1031,1:?,N,,1
1032,1:?,N,,0.999
1033,1:?,N,,1
1034,1:?,N,,1
1035,1:?,N,,1
1036,1:?,N,,1
1037,1:?,N,,0.999
1038,1:?,N,,0.999
1039,1:?,N,,1
1040,1:?,N,,1
1041,1:?,N,,1
1042,1:?,N,,1
1043,1:?,N,,1
1044,1:?,N,,1
1045,1:?,N,,1
1046,1:?,N,,1
1047,1:?,N,,1
1048,1:?,N,,0.999
1049,1:?,N,,1
1050,1:?,N,,1
1051,1:?,N,,1
1052,1:?,N,,1
1053,1:?,N,,0.999
1054,1:?,N,,0.999
1055,1:?,N,,1
1056,1:?,N,,0.999
1057,1:?,N,,1
1058,1:?,N,,1
1059,1:?,N,,1
1060,1:?,N,,1
1061,1:?,N,,0.999
1062,1:?,N,,0.999
1063,1:?,N,,0.999
1064,1:?,N,,0.999
1065,1:?,N,,0.999
1066,1:?,N,,0.999
1067,1:?,N,,0.999
1068,1:?,N,,0.993
1069,1:?,N,,0.998
1070,1:?,N,,0.999
1071,1:?,N,,0.999
1072,1:?,N,,0.999
1073,1:?,N,,0.999
1074,1:?,N,,1
1075,1:?,N,,0.999
1076,1:?,N,,0.999
1077,1:?,N,,0.999
1078,1:?,N,,1
1079,1:?,N,,0.999
1080,1:?,N,,0.999
1081,1:?,N,,1
1082,1:?,N,,1
1083,1:?,N,,1
1084,1:?,N,,0.999
1085,1:?,N,,0.999
1086,1:?,N,,1
1087,1:?,N,,0.999
1088,1:?,N,,1
1089,1:?,N,,1
1090,1:?,N,,1
1091,1:?,N,,1
1092,1:?,N,,0.999
1093,1:?,N,,0.999
1094,1:?,N,,1
1095,1:?,N,,1
1096,1:?,N,,1
1097,1:?,N,,1
1098,1:?,N,,1
1099,1:?,N,,1
1100,1:?,N,,1
1101,1:?,N,,1
1102,1:?,N,,1
1103,1:?,N,,1
1104,1:?,N,,1
1105,1:?,N,,1
1106,1:?,N,,1
1107,1:?,N,,1
1108,1:?,N,,1
1109,1:?,N,,1
1110,1:?,N,,1
1111,1:?,N,,1
1112,1:?,N,,1
1113,1:?,N,,1
1114,1:?,N,,1
1115,1:?,N,,1
1116,1:?,N,,1
1117,1:?,N,,1
1118,1:?,N,,1
1119,1:?,N,,1
1120,1:?,N,,1
1121,1:?,N,,1
1122,1:?,N,,1
1123,1:?,N,,1
1124,1:?,N,,1
1125,1:?,N,,1
1126,1:?,N,,0.999
1127,1:?,N,,0.999
1128,1:?,N,,1
1129,1:?,N,,1
1130,1:?,N,,1
1131,1:?,N,,0.999
1132,1:?,N,,0.999
1133,1:?,N,,1
1134,1:?,N,,1
1135,1:?,N,,1
1136,1:?,N,,1
1137,1:?,N,,1
1138,1:?,N,,1
1139,1:?,N,,0.999
1140,1:?,N,,1
1141,1:?,N,,1
1142,1:?,N,,1
1143,1:?,N,,1
1144,1:?,N,,1
1145,1:?,N,,1
1146,1:?,N,,1
1147,1:?,N,,1
1148,1:?,N,,1
1149,1:?,N,,1
1150,1:?,N,,1
1151,1:?,N,,1
1152,1:?,N,,1
1153,1:?,N,,1
1154,1:?,N,,1
1155,1:?,N,,1
1156,1:?,N,,1
1157,1:?,N,,1
1158,1:?,N,,1
1159,1:?,N,,1
1160,1:?,N,,1
1161,1:?,N,,1
1162,1:?,N,,1
1163,1:?,N,,1
1164,1:?,N,,1
1165,1:?,N,,1
1166,1:?,N,,1
1167,1:?,N,,1
1168,1:?,N,,1
1169,1:?,N,,1
1170,1:?,N,,1
1171,1:?,N,,1
1172,1:?,N,,1
1173,1:?,N,,1
1174,1:?,N,,1
1175,1:?,N,,1
1176,1:?,N,,1
1177,1:?,N,,1
1178,1:?,N,,1
1179,1:?,N,,1
1180,1:?,N,,1
1181,1:?,N,,1
1182,1:?,N,,1
1183,1:?,N,,1
1184,1:?,N,,1
1185,1:?,N,,1
1186,1:?,N,,1
1187,1:?,N,,1
1188,1:?,N,,0.999
1189,1:?,N,,0.999
1190,1:?,N,,0.999
1191,1:?,N,,0.999
1192,1:?,N,,1
1193,1:?,N,,0.999
1194,1:?,N,,0.999
1195,1:?,N,,0.999
1196,1:?,N,,1
1197,1:?,N,,0.999
1198,1:?,N,,1
1199,1:?,N,,1
1200,1:?,N,,1
1201,1:?,N,,1
1202,1:?,N,,0.999
1203,1:?,N,,0.999
1204,1:?,N,,1
1205,1:?,N,,0.999
1206,1:?,N,,1
1207,1:?,N,,1
1208,1:?,N,,1
1209,1:?,N,,1
1210,1:?,N,,0.999
1211,1:?,N,,1
1212,1:?,N,,1
1213,1:?,N,,1
1214,1:?,N,,1
1215,1:?,N,,1
1216,1:?,N,,1
1217,1:?,N,,1
1218,1:?,N,,0.999
1219,1:?,N,,1
1220,1:?,N,,1
1221,1:?,N,,1
1222,1:?,N,,1
1223,1:?,N,,1
1224,1:?,N,,1
1225,1:?,N,,1
1226,1:?,N,,1
1227,1:?,N,,1
1228,1:?,N,,1
1229,1:?,N,,1
1230,1:?,N,,1
1231,1:?,N,,1
1232,1:?,N,,1
1233,1:?,N,,1
1234,1:?,N,,1
1235,1:?,N,,1
1236,1:?,N,,1
1237,1:?,N,,1
1238,1:?,N,,1
1239,1:?,N,,1
1240,1:?,N,,1
1241,1:?,N,,1
1242,1:?,N,,1
1243,1:?,N,,1
1244,1:?,N,,1
1245,1:?,N,,1
1246,1:?,N,,1
1247,1:?,N,,1
1248,1:?,N,,1
1249,1:?,N,,1
1250,1:?,N,,1
1251,1:?,N,,0.999
1252,1:?,N,,0.999
1253,1:?,N,,0.999
1254,1:?,N,,0.999
1255,1:?,N,,1
1256,1:?,N,,0.999
1257,1:?,N,,0.999
1258,1:?,N,,0.999
1259,1:?,N,,1
1260,1:?,N,,0.999
1261,1:?,N,,1
1262,1:?,N,,1
1263,1:?,N,,1
1264,1:?,N,,0.999
1265,1:?,N,,0.999
1266,1:?,N,,1
1267,1:?,N,,1
1268,1:?,N,,1
1269,1:?,N,,1
1270,1:?,N,,1
1271,1:?,N,,1
1272,1:?,N,,1
1273,1:?,N,,1
1274,1:?,N,,1
1275,1:?,N,,1
1276,1:?,N,,1
1277,1:?,N,,1
1278,1:?,N,,1
1279,1:?,N,,1
1280,1:?,N,,1
1281,1:?,N,,1
1282,1:?,N,,1
1283,1:?,N,,1
1284,1:?,N,,1
1285,1:?,N,,1
1286,1:?,N,,1
1287,1:?,N,,1
1288,1:?,N,,1
1289,1:?,N,,1
1290,1:?,N,,1
1291,1:?,N,,1
1292,1:?,N,,1
1293,1:?,N,,1
1294,1:?,N,,1
1295,1:?,N,,1
1296,1:?,N,,1
1297,1:?,N,,1
1298,1:?,N,,1
1299,1:?,N,,1
1300,1:?,N,,1
1301,1:?,N,,1
1302,1:?,N,,1
1303,1:?,N,,1
1304,1:?,N,,1
1305,1:?,N,,1
1306,1:?,N,,1
1307,1:?,N,,1
1308,1:?,N,,1
1309,1:?,N,,1
1310,1:?,N,,1
1311,1:?,N,,1
1312,1:?,N,,1
1313,1:?,N,,1
1314,1:?,N,,0.999
1315,1:?,N,,0.999
1316,1:?,N,,0.999
1317,1:?,N,,0.999
1318,1:?,N,,1
1319,1:?,N,,0.999
1320,1:?,N,,0.999
1321,1:?,N,,0.999
1322,1:?,N,,1
1323,1:?,N,,0.999
1324,1:?,N,,1
1325,1:?,N,,1
1326,1:?,N,,1
1327,1:?,N,,1
1328,1:?,N,,0.999
1329,1:?,N,,0.999
1330,1:?,N,,1
1331,1:?,N,,0.999
1332,1:?,N,,1
1333,1:?,N,,1
1334,1:?,N,,1
1335,1:?,N,,1
1336,1:?,N,,0.999
1337,1:?,N,,1
1338,1:?,N,,1
1339,1:?,N,,1
1340,1:?,N,,1
1341,1:?,N,,1
1342,1:?,N,,1
1343,1:?,N,,1
1344,1:?,N,,0.999
1345,1:?,N,,1
1346,1:?,N,,1
1347,1:?,N,,1
1348,1:?,N,,1
1349,1:?,N,,1
1350,1:?,N,,1
1351,1:?,N,,1
1352,1:?,N,,1
1353,1:?,N,,1
1354,1:?,N,,1
1355,1:?,N,,1
1356,1:?,N,,1
1357,1:?,N,,1
1358,1:?,N,,1
1359,1:?,N,,1
1360,1:?,N,,1
1361,1:?,N,,1
1362,1:?,N,,1
1363,1:?,N,,1
1364,1:?,N,,1
1365,1:?,N,,1
1366,1:?,N,,1
1367,1:?,N,,1
1368,1:?,N,,1
1369,1:?,N,,1
1370,1:?,N,,1
1371,1:?,N,,1
1372,1:?,N,,1
1373,1:?,N,,1
1374,1:?,N,,1
1375,1:?,N,,1
1376,1:?,N,,1
1377,1:?,N,,1
1378,1:?,N,,0.999
1379,1:?,N,,1
1380,1:?,N,,1
1381,1:?,N,,1
1382,1:?,N,,1
1383,1:?,N,,0.999
1384,1:?,N,,0.999
1385,1:?,N,,1
1386,1:?,N,,1
1387,1:?,N,,1
1388,1:?,N,,1
1389,1:?,N,,1
1390,1:?,N,,1
1391,1:?,N,,1
1392,1:?,N,,1
1393,1:?,N,,1
1394,1:?,N,,1
1395,1:?,N,,1
1396,1:?,N,,1
1397,1:?,N,,1
1398,1:?,N,,1
1399,1:?,N,,1
1400,1:?,N,,1
1401,1:?,N,,1
1402,1:?,N,,1
1403,1:?,N,,1
1404,1:?,N,,1
1405,1:?,N,,1
1406,1:?,N,,1
1407,1:?,N,,1
1408,1:?,N,,1
1409,1:?,N,,1
1410,1:?,N,,1
1411,1:?,N,,1
1412,1:?,N,,1
1413,1:?,N,,1
1414,1:?,N,,1
1415,1:?,N,,1
1416,1:?,N,,1
1417,1:?,N,,1
1418,1:?,N,,1
1419,1:?,N,,1
1420,1:?,N,,1
1421,1:?,N,,1
1422,1:?,N,,1
1423,1:?,N,,1
1424,1:?,N,,1
1425,1:?,N,,1
1426,1:?,N,,1
1427,1:?,N,,1
1428,1:?,N,,1
1429,1:?,N,,1
1430,1:?,N,,1
1431,1:?,N,,1
1432,1:?,N,,1
1433,1:?,N,,1
1434,1:?,N,,1
1435,1:?,N,,1
1436,1:?,N,,1
1437,1:?,N,,1
1438,1:?,N,,1
1439,1:?,N,,1
1440,1:?,N,,0.999
1441,1:?,N,,0.999
1442,1:?,N,,0.999
1443,1:?,N,,0.999
1444,1:?,N,,1
1445,1:?,N,,0.999
1446,1:?,N,,0.999
1447,1:?,N,,0.999
1448,1:?,N,,1
1449,1:?,N,,0.999
1450,1:?,N,,1
1451,1:?,N,,1
1452,1:?,N,,1
1453,1:?,N,,1
1454,1:?,N,,0.999
1455,1:?,N,,0.999
1456,1:?,N,,1
1457,1:?,N,,1
1458,1:?,N,,1
1459,1:?,N,,1
1460,1:?,N,,1
1461,1:?,N,,1
1462,1:?,N,,1
1463,1:?,N,,1
1464,1:?,N,,1
1465,1:?,N,,1
1466,1:?,N,,1
1467,1:?,N,,1
1468,1:?,N,,1
1469,1:?,N,,1
1470,1:?,N,,1
1471,1:?,N,,1
1472,1:?,N,,1
1473,1:?,N,,1
1474,1:?,N,,1
1475,1:?,N,,1
1476,1:?,N,,1
1477,1:?,N,,1
1478,1:?,N,,1
1479,1:?,N,,1
1480,1:?,N,,1
1481,1:?,N,,1
1482,1:?,N,,1
1483,1:?,N,,1
1484,1:?,N,,1
1485,1:?,N,,1
1486,1:?,N,,1
1487,1:?,N,,1
1488,1:?,N,,1
1489,1:?,N,,1
1490,1:?,N,,1
1491,1:?,N,,1
1492,1:?,N,,1
1493,1:?,N,,1
1494,1:?,N,,1
1495,1:?,N,,1
1496,1:?,N,,1
1497,1:?,N,,1
1498,1:?,N,,1
1499,1:?,N,,1
1500,1:?,N,,1
1501,1:?,N,,1
1502,1:?,N,,1
1503,1:?,N,,0.688
1504,1:?,N,,0.972
1505,1:?,N,,0.999
1506,1:?,N,,0.953
1507,1:?,Y,,0.797
1508,1:?,N,,0.999
1509,1:?,N,,0.632
1510,1:?,N,,0.998
1511,1:?,N,,0.999
1512,1:?,N,,0.999
1513,1:?,N,,0.998
1514,1:?,N,,0.509
1515,1:?,N,,0.939
1516,1:?,N,,0.999
1517,1:?,N,,0.989
1518,1:?,N,,0.999
1519,1:?,N,,0.999
1520,1:?,N,,0.999
1521,1:?,N,,0.999
1522,1:?,N,,0.993
1523,1:?,N,,0.998
1524,1:?,N,,0.999
1525,1:?,N,,0.996
1526,1:?,N,,0.999
1527,1:?,N,,0.999
1528,1:?,N,,1
1529,1:?,N,,0.999
1530,1:?,N,,0.995
1531,1:?,N,,0.998
1532,1:?,N,,0.999
1533,1:?,N,,0.997
1534,1:?,N,,0.999
1535,1:?,N,,0.999
1536,1:?,N,,1
1537,1:?,N,,0.999
1538,1:?,N,,0.998
1539,1:?,N,,0.999
1540,1:?,N,,1
1541,1:?,N,,0.999
1542,1:?,N,,0.999
1543,1:?,N,,1
1544,1:?,N,,1
1545,1:?,N,,0.999
1546,1:?,N,,0.999
1547,1:?,N,,0.999
1548,1:?,N,,0.999
1549,1:?,N,,0.993
1550,1:?,N,,0.999
1551,1:?,N,,0.999
1552,1:?,N,,1
1553,1:?,N,,0.999
1554,1:?,N,,0.995
1555,1:?,N,,0.998
1556,1:?,N,,0.999
1557,1:?,N,,0.997
1558,1:?,N,,0.999
1559,1:?,N,,0.999
1560,1:?,N,,1
1561,1:?,N,,0.999
1562,1:?,N,,0.996
1563,1:?,N,,0.999
1564,1:?,N,,0.748
1565,1:?,Y,,0.884
1566,1:?,Y,,0.71
1567,1:?,N,,0.782
1568,1:?,N,,0.999
1569,1:?,N,,0.672
1570,1:?,Y,,0.882
1571,1:?,Y,,0.861
1572,1:?,N,,0.998
1573,1:?,Y,,0.735
1574,1:?,N,,0.992
1575,1:?,N,,0.998
1576,1:?,N,,0.999
1577,1:?,N,,0.996
1578,1:?,Y,,0.781
1579,1:?,N,,0.613
1580,1:?,N,,0.999
1581,1:?,N,,0.912
1582,1:?,N,,0.999
1583,1:?,N,,0.999
1584,1:?,N,,0.999
1585,1:?,N,,0.999
1586,1:?,N,,0.951
1587,1:?,N,,0.995
1588,1:?,N,,0.999
1589,1:?,N,,0.983
1590,1:?,N,,0.999
1591,1:?,N,,0.999
1592,1:?,N,,0.999
1593,1:?,N,,0.999
1594,1:?,N,,0.971
1595,1:?,N,,0.996
1596,1:?,N,,0.999
1597,1:?,N,,0.999
1598,1:?,N,,0.999
1599,1:?,N,,0.999
1600,1:?,N,,1
1601,1:?,N,,0.999
1602,1:?,N,,0.999
1603,1:?,N,,1
1604,1:?,N,,0.999
1605,1:?,N,,1
1606,1:?,N,,1
1607,1:?,N,,1
1608,1:?,N,,1
1609,1:?,N,,0.999
1610,1:?,N,,0.999
1611,1:?,N,,0.999
1612,1:?,N,,0.999
1613,1:?,N,,0.999
1614,1:?,N,,0.999
1615,1:?,N,,1
1616,1:?,N,,0.999
1617,1:?,N,,0.999
1618,1:?,N,,0.999
1619,1:?,N,,1
1620,1:?,N,,0.999
1621,1:?,N,,0.999
1622,1:?,N,,1
1623,1:?,N,,1
1624,1:?,N,,0.999
1625,1:?,N,,0.999
1626,1:?,N,,0.999
1627,1:?,N,,0.999
1628,1:?,N,,0.981
1629,1:?,N,,0.999
1630,1:?,N,,0.999
1631,1:?,N,,0.999
1632,1:?,N,,0.999
1633,1:?,N,,0.988
1634,1:?,N,,0.998
1635,1:?,N,,0.999
1636,1:?,N,,0.999
1637,1:?,N,,0.999
1638,1:?,N,,0.999
1639,1:?,N,,1
1640,1:?,N,,0.999
1641,1:?,N,,0.999
1642,1:?,N,,0.999
1643,1:?,N,,1
1644,1:?,N,,0.999
1645,1:?,N,,0.999
1646,1:?,N,,1
1647,1:?,N,,1
1648,1:?,N,,1
1649,1:?,N,,0.999
1650,1:?,N,,1
1651,1:?,N,,0.999
1652,1:?,N,,1
1653,1:?,N,,1
1654,1:?,N,,1
1655,1:?,N,,1
1656,1:?,N,,0.999
1657,1:?,N,,0.999
1658,1:?,N,,1
1659,1:?,N,,0.999
1660,1:?,N,,1
1661,1:?,N,,1
1662,1:?,N,,1
1663,1:?,N,,1
1664,1:?,N,,0.999
1665,1:?,N,,0.999
1666,1:?,N,,1
1667,1:?,N,,1
1668,1:?,N,,1
1669,1:?,N,,1
1670,1:?,N,,1
1671,1:?,N,,1
1672,1:?,N,,1
1673,1:?,N,,1
1674,1:?,N,,1
1675,1:?,N,,0.999
1676,1:?,N,,1
1677,1:?,N,,1
1678,1:?,N,,1
1679,1:?,N,,1
1680,1:?,N,,0.999
1681,1:?,N,,0.999
1682,1:?,N,,1
1683,1:?,N,,0.999
1684,1:?,N,,1
1685,1:?,N,,1
1686,1:?,N,,1
1687,1:?,N,,1
1688,1:?,N,,0.999
1689,1:?,N,,0.999
1690,1:?,N,,0.996
1691,1:?,Y,,0.808
1692,1:?,N,,0.98
1693,1:?,N,,0.997
1694,1:?,N,,0.999
1695,1:?,N,,0.996
1696,1:?,Y,,0.774
1697,1:?,N,,0.634
1698,1:?,N,,0.999
1699,1:?,N,,0.975
1700,1:?,N,,0.999
1701,1:?,N,,0.999
1702,1:?,N,,0.999
1703,1:?,N,,0.999
1704,1:?,N,,0.957
1705,1:?,N,,0.995
1706,1:?,N,,0.999
1707,1:?,N,,0.998
1708,1:?,N,,0.999
1709,1:?,N,,0.999
1710,1:?,N,,1
1711,1:?,N,,0.999
1712,1:?,N,,0.998
1713,1:?,N,,0.999
1714,1:?,N,,0.999
1715,1:?,N,,0.999
1716,1:?,N,,0.999
1717,1:?,N,,0.999
1718,1:?,N,,1
1719,1:?,N,,0.999
1720,1:?,N,,0.999
1721,1:?,N,,0.999
1722,1:?,N,,1
1723,1:?,N,,0.999
1724,1:?,N,,1
1725,1:?,N,,1
1726,1:?,N,,1
1727,1:?,N,,1
1728,1:?,N,,0.999
1729,1:?,N,,0.999
1730,1:?,N,,1
1731,1:?,N,,1
1732,1:?,N,,1
1733,1:?,N,,1
1734,1:?,N,,1
1735,1:?,N,,1
1736,1:?,N,,1
1737,1:?,N,,1
1738,1:?,N,,1
1739,1:?,N,,0.999
1740,1:?,N,,1
1741,1:?,N,,1
1742,1:?,N,,1
1743,1:?,N,,1
1744,1:?,N,,0.999
1745,1:?,N,,1
1746,1:?,N,,0.999
1747,1:?,N,,1
1748,1:?,N,,1
1749,1:?,N,,1
1750,1:?,N,,1
1751,1:?,N,,0.999
1752,1:?,N,,0.999
1753,1:?,N,,0.997
1754,1:?,Y,,0.781
1755,1:?,N,,0.987
1756,1:?,N,,0.997
1757,1:?,N,,0.999
1758,1:?,N,,0.997
1759,1:?,Y,,0.731
1760,1:?,N,,0.744
1761,1:?,N,,0.999
1762,1:?,N,,0.984
1763,1:?,N,,0.999
1764,1:?,N,,0.999
1765,1:?,N,,0.999
1766,1:?,N,,0.999
1767,1:?,N,,0.996
1768,1:?,N,,0.999
1769,1:?,N,,0.998
1770,1:?,N,,0.999
1771,1:?,N,,0.999
1772,1:?,N,,1
1773,1:?,N,,0.999
1774,1:?,N,,0.998
1775,1:?,N,,0.999
1776,1:?,N,,0.999
1777,1:?,N,,0.999
1778,1:?,N,,0.999
1779,1:?,N,,0.999
1780,1:?,N,,1
1781,1:?,N,,0.999
1782,1:?,N,,0.999
1783,1:?,N,,0.999
1784,1:?,N,,0.999
1785,1:?,N,,0.999
1786,1:?,N,,0.999
1787,1:?,N,,0.999
1788,1:?,N,,1
1789,1:?,N,,0.999
1790,1:?,N,,0.999
1791,1:?,N,,0.999
1792,1:?,N,,1
1793,1:?,N,,0.999
1794,1:?,N,,1
1795,1:?,N,,1
1796,1:?,N,,1
1797,1:?,N,,1
1798,1:?,N,,0.999
1799,1:?,N,,0.999
1800,1:?,N,,0.999
1801,1:?,N,,0.999
1802,1:?,N,,0.999
1803,1:?,N,,0.999
1804,1:?,N,,1
1805,1:?,N,,0.999
1806,1:?,N,,0.999
1807,1:?,N,,0.999
1808,1:?,N,,0.999
1809,1:?,N,,0.999
1810,1:?,N,,0.999
1811,1:?,N,,0.999
1812,1:?,N,,1
1813,1:?,N,,0.999
1814,1:?,N,,0.999
1815,1:?,N,,0.999
1816,1:?,N,,0.989
1817,1:?,Y,,0.857
1818,1:?,N,,0.9
1819,1:?,N,,0.991
1820,1:?,N,,0.999
1821,1:?,N,,0.986
1822,1:?,Y,,0.845
1823,1:?,Y,,0.678
1824,1:?,N,,0.999
1825,1:?,N,,0.872
1826,1:?,N,,0.998
1827,1:?,N,,0.999
1828,1:?,N,,0.999
1829,1:?,N,,0.999
1830,1:?,N,,0.79
1831,1:?,N,,0.982
1832,1:?,N,,0.999
1833,1:?,N,,0.995
1834,1:?,N,,0.999
1835,1:?,N,,0.999
1836,1:?,N,,1
1837,1:?,N,,0.999
1838,1:?,N,,0.997
1839,1:?,N,,0.999
1840,1:?,N,,0.999
1841,1:?,N,,0.998
1842,1:?,N,,0.999
1843,1:?,N,,0.999
1844,1:?,N,,1
1845,1:?,N,,0.999
1846,1:?,N,,0.997
1847,1:?,N,,0.999
1848,1:?,N,,1
1849,1:?,N,,0.999
1850,1:?,N,,0.999
1851,1:?,N,,1
1852,1:?,N,,1
1853,1:?,N,,1
1854,1:?,N,,0.999
1855,1:?,N,,0.999
1856,1:?,N,,1
1857,1:?,N,,1
1858,1:?,N,,1
1859,1:?,N,,1
1860,1:?,N,,1
1861,1:?,N,,1
1862,1:?,N,,1
1863,1:?,N,,1
1864,1:?,N,,0.999
1865,1:?,N,,0.999
1866,1:?,N,,1
1867,1:?,N,,1
1868,1:?,N,,1
1869,1:?,N,,0.999
1870,1:?,N,,0.999
1871,1:?,N,,1
1872,1:?,N,,0.999
1873,1:?,N,,1
1874,1:?,N,,1
1875,1:?,N,,1
1876,1:?,N,,1
1877,1:?,N,,0.999
1878,1:?,N,,0.999
1879,1:?,N,,0.999
1880,1:?,N,,0.975
1881,1:?,N,,0.999
1882,1:?,N,,0.999
1883,1:?,N,,0.999
1884,1:?,N,,0.999
1885,1:?,N,,0.985
1886,1:?,N,,0.997
1887,1:?,N,,0.999
1888,1:?,N,,0.999
1889,1:?,N,,0.999
1890,1:?,N,,0.999
1891,1:?,N,,1
1892,1:?,N,,0.999
1893,1:?,N,,0.999
1894,1:?,N,,0.999
1895,1:?,N,,0.999
1896,1:?,N,,0.999
1897,1:?,N,,0.999
1898,1:?,N,,1
1899,1:?,N,,1
1900,1:?,N,,1
1901,1:?,N,,0.999
1902,1:?,N,,0.999
1903,1:?,N,,1
1904,1:?,N,,0.999
1905,1:?,N,,0.999
1906,1:?,N,,1
1907,1:?,N,,1
1908,1:?,N,,1
1909,1:?,N,,0.999
1910,1:?,N,,1
1911,1:?,N,,0.999
1912,1:?,N,,0.999
1913,1:?,N,,1
1914,1:?,N,,1
1915,1:?,N,,1
1916,1:?,N,,0.999
1917,1:?,N,,0.999
1918,1:?,N,,1
1919,1:?,N,,1
1920,1:?,N,,1
1921,1:?,N,,1
1922,1:?,N,,1
1923,1:?,N,,1
1924,1:?,N,,0.999
1925,1:?,N,,1
1926,1:?,N,,1
1927,1:?,N,,0.999
1928,1:?,N,,0.999
1929,1:?,N,,1
1930,1:?,N,,1
1931,1:?,N,,1
1932,1:?,N,,0.999
1933,1:?,N,,0.999
1934,1:?,N,,1
1935,1:?,N,,0.999
1936,1:?,N,,1
1937,1:?,N,,1
1938,1:?,N,,1
1939,1:?,N,,1
1940,1:?,N,,0.999
1941,1:?,N,,0.999
1942,1:?,N,,0.996
1943,1:?,Y,,0.821
1944,1:?,N,,0.973
1945,1:?,N,,0.996
1946,1:?,N,,0.999
1947,1:?,N,,0.995
1948,1:?,Y,,0.793
1949,1:?,N,,0.568
1950,1:?,N,,0.999
1951,1:?,N,,0.967
1952,1:?,N,,0.999
1953,1:?,N,,0.999
1954,1:?,N,,0.999
1955,1:?,N,,0.999
1956,1:?,N,,0.942
1957,1:?,N,,0.994
1958,1:?,N,,0.999
1959,1:?,N,,0.998
1960,1:?,N,,0.999
1961,1:?,N,,0.999
1962,1:?,N,,1
1963,1:?,N,,0.999
1964,1:?,N,,0.998
1965,1:?,N,,0.999
1966,1:?,N,,0.999
1967,1:?,N,,0.999
1968,1:?,N,,0.999
1969,1:?,N,,0.999
1970,1:?,N,,1
1971,1:?,N,,0.999
1972,1:?,N,,0.998
1973,1:?,N,,0.999
1974,1:?,N,,1
1975,1:?,N,,0.999
1976,1:?,N,,1
1977,1:?,N,,1
1978,1:?,N,,1
1979,1:?,N,,1
1980,1:?,N,,0.999
1981,1:?,N,,0.999
1982,1:?,N,,1
1983,1:?,N,,1
1984,1:?,N,,1
1985,1:?,N,,1
1986,1:?,N,,1
1987,1:?,N,,1
1988,1:?,N,,1
1989,1:?,N,,1
1990,1:?,N,,1
1991,1:?,N,,0.999
1992,1:?,N,,1
1993,1:?,N,,1
1994,1:?,N,,1
1995,1:?,N,,1
1996,1:?,N,,0.999
1997,1:?,N,,0.999
1998,1:?,N,,1
1999,1:?,N,,0.999
2000,1:?,N,,1
2001,1:?,N,,1
2002,1:?,N,,1
2003,1:?,N,,1
2004,1:?,N,,0.999
2005,1:?,N,,0.693
2006,1:?,N,,0.972
2007,1:?,N,,0.999
2008,1:?,N,,0.954
2009,1:?,Y,,0.867
2010,1:?,Y,,0.796
2011,1:?,N,,0.999
2012,1:?,N,,0.635
2013,1:?,N,,0.997
2014,1:?,N,,0.999
2015,1:?,N,,0.999
2016,1:?,N,,0.998
2017,1:?,N,,0.515
2018,1:?,N,,0.94
2019,1:?,N,,0.999
2020,1:?,N,,0.988
2021,1:?,N,,0.999
2022,1:?,N,,0.999
2023,1:?,N,,0.999
2024,1:?,N,,0.999
2025,1:?,N,,0.992
2026,1:?,N,,0.998
2027,1:?,N,,0.999
2028,1:?,N,,0.996
2029,1:?,N,,0.999
2030,1:?,N,,0.999
2031,1:?,N,,0.999
2032,1:?,N,,0.999
2033,1:?,N,,0.995
2034,1:?,N,,0.998
2035,1:?,N,,0.999
2036,1:?,N,,0.997
2037,1:?,N,,0.999
2038,1:?,N,,0.999
2039,1:?,N,,1
2040,1:?,N,,0.999
2041,1:?,N,,0.998
2042,1:?,N,,0.999
2043,1:?,N,,0.999
2044,1:?,N,,0.999
2045,1:?,N,,0.999
2046,1:?,N,,0.999
2047,1:?,N,,1
2048,1:?,N,,0.999
2049,1:?,N,,0.999
2050,1:?,N,,0.999
2051,1:?,N,,0.999
2052,1:?,N,,0.993
2053,1:?,N,,0.999
2054,1:?,N,,0.999
2055,1:?,N,,1
2056,1:?,N,,0.999
2057,1:?,N,,0.995
2058,1:?,N,,0.998
2059,1:?,N,,0.999
2060,1:?,N,,0.997
2061,1:?,N,,0.999
2062,1:?,N,,0.999
2063,1:?,N,,1
2064,1:?,N,,0.999
2065,1:?,N,,0.996
2066,1:?,N,,0.999
2067,1:?,N,,0.751
2068,1:?,Y,,0.884
2069,1:?,Y,,0.708
2070,1:?,N,,0.785
2071,1:?,N,,0.999
2072,1:?,N,,0.675
2073,1:?,Y,,0.882
2074,1:?,Y,,0.861
2075,1:?,N,,0.998
2076,1:?,Y,,0.736
2077,1:?,N,,0.992
2078,1:?,N,,0.998
2079,1:?,N,,0.999
2080,1:?,N,,0.995
2081,1:?,Y,,0.78
2082,1:?,N,,0.617
2083,1:?,N,,0.999
2084,1:?,N,,0.913
2085,1:?,N,,0.999
2086,1:?,N,,0.999
2087,1:?,N,,0.999
2088,1:?,N,,0.999
2089,1:?,N,,0.952
2090,1:?,N,,0.995
2091,1:?,N,,0.999
2092,1:?,N,,0.983
2093,1:?,N,,0.999
2094,1:?,N,,0.999
2095,1:?,N,,0.999
2096,1:?,N,,0.999
2097,1:?,N,,0.971
2098,1:?,N,,0.996
2099,1:?,N,,0.999
2100,1:?,N,,0.999
2101,1:?,N,,0.999
2102,1:?,N,,1
2103,1:?,N,,0.999
2104,1:?,N,,0.999
2105,1:?,N,,0.999
2106,1:?,N,,1
2107,1:?,N,,0.999
2108,1:?,N,,1
2109,1:?,N,,1
2110,1:?,N,,1
2111,1:?,N,,1
2112,1:?,N,,0.999
2113,1:?,N,,0.999
2114,1:?,N,,0.999
2115,1:?,N,,0.999
2116,1:?,N,,0.999
2117,1:?,N,,0.999
2118,1:?,N,,1
2119,1:?,N,,0.999
2120,1:?,N,,0.999
2121,1:?,N,,0.999
2122,1:?,N,,0.999
2123,1:?,N,,0.999
2124,1:?,N,,0.999
2125,1:?,N,,1
2126,1:?,N,,1
2127,1:?,N,,0.999
2128,1:?,N,,0.999
2129,1:?,N,,0.999
2130,1:?,N,,0.999
2131,1:?,N,,0.981
2132,1:?,N,,0.999
2133,1:?,N,,0.999
2134,1:?,N,,0.999
2135,1:?,N,,0.999
2136,1:?,N,,0.988
2137,1:?,N,,0.997
2138,1:?,N,,0.999
2139,1:?,N,,0.999
2140,1:?,N,,0.999
2141,1:?,N,,0.999
2142,1:?,N,,1
2143,1:?,N,,0.999
2144,1:?,N,,0.999
2145,1:?,N,,0.999
2146,1:?,N,,1
2147,1:?,N,,0.999
2148,1:?,N,,1
2149,1:?,N,,1
2150,1:?,N,,0.999
2151,1:?,N,,0.999
2152,1:?,N,,1
2153,1:?,N,,0.999
2154,1:?,N,,0.999
2155,1:?,N,,1
2156,1:?,N,,1
2157,1:?,N,,1
2158,1:?,N,,0.999
2159,1:?,N,,0.999
2160,1:?,N,,1
2161,1:?,N,,0.999
2162,1:?,N,,1
2163,1:?,N,,1
2164,1:?,N,,1
2165,1:?,N,,1
2166,1:?,N,,0.999
2167,1:?,N,,0.999
2168,1:?,N,,1
2169,1:?,N,,1
2170,1:?,N,,1
2171,1:?,N,,1
2172,1:?,N,,1
2173,1:?,N,,1
2174,1:?,N,,0.999
2175,1:?,N,,1
2176,1:?,N,,1
2177,1:?,N,,0.999
2178,1:?,N,,0.999
2179,1:?,N,,1
2180,1:?,N,,1
2181,1:?,N,,1
2182,1:?,N,,0.999
2183,1:?,N,,0.999
2184,1:?,N,,1
2185,1:?,N,,0.999
2186,1:?,N,,1
2187,1:?,N,,1
2188,1:?,N,,1
2189,1:?,N,,1
2190,1:?,N,,0.999
2191,1:?,N,,0.999
2192,1:?,N,,0.996
2193,1:?,Y,,0.808
2194,1:?,N,,0.98
2195,1:?,N,,0.997
2196,1:?,N,,0.999
2197,1:?,N,,0.996
2198,1:?,Y,,0.772
2199,1:?,N,,0.639
2200,1:?,N,,0.999
2201,1:?,N,,0.975
2202,1:?,N,,0.999
2203,1:?,N,,0.999
2204,1:?,N,,0.999
2205,1:?,N,,0.999
2206,1:?,N,,0.958
2207,1:?,N,,0.995
2208,1:?,N,,0.999
2209,1:?,N,,0.998
2210,1:?,N,,0.999
2211,1:?,N,,0.999
2212,1:?,N,,1
2213,1:?,N,,0.999
2214,1:?,N,,0.998
2215,1:?,N,,0.999
2216,1:?,N,,0.999
2217,1:?,N,,0.999
2218,1:?,N,,0.999
2219,1:?,N,,0.999
2220,1:?,N,,1
2221,1:?,N,,0.999
2222,1:?,N,,0.999
2223,1:?,N,,0.999
2224,1:?,N,,1
2225,1:?,N,,0.999
2226,1:?,N,,1
2227,1:?,N,,1
2228,1:?,N,,1
2229,1:?,N,,1
2230,1:?,N,,0.999
2231,1:?,N,,0.999
2232,1:?,N,,1
2233,1:?,N,,1
2234,1:?,N,,1
2235,1:?,N,,1
2236,1:?,N,,1
2237,1:?,N,,1
2238,1:?,N,,1
2239,1:?,N,,1
2240,1:?,N,,1
2241,1:?,N,,1
2242,1:?,N,,1
2243,1:?,N,,1
2244,1:?,N,,1
2245,1:?,N,,0.999
2246,1:?,N,,0.999
2247,1:?,N,,1
2248,1:?,N,,0.999
2249,1:?,N,,1
2250,1:?,N,,1
2251,1:?,N,,1
2252,1:?,N,,1
2253,1:?,N,,0.999
2254,1:?,N,,0.999
2255,1:?,N,,0.998
2256,1:?,Y,,0.593
2257,1:?,N,,0.996
2258,1:?,N,,0.998
2259,1:?,N,,0.999
2260,1:?,N,,0.998
2261,1:?,N,,0.53
2262,1:?,N,,0.943
2263,1:?,N,,0.999
2264,1:?,N,,0.999
2265,1:?,N,,0.999
2266,1:?,N,,0.999
2267,1:?,N,,0.999
2268,1:?,N,,0.993
2269,1:?,N,,0.998
2270,1:?,N,,0.999
2271,1:?,N,,0.999
2272,1:?,N,,0.999
2273,1:?,N,,0.999
2274,1:?,N,,1
2275,1:?,N,,0.999
2276,1:?,N,,0.999
2277,1:?,N,,0.999
2278,1:?,N,,0.999
2279,1:?,N,,0.999
2280,1:?,N,,0.999
2281,1:?,N,,0.999
2282,1:?,N,,1
2283,1:?,N,,0.999
2284,1:?,N,,0.999
2285,1:?,N,,0.999
2286,1:?,N,,0.999
2287,1:?,N,,0.999
2288,1:?,N,,0.999
2289,1:?,N,,0.999
2290,1:?,N,,1
2291,1:?,N,,0.999
2292,1:?,N,,0.999
2293,1:?,N,,0.999
2294,1:?,N,,1
2295,1:?,N,,0.999
2296,1:?,N,,1
2297,1:?,N,,1
2298,1:?,N,,1
2299,1:?,N,,1
2300,1:?,N,,0.999
2301,1:?,N,,0.999
2302,1:?,N,,0.999
2303,1:?,N,,0.999
2304,1:?,N,,0.999
2305,1:?,N,,0.999
2306,1:?,N,,1
2307,1:?,N,,0.999
2308,1:?,N,,0.999
2309,1:?,N,,0.999
2310,1:?,N,,0.999
2311,1:?,N,,0.999
2312,1:?,N,,0.999
2313,1:?,N,,0.999
2314,1:?,N,,1
2315,1:?,N,,0.999
2316,1:?,N,,0.999
2317,1:?,N,,0.999
2318,1:?,N,,0.996
2319,1:?,Y,,0.81
2320,1:?,N,,0.979
2321,1:?,N,,0.997
2322,1:?,N,,0.999
2323,1:?,N,,0.995
2324,1:?,Y,,0.774
2325,1:?,N,,0.632
2326,1:?,N,,0.999
2327,1:?,N,,0.974
2328,1:?,N,,0.999
2329,1:?,N,,0.999
2330,1:?,N,,0.999
2331,1:?,N,,0.999
2332,1:?,N,,0.956
2333,1:?,N,,0.995
2334,1:?,N,,0.999
2335,1:?,N,,0.998
2336,1:?,N,,0.999
2337,1:?,N,,0.999
2338,1:?,N,,1
2339,1:?,N,,0.999
2340,1:?,N,,0.998
2341,1:?,N,,0.999
2342,1:?,N,,0.999
2343,1:?,N,,0.999
2344,1:?,N,,0.999
2345,1:?,N,,0.999
2346,1:?,N,,1
2347,1:?,N,,0.999
2348,1:?,N,,0.998
2349,1:?,N,,0.999
2350,1:?,N,,1
2351,1:?,N,,0.999
2352,1:?,N,,1
2353,1:?,N,,1
2354,1:?,N,,1
2355,1:?,N,,1
2356,1:?,N,,0.999
2357,1:?,N,,0.999
2358,1:?,N,,1
2359,1:?,N,,1
2360,1:?,N,,1
2361,1:?,N,,1
2362,1:?,N,,1
2363,1:?,N,,1
2364,1:?,N,,1
2365,1:?,N,,1
2366,1:?,N,,0.999
2367,1:?,N,,1
2368,1:?,N,,1
2369,1:?,N,,1
2370,1:?,N,,1
2371,1:?,N,,0.999
2372,1:?,N,,0.999
2373,1:?,N,,1
2374,1:?,N,,0.999
2375,1:?,N,,1
2376,1:?,N,,1
2377,1:?,N,,1
2378,1:?,N,,1
2379,1:?,N,,0.999
2380,1:?,N,,0.999
2381,1:?,N,,0.999
2382,1:?,N,,0.993
2383,1:?,N,,0.999
2384,1:?,N,,0.999
2385,1:?,N,,0.999
2386,1:?,N,,0.999
2387,1:?,N,,0.995
2388,1:?,N,,0.998
2389,1:?,N,,0.999
2390,1:?,N,,0.999
2391,1:?,N,,0.999
2392,1:?,N,,0.999
2393,1:?,N,,1
2394,1:?,N,,0.999
2395,1:?,N,,0.999
2396,1:?,N,,0.999
2397,1:?,N,,1
2398,1:?,N,,0.999
2399,1:?,N,,0.999
2400,1:?,N,,1
2401,1:?,N,,1
2402,1:?,N,,1
2403,1:?,N,,0.999
2404,1:?,N,,0.999
2405,1:?,N,,1
2406,1:?,N,,1
2407,1:?,N,,1
2408,1:?,N,,1
2409,1:?,N,,1
2410,1:?,N,,0.999
2411,1:?,N,,0.999
2412,1:?,N,,1
2413,1:?,N,,0.999
2414,1:?,N,,1
2415,1:?,N,,1
2416,1:?,N,,1
2417,1:?,N,,1
2418,1:?,N,,0.999
2419,1:?,N,,0.999
2420,1:?,N,,1
2421,1:?,N,,1
2422,1:?,N,,1
2423,1:?,N,,1
2424,1:?,N,,1
2425,1:?,N,,1
2426,1:?,N,,1
2427,1:?,N,,1
2428,1:?,N,,1
2429,1:?,N,,0.999
2430,1:?,N,,1
2431,1:?,N,,1
2432,1:?,N,,1
2433,1:?,N,,1
2434,1:?,N,,0.999
2435,1:?,N,,0.999
2436,1:?,N,,1
2437,1:?,N,,0.999
2438,1:?,N,,1
2439,1:?,N,,1
2440,1:?,N,,1
2441,1:?,N,,1
2442,1:?,N,,0.999
2443,1:?,N,,0.999
2444,1:?,N,,0.998
2445,1:?,Y,,0.708
2446,1:?,N,,0.993
2447,1:?,N,,0.998
2448,1:?,N,,0.999
2449,1:?,N,,0.998
2450,1:?,Y,,0.625
2451,1:?,N,,0.874
2452,1:?,N,,0.999
2453,1:?,N,,0.992
2454,1:?,N,,0.999
2455,1:?,N,,0.999
2456,1:?,N,,0.999
2457,1:?,N,,0.999
2458,1:?,N,,0.987
2459,1:?,N,,0.997
2460,1:?,N,,0.999
2461,1:?,N,,0.999
2462,1:?,N,,0.999
2463,1:?,N,,0.999
2464,1:?,N,,1
2465,1:?,N,,0.999
2466,1:?,N,,0.999
2467,1:?,N,,0.999
2468,1:?,N,,0.999
2469,1:?,N,,0.999
2470,1:?,N,,0.999
2471,1:?,N,,0.999
2472,1:?,N,,1
2473,1:?,N,,0.999
2474,1:?,N,,0.999
2475,1:?,N,,0.999
2476,1:?,N,,1
2477,1:?,N,,0.999
2478,1:?,N,,1
2479,1:?,N,,1
2480,1:?,N,,1
2481,1:?,N,,1
2482,1:?,N,,0.999
2483,1:?,N,,0.999
2484,1:?,N,,1
2485,1:?,N,,1
2486,1:?,N,,1
2487,1:?,N,,1
2488,1:?,N,,1
2489,1:?,N,,1
2490,1:?,N,,1
2491,1:?,N,,1
2492,1:?,N,,1
2493,1:?,N,,0.999
2494,1:?,N,,1
2495,1:?,N,,1
2496,1:?,N,,1
2497,1:?,N,,1
2498,1:?,N,,0.999
2499,1:?,N,,0.999
2500,1:?,N,,1
2501,1:?,N,,1
2502,1:?,N,,1
2503,1:?,N,,1
2504,1:?,N,,1
2505,1:?,N,,0.999
2506,1:?,N,,0.999
2507,1:?,N,,0.999
2508,1:?,N,,0.998
2509,1:?,N,,0.999
2510,1:?,N,,0.999
2511,1:?,N,,1
2512,1:?,N,,0.999
2513,1:?,N,,0.999
2514,1:?,N,,1
2515,1:?,N,,0.999
2516,1:?,N,,0.999
2517,1:?,N,,1
2518,1:?,N,,1
2519,1:?,N,,0.999
2520,1:?,N,,0.999
2521,1:?,N,,0.999
2522,1:?,N,,1
2523,1:?,N,,0.999
2524,1:?,N,,1
2525,1:?,N,,1
2526,1:?,N,,1
2527,1:?,N,,0.999
2528,1:?,N,,0.999
2529,1:?,N,,1
2530,1:?,N,,0.999
2531,1:?,N,,1
2532,1:?,N,,1
2533,1:?,N,,1
2534,1:?,N,,1
2535,1:?,N,,0.999
2536,1:?,N,,0.999
2537,1:?,N,,1
2538,1:?,N,,0.999
2539,1:?,N,,1
2540,1:?,N,,1
2541,1:?,N,,1
2542,1:?,N,,1
2543,1:?,N,,0.999
2544,1:?,N,,1
2545,1:?,N,,1
2546,1:?,N,,1
2547,1:?,N,,1
2548,1:?,N,,1
2549,1:?,N,,1
2550,1:?,N,,1
2551,1:?,N,,1
2552,1:?,N,,1
2553,1:?,N,,1
2554,1:?,N,,0.999
2555,1:?,N,,1
2556,1:?,N,,1
2557,1:?,N,,1
2558,1:?,N,,1
2559,1:?,N,,0.999
2560,1:?,N,,1
2561,1:?,N,,1
2562,1:?,N,,0.999
2563,1:?,N,,1
2564,1:?,N,,1
2565,1:?,N,,1
2566,1:?,N,,1
2567,1:?,N,,0.999
2568,1:?,N,,1
2569,1:?,N,,0.999
2570,1:?,N,,0.996
2571,1:?,N,,0.999
2572,1:?,N,,0.999
2573,1:?,N,,1
2574,1:?,N,,0.999
2575,1:?,N,,0.997
2576,1:?,N,,0.999
2577,1:?,N,,0.999
2578,1:?,N,,0.999
2579,1:?,N,,0.999
2580,1:?,N,,0.999
2581,1:?,N,,1
2582,1:?,N,,0.999
2583,1:?,N,,0.999
2584,1:?,N,,0.999
2585,1:?,N,,1
2586,1:?,N,,0.999
2587,1:?,N,,1
2588,1:?,N,,1
2589,1:?,N,,1
2590,1:?,N,,1
2591,1:?,N,,0.999
2592,1:?,N,,0.999
2593,1:?,N,,1
2594,1:?,N,,0.999
2595,1:?,N,,1
2596,1:?,N,,1
2597,1:?,N,,1
2598,1:?,N,,1
2599,1:?,N,,0.999
2600,1:?,N,,0.999
2601,1:?,N,,1
2602,1:?,N,,1
2603,1:?,N,,1
2604,1:?,N,,1
2605,1:?,N,,1
2606,1:?,N,,1
2607,1:?,N,,1
2608,1:?,N,,1
2609,1:?,N,,1
2610,1:?,N,,1
2611,1:?,N,,1
2612,1:?,N,,1
2613,1:?,N,,1
2614,1:?,N,,1
2615,1:?,N,,1
2616,1:?,N,,1
2617,1:?,N,,1
2618,1:?,N,,1
2619,1:?,N,,1
2620,1:?,N,,1
2621,1:?,N,,1
2622,1:?,N,,1
2623,1:?,N,,1
2624,1:?,N,,1
2625,1:?,N,,1
2626,1:?,N,,1
2627,1:?,N,,1
2628,1:?,N,,1
2629,1:?,N,,1
2630,1:?,N,,1
2631,1:?,N,,1
2632,1:?,N,,1
2633,1:?,N,,0.999
2634,1:?,N,,1
2635,1:?,N,,1
2636,1:?,N,,1
2637,1:?,N,,0.999
2638,1:?,N,,0.999
2639,1:?,N,,1
2640,1:?,N,,1
2641,1:?,N,,1
2642,1:?,N,,1
2643,1:?,N,,1
2644,1:?,N,,1
2645,1:?,N,,1
2646,1:?,N,,1
2647,1:?,N,,1
2648,1:?,N,,1
2649,1:?,N,,1
2650,1:?,N,,1
2651,1:?,N,,1
2652,1:?,N,,1
2653,1:?,N,,1
2654,1:?,N,,1
2655,1:?,N,,1
2656,1:?,N,,1
2657,1:?,N,,1
2658,1:?,N,,1
2659,1:?,N,,1
2660,1:?,N,,1
2661,1:?,N,,1
2662,1:?,N,,1
2663,1:?,N,,1
2664,1:?,N,,1
2665,1:?,N,,1
2666,1:?,N,,1
2667,1:?,N,,1
2668,1:?,N,,1
2669,1:?,N,,1
2670,1:?,N,,1
2671,1:?,N,,1
2672,1:?,N,,1
2673,1:?,N,,1
2674,1:?,N,,1
2675,1:?,N,,1
2676,1:?,N,,1
2677,1:?,N,,1
2678,1:?,N,,1
2679,1:?,N,,1
2680,1:?,N,,1
2681,1:?,N,,1
2682,1:?,N,,1
2683,1:?,N,,1
2684,1:?,N,,1
2685,1:?,N,,1
2686,1:?,N,,1
2687,1:?,N,,1
2688,1:?,N,,1
2689,1:?,N,,0.999
2690,1:?,N,,0.999
2691,1:?,N,,0.999
2692,1:?,N,,0.999
2693,1:?,N,,1
2694,1:?,N,,0.999
2695,1:?,N,,0.999
2696,1:?,N,,0.999
2697,1:?,N,,1
2698,1:?,N,,0.999
2699,1:?,N,,1
2700,1:?,N,,1
2701,1:?,N,,1
2702,1:?,N,,1
2703,1:?,N,,0.999
2704,1:?,N,,0.999
2705,1:?,N,,1
2706,1:?,N,,1
2707,1:?,N,,1
2708,1:?,N,,1
2709,1:?,N,,1
2710,1:?,N,,0.999
2711,1:?,N,,1
2712,1:?,N,,1
2713,1:?,N,,1
2714,1:?,N,,1
2715,1:?,N,,1
2716,1:?,N,,1
2717,1:?,N,,1
2718,1:?,N,,1
2719,1:?,N,,1
2720,1:?,N,,1
2721,1:?,N,,1
2722,1:?,N,,1
2723,1:?,N,,1
2724,1:?,N,,1
2725,1:?,N,,1
2726,1:?,N,,1
2727,1:?,N,,1
2728,1:?,N,,1
2729,1:?,N,,1
2730,1:?,N,,1
2731,1:?,N,,1
2732,1:?,N,,1
2733,1:?,N,,1
2734,1:?,N,,1
2735,1:?,N,,1
2736,1:?,N,,1
2737,1:?,N,,1
2738,1:?,N,,1
2739,1:?,N,,1
2740,1:?,N,,1
2741,1:?,N,,1
2742,1:?,N,,1
2743,1:?,N,,1
2744,1:?,N,,1
2745,1:?,N,,1
2746,1:?,N,,1
2747,1:?,N,,1
2748,1:?,N,,1
2749,1:?,N,,1
2750,1:?,N,,1
2751,1:?,N,,0.999
2752,1:?,N,,0.999
2753,1:?,N,,0.999
2754,1:?,N,,0.999
2755,1:?,N,,1
2756,1:?,N,,0.999
2757,1:?,N,,0.999
2758,1:?,N,,0.999
2759,1:?,N,,1
2760,1:?,N,,0.999
2761,1:?,N,,1
2762,1:?,N,,1
2763,1:?,N,,1
2764,1:?,N,,0.999
2765,1:?,N,,0.999
2766,1:?,N,,1
2767,1:?,N,,0.999
2768,1:?,N,,1
2769,1:?,N,,1
2770,1:?,N,,1
2771,1:?,N,,1
2772,1:?,N,,0.999
2773,1:?,N,,1
2774,1:?,N,,1
2775,1:?,N,,1
2776,1:?,N,,1
2777,1:?,N,,1
2778,1:?,N,,1
2779,1:?,N,,1
2780,1:?,N,,0.999
2781,1:?,N,,1
2782,1:?,N,,1
2783,1:?,N,,1
2784,1:?,N,,1
2785,1:?,N,,1
2786,1:?,N,,1
2787,1:?,N,,1
2788,1:?,N,,1
2789,1:?,N,,1
2790,1:?,N,,1
2791,1:?,N,,1
2792,1:?,N,,1
2793,1:?,N,,1
2794,1:?,N,,1
2795,1:?,N,,1
2796,1:?,N,,1
2797,1:?,N,,1
2798,1:?,N,,1
2799,1:?,N,,1
2800,1:?,N,,1
2801,1:?,N,,1
2802,1:?,N,,1
2803,1:?,N,,1
2804,1:?,N,,1
2805,1:?,N,,1
2806,1:?,N,,1
2807,1:?,N,,1
2808,1:?,N,,1
2809,1:?,N,,1
2810,1:?,N,,1
2811,1:?,N,,1
2812,1:?,N,,1
2813,1:?,N,,1
2814,1:?,N,,0.999
2815,1:?,N,,0.999
2816,1:?,N,,0.999
2817,1:?,N,,0.999
2818,1:?,N,,1
2819,1:?,N,,0.999
2820,1:?,N,,0.999
2821,1:?,N,,0.999
2822,1:?,N,,1
2823,1:?,N,,0.999
2824,1:?,N,,0.999
2825,1:?,N,,1
2826,1:?,N,,1
2827,1:?,N,,1
2828,1:?,N,,0.999
2829,1:?,N,,0.999
2830,1:?,N,,1
2831,1:?,N,,0.999
2832,1:?,N,,1
2833,1:?,N,,1
2834,1:?,N,,1
2835,1:?,N,,1
2836,1:?,N,,0.999
2837,1:?,N,,0.999
2838,1:?,N,,1
2839,1:?,N,,0.999
2840,1:?,N,,1
2841,1:?,N,,1
2842,1:?,N,,1
2843,1:?,N,,1
2844,1:?,N,,0.999
2845,1:?,N,,1
2846,1:?,N,,1
2847,1:?,N,,1
2848,1:?,N,,1
2849,1:?,N,,1
2850,1:?,N,,1
2851,1:?,N,,1
2852,1:?,N,,1
2853,1:?,N,,1
2854,1:?,N,,1
2855,1:?,N,,1
2856,1:?,N,,1
2857,1:?,N,,1
2858,1:?,N,,1
2859,1:?,N,,1
2860,1:?,N,,1
2861,1:?,N,,1
2862,1:?,N,,1
2863,1:?,N,,1
2864,1:?,N,,1
2865,1:?,N,,1
2866,1:?,N,,1
2867,1:?,N,,1
2868,1:?,N,,1
2869,1:?,N,,1
2870,1:?,N,,1
2871,1:?,N,,1
2872,1:?,N,,1
2873,1:?,N,,1
2874,1:?,N,,1
2875,1:?,N,,1
2876,1:?,N,,1
2877,1:?,N,,1
2878,1:?,N,,0.999
2879,1:?,N,,1
2880,1:?,N,,1
2881,1:?,N,,1
2882,1:?,N,,1
2883,1:?,N,,0.999
2884,1:?,N,,0.999
2885,1:?,N,,1
2886,1:?,N,,1
2887,1:?,N,,1
2888,1:?,N,,1
2889,1:?,N,,1
2890,1:?,N,,1
2891,1:?,N,,0.999
2892,1:?,N,,1
2893,1:?,N,,1
2894,1:?,N,,1
2895,1:?,N,,1
2896,1:?,N,,1
2897,1:?,N,,1
2898,1:?,N,,1
2899,1:?,N,,1
2900,1:?,N,,1
2901,1:?,N,,1
2902,1:?,N,,1
2903,1:?,N,,1
2904,1:?,N,,1
2905,1:?,N,,1
2906,1:?,N,,1
2907,1:?,N,,1
2908,1:?,N,,1
2909,1:?,N,,1
2910,1:?,N,,1
2911,1:?,N,,1
2912,1:?,N,,1
2913,1:?,N,,1
2914,1:?,N,,1
2915,1:?,N,,1
2916,1:?,N,,1
2917,1:?,N,,1
2918,1:?,N,,1
2919,1:?,N,,1
2920,1:?,N,,1
2921,1:?,N,,1
2922,1:?,N,,1
2923,1:?,N,,1
2924,1:?,N,,1
2925,1:?,N,,1
2926,1:?,N,,1
2927,1:?,N,,1
2928,1:?,N,,1
2929,1:?,N,,1
2930,1:?,N,,1
2931,1:?,N,,1
2932,1:?,N,,1
2933,1:?,N,,1
2934,1:?,N,,1
2935,1:?,N,,1
2936,1:?,N,,1
2937,1:?,N,,1
2938,1:?,N,,1
2939,1:?,N,,0.999
2940,1:?,N,,0.999
2941,1:?,N,,0.999
2942,1:?,N,,0.999
2943,1:?,N,,1
2944,1:?,N,,0.999
2945,1:?,N,,0.999
2946,1:?,N,,0.999
2947,1:?,N,,1
2948,1:?,N,,0.999
2949,1:?,N,,1
2950,1:?,N,,1
2951,1:?,N,,1
2952,1:?,N,,1
2953,1:?,N,,0.999
2954,1:?,N,,0.999
2955,1:?,N,,1
2956,1:?,N,,0.999
2957,1:?,N,,1
2958,1:?,N,,1
2959,1:?,N,,1
2960,1:?,N,,1
2961,1:?,N,,0.999
2962,1:?,N,,1
2963,1:?,N,,1
2964,1:?,N,,1
2965,1:?,N,,1
2966,1:?,N,,1
2967,1:?,N,,1
2968,1:?,N,,1
2969,1:?,N,,0.999
2970,1:?,N,,1
2971,1:?,N,,1
2972,1:?,N,,1
2973,1:?,N,,1
2974,1:?,N,,1
2975,1:?,N,,1
2976,1:?,N,,1
2977,1:?,N,,1
2978,1:?,N,,1
2979,1:?,N,,1
2980,1:?,N,,1
2981,1:?,N,,1
2982,1:?,N,,1
2983,1:?,N,,1
2984,1:?,N,,1
2985,1:?,N,,1
2986,1:?,N,,1
2987,1:?,N,,1
2988,1:?,N,,1
2989,1:?,N,,1
2990,1:?,N,,1
2991,1:?,N,,1
2992,1:?,N,,1
2993,1:?,N,,1
2994,1:?,N,,1
2995,1:?,N,,1
2996,1:?,N,,1
2997,1:?,N,,1
2998,1:?,N,,1
2999,1:?,N,,1
3000,1:?,N,,1
3001,1:?,N,,1
3002,1:?,N,,0.979
3003,1:?,Y,,0.868
3004,1:?,N,,0.784
3005,1:?,N,,0.999
3006,1:?,N,,0.971
3007,1:?,Y,,0.861
3008,1:?,Y,,0.765
3009,1:?,N,,0.999
3010,1:?,N,,0.735
3011,1:?,N,,0.998
3012,1:?,N,,0.999
3013,1:?,N,,0.999
3014,1:?,N,,0.999
3015,1:?,N,,0.616
3016,1:?,N,,0.962
3017,1:?,N,,0.999
3018,1:?,N,,0.992
3019,1:?,N,,0.999
3020,1:?,N,,0.999
3021,1:?,N,,1
3022,1:?,N,,0.999
3023,1:?,N,,0.995
3024,1:?,N,,0.998
3025,1:?,N,,0.999
3026,1:?,N,,0.997
3027,1:?,N,,0.999
3028,1:?,N,,0.999
3029,1:?,N,,1
3030,1:?,N,,0.999
3031,1:?,N,,0.996
3032,1:?,N,,0.999
3033,1:?,N,,0.999
3034,1:?,N,,0.998
3035,1:?,N,,0.999
3036,1:?,N,,0.999
3037,1:?,N,,1
3038,1:?,N,,0.999
3039,1:?,N,,0.998
3040,1:?,N,,0.999
3041,1:?,N,,1
3042,1:?,N,,0.999
3043,1:?,N,,0.999
3044,1:?,N,,1
3045,1:?,N,,1
3046,1:?,N,,0.999
3047,1:?,N,,0.999
3048,1:?,N,,0.999
3049,1:?,N,,0.999
3050,1:?,N,,0.995
3051,1:?,N,,0.999
3052,1:?,N,,0.999
3053,1:?,N,,1
3054,1:?,N,,0.999
3055,1:?,N,,0.996
3056,1:?,N,,0.999
3057,1:?,N,,0.999
3058,1:?,N,,0.998
3059,1:?,N,,0.999
3060,1:?,N,,0.999
3061,1:?,N,,1
3062,1:?,N,,0.999
3063,1:?,N,,0.997
3064,1:?,N,,0.999
3065,1:?,N,,0.832
3066,1:?,Y,,0.882
3067,1:?,Y,,0.646
3068,1:?,N,,0.858
3069,1:?,N,,0.999
3070,1:?,N,,0.772
3071,1:?,Y,,0.88
3072,1:?,Y,,0.853
3073,1:?,N,,0.998
3074,1:?,Y,,0.682
3075,1:?,N,,0.994
3076,1:?,N,,0.998
3077,1:?,N,,0.999
3078,1:?,N,,0.997
3079,1:?,Y,,0.742
3080,1:?,N,,0.719
3081,1:?,N,,0.999
3082,1:?,N,,0.946
3083,1:?,N,,0.999
3084,1:?,N,,0.999
3085,1:?,N,,0.999
3086,1:?,N,,0.999
3087,1:?,N,,0.97
3088,1:?,N,,0.996
3089,1:?,N,,0.999
3090,1:?,N,,0.988
3091,1:?,N,,0.999
3092,1:?,N,,0.999
3093,1:?,N,,0.999
3094,1:?,N,,0.999
3095,1:?,N,,0.981
3096,1:?,N,,0.997
3097,1:?,N,,0.999
3098,1:?,N,,0.999
3099,1:?,N,,0.999
3100,1:?,N,,1
3101,1:?,N,,0.999
3102,1:?,N,,0.999
3103,1:?,N,,0.999
3104,1:?,N,,1
3105,1:?,N,,0.999
3106,1:?,N,,1
3107,1:?,N,,1
3108,1:?,N,,1
3109,1:?,N,,1
3110,1:?,N,,0.999
3111,1:?,N,,0.999
3112,1:?,N,,0.999
3113,1:?,N,,0.999
3114,1:?,N,,0.999
3115,1:?,N,,0.999
3116,1:?,N,,1
3117,1:?,N,,0.999
3118,1:?,N,,0.999
3119,1:?,N,,0.999
3120,1:?,N,,1
3121,1:?,N,,0.999
3122,1:?,N,,0.999
3123,1:?,N,,1
3124,1:?,N,,1
3125,1:?,N,,0.999
3126,1:?,N,,0.999
3127,1:?,N,,0.999
3128,1:?,N,,0.999
3129,1:?,N,,0.987
3130,1:?,N,,0.999
3131,1:?,N,,0.999
3132,1:?,N,,0.999
3133,1:?,N,,0.999
3134,1:?,N,,0.992
3135,1:?,N,,0.998
3136,1:?,N,,0.999
3137,1:?,N,,0.999
3138,1:?,N,,0.999
3139,1:?,N,,0.999
3140,1:?,N,,1
3141,1:?,N,,0.999
3142,1:?,N,,0.999
3143,1:?,N,,0.999
3144,1:?,N,,1
3145,1:?,N,,0.999
3146,1:?,N,,0.999
3147,1:?,N,,1
3148,1:?,N,,1
3149,1:?,N,,0.999
3150,1:?,N,,0.999
3151,1:?,N,,1
3152,1:?,N,,0.999
3153,1:?,N,,1
3154,1:?,N,,1
3155,1:?,N,,1
3156,1:?,N,,1
3157,1:?,N,,0.999
3158,1:?,N,,0.999
3159,1:?,N,,1
3160,1:?,N,,0.999
3161,1:?,N,,1
3162,1:?,N,,1
3163,1:?,N,,1
3164,1:?,N,,1
3165,1:?,N,,0.999
3166,1:?,N,,0.999
3167,1:?,N,,1
3168,1:?,N,,1
3169,1:?,N,,1
3170,1:?,N,,1
3171,1:?,N,,1
3172,1:?,N,,1
3173,1:?,N,,1
3174,1:?,N,,1
3175,1:?,N,,1
3176,1:?,N,,0.999
3177,1:?,N,,1
3178,1:?,N,,1
3179,1:?,N,,1
3180,1:?,N,,1
3181,1:?,N,,0.999
3182,1:?,N,,0.999
3183,1:?,N,,1
3184,1:?,N,,0.999
3185,1:?,N,,1
3186,1:?,N,,1
3187,1:?,N,,1
3188,1:?,N,,1
3189,1:?,N,,0.999
3190,1:?,N,,0.999
3191,1:?,N,,0.997
3192,1:?,Y,,0.781
3193,1:?,N,,0.987
3194,1:?,N,,0.997
3195,1:?,N,,0.999
3196,1:?,N,,0.997
3197,1:?,Y,,0.733
3198,1:?,N,,0.738
3199,1:?,N,,0.999
3200,1:?,N,,0.984
3201,1:?,N,,0.999
3202,1:?,N,,0.999
3203,1:?,N,,0.999
3204,1:?,N,,0.999
3205,1:?,N,,0.973
3206,1:?,N,,0.996
3207,1:?,N,,0.999
3208,1:?,N,,0.998
3209,1:?,N,,0.999
3210,1:?,N,,0.999
3211,1:?,N,,1
3212,1:?,N,,0.999
3213,1:?,N,,0.999
3214,1:?,N,,0.999
3215,1:?,N,,0.999
3216,1:?,N,,0.999
3217,1:?,N,,0.999
3218,1:?,N,,0.999
3219,1:?,N,,1
3220,1:?,N,,0.999
3221,1:?,N,,0.999
3222,1:?,N,,0.999
3223,1:?,N,,1
3224,1:?,N,,0.999
3225,1:?,N,,1
3226,1:?,N,,1
3227,1:?,N,,1
3228,1:?,N,,1
3229,1:?,N,,0.999
3230,1:?,N,,0.999
3231,1:?,N,,1
3232,1:?,N,,1
3233,1:?,N,,1
3234,1:?,N,,1
3235,1:?,N,,1
3236,1:?,N,,1
3237,1:?,N,,1
3238,1:?,N,,1
3239,1:?,N,,1
3240,1:?,N,,0.999
3241,1:?,N,,1
3242,1:?,N,,1
3243,1:?,N,,1
3244,1:?,N,,0.999
3245,1:?,N,,0.999
3246,1:?,N,,1
3247,1:?,N,,0.999
3248,1:?,N,,1
3249,1:?,N,,1
3250,1:?,N,,1
3251,1:?,N,,1
3252,1:?,N,,0.999
3253,1:?,N,,0.999
3254,1:?,N,,0.999
3255,1:?,Y,,0.503
3256,1:?,N,,0.997
3257,1:?,N,,0.999
3258,1:?,N,,0.999
3259,1:?,N,,0.999
3260,1:?,N,,0.631
3261,1:?,N,,0.964
3262,1:?,N,,0.999
3263,1:?,N,,0.996
3264,1:?,N,,0.999
3265,1:?,N,,1
3266,1:?,N,,0.999
3267,1:?,N,,0.995
3268,1:?,N,,0.998
3269,1:?,N,,0.999
3270,1:?,N,,0.999
3271,1:?,N,,0.999
3272,1:?,N,,0.999
3273,1:?,N,,1
3274,1:?,N,,0.999
3275,1:?,N,,0.999
3276,1:?,N,,0.999
3277,1:?,N,,0.999
3278,1:?,N,,0.999
3279,1:?,N,,0.999
3280,1:?,N,,0.999
3281,1:?,N,,1
3282,1:?,N,,0.999
3283,1:?,N,,0.999
3284,1:?,N,,0.999
3285,1:?,N,,0.999
3286,1:?,N,,0.999
3287,1:?,N,,0.999
3288,1:?,N,,0.999
3289,1:?,N,,1
3290,1:?,N,,0.999
3291,1:?,N,,0.999
3292,1:?,N,,0.999
3293,1:?,N,,1
3294,1:?,N,,0.999
3295,1:?,N,,1
3296,1:?,N,,1
3297,1:?,N,,1
3298,1:?,N,,1
3299,1:?,N,,0.999
3300,1:?,N,,0.999
3301,1:?,N,,0.999
3302,1:?,N,,0.999
3303,1:?,N,,0.999
3304,1:?,N,,0.999
3305,1:?,N,,1
3306,1:?,N,,0.999
3307,1:?,N,,0.999
3308,1:?,N,,0.999
3309,1:?,N,,1
3310,1:?,N,,0.999
3311,1:?,N,,0.999
3312,1:?,N,,1
3313,1:?,N,,1
3314,1:?,N,,0.999
3315,1:?,N,,0.999
3316,1:?,N,,0.999
3317,1:?,N,,0.997
3318,1:?,Y,,0.783
3319,1:?,N,,0.986
3320,1:?,N,,0.997
3321,1:?,N,,0.999
3322,1:?,N,,0.997
3323,1:?,Y,,0.736
3324,1:?,N,,0.731
3325,1:?,N,,0.999
3326,1:?,N,,0.983
3327,1:?,N,,0.999
3328,1:?,N,,0.999
3329,1:?,N,,0.999
3330,1:?,N,,0.999
3331,1:?,N,,0.972
3332,1:?,N,,0.996
3333,1:?,N,,0.999
3334,1:?,N,,0.998
3335,1:?,N,,0.999
3336,1:?,N,,0.999
3337,1:?,N,,1
3338,1:?,N,,0.999
3339,1:?,N,,0.998
3340,1:?,N,,0.999
3341,1:?,N,,0.999
3342,1:?,N,,0.999
3343,1:?,N,,0.999
3344,1:?,N,,0.999
3345,1:?,N,,1
3346,1:?,N,,0.999
3347,1:?,N,,0.999
3348,1:?,N,,0.999
3349,1:?,N,,1
3350,1:?,N,,0.999
3351,1:?,N,,1
3352,1:?,N,,1
3353,1:?,N,,1
3354,1:?,N,,1
3355,1:?,N,,0.999
3356,1:?,N,,0.999
3357,1:?,N,,1
3358,1:?,N,,1
3359,1:?,N,,1
3360,1:?,N,,1
3361,1:?,N,,1
3362,1:?,N,,1
3363,1:?,N,,1
3364,1:?,N,,1
3365,1:?,N,,0.999
3366,1:?,N,,1
3367,1:?,N,,1
3368,1:?,N,,1
3369,1:?,N,,1
3370,1:?,N,,0.999
3371,1:?,N,,0.999
3372,1:?,N,,1
3373,1:?,N,,0.999
3374,1:?,N,,1
3375,1:?,N,,1
3376,1:?,N,,1
3377,1:?,N,,1
3378,1:?,N,,0.999
3379,1:?,N,,0.999
3380,1:?,N,,0.999
3381,1:?,N,,0.995
3382,1:?,N,,0.999
3383,1:?,N,,0.999
3384,1:?,N,,1
3385,1:?,N,,0.999
3386,1:?,N,,0.996
3387,1:?,N,,0.999
3388,1:?,N,,0.999
3389,1:?,N,,0.999
3390,1:?,N,,0.999
3391,1:?,N,,0.999
3392,1:?,N,,1
3393,1:?,N,,0.999
3394,1:?,N,,0.999
3395,1:?,N,,0.999
3396,1:?,N,,1
3397,1:?,N,,0.999
3398,1:?,N,,1
3399,1:?,N,,1
3400,1:?,N,,1
3401,1:?,N,,1
3402,1:?,N,,0.999
3403,1:?,N,,0.999
3404,1:?,N,,1
3405,1:?,N,,0.999
3406,1:?,N,,1
3407,1:?,N,,1
3408,1:?,N,,1
3409,1:?,N,,0.999
3410,1:?,N,,0.999
3411,1:?,N,,1
3412,1:?,N,,0.999
3413,1:?,N,,1
3414,1:?,N,,1
3415,1:?,N,,1
3416,1:?,N,,1
3417,1:?,N,,0.999
3418,1:?,N,,0.999
3419,1:?,N,,1
3420,1:?,N,,1
3421,1:?,N,,1
3422,1:?,N,,1
3423,1:?,N,,1
3424,1:?,N,,1
3425,1:?,N,,1
3426,1:?,N,,1
3427,1:?,N,,1
3428,1:?,N,,0.999
3429,1:?,N,,1
3430,1:?,N,,1
3431,1:?,N,,1
3432,1:?,N,,1
3433,1:?,N,,0.999
3434,1:?,N,,0.999
3435,1:?,N,,1
3436,1:?,N,,0.999
3437,1:?,N,,1
3438,1:?,N,,1
3439,1:?,N,,1
3440,1:?,N,,1
3441,1:?,N,,0.999
3442,1:?,N,,0.999
3443,1:?,N,,0.998
3444,1:?,Y,,0.645
3445,1:?,N,,0.995
3446,1:?,N,,0.998
3447,1:?,N,,0.999
3448,1:?,N,,0.998
3449,1:?,Y,,0.542
3450,1:?,N,,0.921
3451,1:?,N,,0.999
3452,1:?,N,,0.994
3453,1:?,N,,0.999
3454,1:?,N,,0.999
3455,1:?,N,,1
3456,1:?,N,,0.999
3457,1:?,N,,0.991
3458,1:?,N,,0.998
3459,1:?,N,,0.999
3460,1:?,N,,0.999
3461,1:?,N,,0.999
3462,1:?,N,,0.999
3463,1:?,N,,1
3464,1:?,N,,0.999
3465,1:?,N,,0.999
3466,1:?,N,,0.999
3467,1:?,N,,0.999
3468,1:?,N,,0.999
3469,1:?,N,,0.999
3470,1:?,N,,0.999
3471,1:?,N,,1
3472,1:?,N,,0.999
3473,1:?,N,,0.999
3474,1:?,N,,0.999
3475,1:?,N,,1
3476,1:?,N,,0.999
3477,1:?,N,,1
3478,1:?,N,,1
3479,1:?,N,,1
3480,1:?,N,,1
3481,1:?,N,,0.999
3482,1:?,N,,1
3483,1:?,N,,1
3484,1:?,N,,1
3485,1:?,N,,1
3486,1:?,N,,1
3487,1:?,N,,1
3488,1:?,N,,1
3489,1:?,N,,1
3490,1:?,N,,1
3491,1:?,N,,1
3492,1:?,N,,0.999
3493,1:?,N,,1
3494,1:?,N,,1
3495,1:?,N,,1
3496,1:?,N,,1
3497,1:?,N,,0.999
3498,1:?,N,,1
3499,1:?,N,,1
3500,1:?,N,,0.999
3501,1:?,N,,1
3502,1:?,N,,1
3503,1:?,N,,1
3504,1:?,N,,0.999
3505,1:?,N,,1
3506,1:?,Y,,0.89
3507,1:?,Y,,0.886
3508,1:?,Y,,0.521
3509,1:?,Y,,0.887
3510,1:?,Y,,0.894
3511,1:?,Y,,0.799
3512,1:?,Y,,0.89
3513,1:?,Y,,0.865
3514,1:?,Y,,0.788
3515,1:?,N,,0.992
3516,1:?,Y,,0.85
3517,1:?,Y,,0.891
3518,1:?,Y,,0.888
3519,1:?,N,,0.799
3520,1:?,Y,,0.883
3521,1:?,Y,,0.675
3522,1:?,N,,0.829
3523,1:?,N,,0.999
3524,1:?,N,,0.732
3525,1:?,Y,,0.88
3526,1:?,Y,,0.856
3527,1:?,N,,0.96
3528,1:?,Y,,0.873
3529,1:?,N,,0.641
3530,1:?,N,,0.967
3531,1:?,N,,0.999
3532,1:?,N,,0.824
3533,1:?,Y,,0.878
3534,1:?,Y,,0.845
3535,1:?,N,,0.975
3536,1:?,Y,,0.869
3537,1:?,N,,0.743
3538,1:?,N,,0.979
3539,1:?,N,,0.999
3540,1:?,N,,0.964
3541,1:?,Y,,0.863
3542,1:?,Y,,0.778
3543,1:?,N,,0.999
3544,1:?,N,,0.694
3545,1:?,N,,0.998
3546,1:?,N,,0.999
3547,1:?,N,,0.999
3548,1:?,N,,0.998
3549,1:?,N,,0.569
3550,1:?,N,,0.954
3551,1:?,N,,0.887
3552,1:?,Y,,0.879
3553,1:?,Y,,0.575
3554,1:?,N,,0.906
3555,1:?,N,,0.999
3556,1:?,N,,0.842
3557,1:?,Y,,0.876
3558,1:?,Y,,0.841
3559,1:?,N,,0.978
3560,1:?,Y,,0.866
3561,1:?,N,,0.772
3562,1:?,N,,0.981
3563,1:?,N,,0.999
3564,1:?,N,,0.903
3565,1:?,Y,,0.873
3566,1:?,Y,,0.825
3567,1:?,Y,,0.89
3568,1:?,Y,,0.894
3569,1:?,Y,,0.892
3570,1:?,Y,,0.89
3571,1:?,Y,,0.789
3572,1:?,Y,,0.89
3573,1:?,Y,,0.894
3574,1:?,Y,,0.893
3575,1:?,Y,,0.861
3576,1:?,Y,,0.892
3577,1:?,Y,,0.881
3578,1:?,Y,,0.858
3579,1:?,N,,0.946
3580,1:?,Y,,0.876
3581,1:?,Y,,0.892
3582,1:?,Y,,0.891
3583,1:?,Y,,0.633
3584,1:?,Y,,0.888
3585,1:?,Y,,0.829
3586,1:?,Y,,0.603
3587,1:?,N,,0.998
3588,1:?,Y,,0.681
3589,1:?,Y,,0.887
3590,1:?,Y,,0.878
3591,1:?,N,,0.705
3592,1:?,Y,,0.884
3593,1:?,Y,,0.73
3594,1:?,N,,0.743
3595,1:?,N,,0.998
3596,1:?,Y,,0.607
3597,1:?,Y,,0.886
3598,1:?,Y,,0.874
3599,1:?,N,,0.999
3600,1:?,N,,0.61
3601,1:?,N,,0.997
3602,1:?,N,,0.999
3603,1:?,N,,0.999
3604,1:?,N,,0.999
3605,1:?,N,,0.738
3606,1:?,N,,0.999
3607,1:?,N,,0.997
3608,1:?,N,,0.999
3609,1:?,N,,0.999
3610,1:?,N,,1
3611,1:?,N,,0.999
3612,1:?,N,,0.996
3613,1:?,N,,0.999
3614,1:?,N,,0.998
3615,1:?,Y,,0.672
3616,1:?,N,,0.994
3617,1:?,N,,0.998
3618,1:?,N,,0.999
3619,1:?,N,,0.998
3620,1:?,Y,,0.582
3621,1:?,N,,0.903
3622,1:?,N,,0.999
3623,1:?,N,,0.644
3624,1:?,N,,0.998
3625,1:?,N,,0.999
3626,1:?,N,,0.999
3627,1:?,N,,0.998
3628,1:?,N,,0.52
3629,1:?,N,,0.942
3630,1:?,N,,0.687
3631,1:?,Y,,0.885
3632,1:?,Y,,0.739
3633,1:?,N,,0.726
3634,1:?,N,,0.999
3635,1:?,N,,0.609
3636,1:?,Y,,0.883
3637,1:?,Y,,0.865
3638,1:?,N,,0.998
3639,1:?,Y,,0.759
3640,1:?,N,,0.99
3641,1:?,N,,0.998
3642,1:?,N,,0.999
3643,1:?,N,,0.995
3644,1:?,Y,,0.797
3645,1:?,N,,0.549
3646,1:?,N,,0.999
3647,1:?,N,,0.884
3648,1:?,N,,0.999
3649,1:?,N,,0.999
3650,1:?,N,,0.999
3651,1:?,N,,0.936
3652,1:?,N,,0.999
3653,1:?,N,,0.978
3654,1:?,N,,0.999
3655,1:?,N,,0.999
3656,1:?,N,,0.999
3657,1:?,N,,0.999
3658,1:?,N,,0.961
3659,1:?,N,,0.995
3660,1:?,N,,0.999
3661,1:?,N,,0.985
3662,1:?,N,,0.999
3663,1:?,N,,0.999
3664,1:?,N,,1
3665,1:?,N,,0.999
3666,1:?,N,,0.991
3667,1:?,N,,0.998
3668,1:?,N,,0.999
3669,1:?,N,,0.999
3670,1:?,N,,0.999
3671,1:?,N,,0.999
3672,1:?,N,,1
3673,1:?,N,,0.999
3674,1:?,N,,0.999
3675,1:?,N,,0.999
3676,1:?,N,,0.999
3677,1:?,N,,0.938
3678,1:?,N,,0.999
3679,1:?,N,,0.999
3680,1:?,N,,0.999
3681,1:?,N,,0.999
3682,1:?,N,,0.966
3683,1:?,N,,0.996
3684,1:?,N,,0.999
3685,1:?,N,,0.987
3686,1:?,N,,0.999
3687,1:?,N,,0.999
3688,1:?,N,,1
3689,1:?,N,,0.999
3690,1:?,N,,0.979
3691,1:?,N,,0.997
3692,1:?,Y,,0.873
3693,1:?,Y,,0.892
3694,1:?,Y,,0.885
3695,1:?,Y,,0.871
3696,1:?,N,,0.951
3697,1:?,Y,,0.875
3698,1:?,Y,,0.892
3699,1:?,Y,,0.89
3700,1:?,N,,0.62
3701,1:?,Y,,0.885
3702,1:?,Y,,0.763
3703,1:?,N,,0.662
3704,1:?,N,,0.998
3705,1:?,Y,,0.665
3706,1:?,Y,,0.887
3707,1:?,Y,,0.877
3708,1:?,N,,0.988
3709,1:?,Y,,0.858
3710,1:?,N,,0.877
3711,1:?,N,,0.99
3712,1:?,N,,0.999
3713,1:?,N,,0.984
3714,1:?,Y,,0.848
3715,1:?,Y,,0.703
3716,1:?,N,,0.996
3717,1:?,Y,,0.813
3718,1:?,N,,0.976
3719,1:?,N,,0.997
3720,1:?,N,,0.999
3721,1:?,N,,0.99
3722,1:?,Y,,0.835
3723,1:?,Y,,0.635
3724,1:?,N,,0.999
3725,1:?,N,,0.995
3726,1:?,N,,0.999
3727,1:?,N,,0.999
3728,1:?,N,,1
3729,1:?,N,,0.999
3730,1:?,N,,0.996
3731,1:?,N,,0.999
3732,1:?,N,,0.999
3733,1:?,N,,0.999
3734,1:?,N,,0.999
3735,1:?,N,,1
3736,1:?,N,,1
3737,1:?,N,,0.999
3738,1:?,N,,0.999
3739,1:?,N,,0.999
3740,1:?,N,,0.999
3741,1:?,N,,0.985
3742,1:?,N,,0.999
3743,1:?,N,,0.999
3744,1:?,N,,1
3745,1:?,N,,0.999
3746,1:?,N,,0.991
3747,1:?,N,,0.999
3748,1:?,N,,0.996
3749,1:?,N,,0.999
3750,1:?,N,,0.999
3751,1:?,N,,1
3752,1:?,N,,0.999
3753,1:?,N,,0.994
3754,1:?,N,,0.998
3755,1:?,Y,,0.884
3756,1:?,Y,,0.867
3757,1:?,N,,0.969
3758,1:?,Y,,0.872
3759,1:?,Y,,0.892
3760,1:?,Y,,0.89
3761,1:?,N,,0.728
3762,1:?,Y,,0.884
3763,1:?,Y,,0.721
3764,1:?,N,,0.764
3765,1:?,N,,0.998
3766,1:?,Y,,0.591
3767,1:?,Y,,0.886
3768,1:?,N,,0.992
3769,1:?,Y,,0.852
3770,1:?,N,,0.924
3771,1:?,N,,0.993
3772,1:?,N,,0.999
3773,1:?,N,,0.989
3774,1:?,Y,,0.837
3775,1:?,Y,,0.639
3776,1:?,N,,0.997
3777,1:?,Y,,0.793
3778,1:?,N,,0.985
3779,1:?,N,,0.997
3780,1:?,N,,0.999
3781,1:?,N,,0.993
3782,1:?,Y,,0.82
3783,1:?,Y,,0.551
3784,1:?,N,,0.997
3785,1:?,Y,,0.761
3786,1:?,N,,0.989
3787,1:?,N,,0.998
3788,1:?,N,,0.999
3789,1:?,N,,0.997
3790,1:?,Y,,0.704
3791,1:?,N,,0.791
3792,1:?,N,,0.999
3793,1:?,N,,0.987
3794,1:?,N,,0.999
3795,1:?,N,,0.999
3796,1:?,N,,0.999
3797,1:?,N,,0.999
3798,1:?,N,,0.979
3799,1:?,N,,0.997
3800,1:?,N,,0.995
3801,1:?,Y,,0.836
3802,1:?,N,,0.959
3803,1:?,N,,0.995
3804,1:?,N,,0.999
3805,1:?,N,,0.993
3806,1:?,Y,,0.815
3807,1:?,Y,,0.53
3808,1:?,N,,0.998
3809,1:?,Y,,0.747
3810,1:?,N,,0.991
3811,1:?,N,,0.998
3812,1:?,N,,0.999
3813,1:?,N,,0.995
3814,1:?,Y,,0.789
3815,1:?,N,,0.58
3816,1:?,Y,,0.883
3817,1:?,Y,,0.893
3818,1:?,Y,,0.889
3819,1:?,Y,,0.882
3820,1:?,N,,0.764
3821,1:?,Y,,0.884
3822,1:?,Y,,0.893
3823,1:?,Y,,0.892
3824,1:?,Y,,0.689
3825,1:?,Y,,0.889
3826,1:?,Y,,0.842
3827,1:?,Y,,0.664
3828,1:?,N,,0.996
3829,1:?,Y,,0.809
3830,1:?,Y,,0.89
3831,1:?,Y,,0.885
3832,1:?,N,,0.943
3833,1:?,Y,,0.877
3834,1:?,N,,0.565
3835,1:?,N,,0.953
3836,1:?,N,,0.999
3837,1:?,N,,0.919
3838,1:?,Y,,0.872
3839,1:?,Y,,0.822
3840,1:?,N,,0.988
3841,1:?,Y,,0.86
3842,1:?,N,,0.877
3843,1:?,N,,0.99
3844,1:?,N,,0.999
3845,1:?,N,,0.951
3846,1:?,Y,,0.867
3847,1:?,Y,,0.798
3848,1:?,N,,0.999
3849,1:?,N,,0.982
3850,1:?,N,,0.999
3851,1:?,N,,0.999
3852,1:?,N,,0.999
3853,1:?,N,,0.999
3854,1:?,N,,0.989
3855,1:?,N,,0.998
3856,1:?,N,,0.999
3857,1:?,N,,0.999
3858,1:?,N,,0.999
3859,1:?,N,,0.999
3860,1:?,N,,1
3861,1:?,N,,0.999
3862,1:?,N,,0.999
3863,1:?,N,,0.999
3864,1:?,N,,0.924
3865,1:?,N,,0.999
3866,1:?,N,,0.999
3867,1:?,N,,0.999
3868,1:?,N,,0.999
3869,1:?,N,,0.958
3870,1:?,N,,0.995
3871,1:?,N,,0.999
3872,1:?,N,,0.985
3873,1:?,N,,0.999
3874,1:?,N,,0.999
3875,1:?,N,,0.999
3876,1:?,N,,0.999
3877,1:?,N,,0.974
3878,1:?,N,,0.996
3879,1:?,N,,0.621
3880,1:?,Y,,0.886
3881,1:?,Y,,0.765
3882,1:?,N,,0.662
3883,1:?,N,,0.999
3884,1:?,N,,0.543
3885,1:?,Y,,0.884
3886,1:?,Y,,0.869
3887,1:?,N,,0.997
3888,1:?,Y,,0.782
3889,1:?,N,,0.987
3890,1:?,N,,0.997
3891,1:?,N,,0.999
3892,1:?,N,,0.993
3893,1:?,Y,,0.813
3894,1:?,Y,,0.515
3895,1:?,N,,0.999
3896,1:?,N,,0.845
3897,1:?,N,,0.998
3898,1:?,N,,0.999
3899,1:?,N,,0.999
3900,1:?,N,,0.999
3901,1:?,N,,0.913
3902,1:?,N,,0.992
3903,1:?,N,,0.999
3904,1:?,N,,0.97
3905,1:?,N,,0.999
3906,1:?,N,,0.999
3907,1:?,N,,0.999
3908,1:?,N,,0.999
3909,1:?,N,,0.947
3910,1:?,N,,0.999
3911,1:?,N,,0.981
3912,1:?,N,,0.999
3913,1:?,N,,0.999
3914,1:?,N,,0.999
3915,1:?,N,,0.999
3916,1:?,N,,0.988
3917,1:?,N,,0.998
3918,1:?,N,,0.999
3919,1:?,N,,0.999
3920,1:?,N,,0.999
3921,1:?,N,,0.999
3922,1:?,N,,1
3923,1:?,N,,0.999
3924,1:?,N,,0.999
3925,1:?,N,,0.999
3926,1:?,N,,0.999
3927,1:?,N,,0.915
3928,1:?,N,,0.999
3929,1:?,N,,0.999
3930,1:?,N,,0.999
3931,1:?,N,,0.999
3932,1:?,N,,0.953
3933,1:?,N,,0.995
3934,1:?,N,,0.999
3935,1:?,N,,0.983
3936,1:?,N,,0.999
3937,1:?,N,,0.999
3938,1:?,N,,0.999
3939,1:?,N,,0.999
3940,1:?,N,,0.971
3941,1:?,N,,0.996
3942,1:?,Y,,0.876
3943,1:?,Y,,0.893
3944,1:?,Y,,0.886
3945,1:?,Y,,0.874
3946,1:?,N,,0.933
3947,1:?,Y,,0.877
3948,1:?,Y,,0.893
3949,1:?,Y,,0.891
3950,1:?,N,,0.552
3951,1:?,Y,,0.886
3952,1:?,Y,,0.785
3953,1:?,N,,0.593
3954,1:?,N,,0.998
3955,1:?,Y,,0.705
3956,1:?,Y,,0.888
3957,1:?,Y,,0.879
3958,1:?,N,,0.984
3959,1:?,Y,,0.863
3960,1:?,N,,0.836
3961,1:?,N,,0.987
3962,1:?,N,,0.999
3963,1:?,N,,0.979
3964,1:?,Y,,0.855
3965,1:?,Y,,0.736
3966,1:?,N,,0.995
3967,1:?,Y,,0.827
3968,1:?,N,,0.968
3969,1:?,N,,0.996
3970,1:?,N,,0.999
3971,1:?,N,,0.986
3972,1:?,Y,,0.844
3973,1:?,Y,,0.68
3974,1:?,N,,0.999
3975,1:?,N,,0.994
3976,1:?,N,,0.999
3977,1:?,N,,0.999
3978,1:?,N,,1
3979,1:?,N,,0.999
3980,1:?,N,,0.996
3981,1:?,N,,0.999
3982,1:?,N,,0.999
3983,1:?,N,,0.999
3984,1:?,N,,0.999
3985,1:?,N,,0.999
3986,1:?,N,,1
3987,1:?,N,,0.999
3988,1:?,N,,0.999
3989,1:?,N,,0.999
3990,1:?,N,,0.999
3991,1:?,N,,0.98
3992,1:?,N,,0.999
3993,1:?,N,,0.999
3994,1:?,N,,1
3995,1:?,N,,0.999
3996,1:?,N,,0.988
3997,1:?,N,,0.998
3998,1:?,N,,0.999
3999,1:?,N,,0.995
4000,1:?,N,,0.999
4001,1:?,N,,0.999
4002,1:?,N,,1
4003,1:?,N,,0.999
4004,1:?,N,,0.992