﻿inst#,actual,predicted,error,prediction
1,1:?,N,,0.833
2,1:?,Y,,0.613
3,1:?,N,,0.545
4,1:?,N,,0.982
5,1:?,N,,0.874
6,1:?,N,,0.929
7,1:?,N,,0.881
8,1:?,N,,0.933
9,1:?,N,,0.639
10,1:?,N,,0.771
11,1:?,N,,0.988
12,1:?,N,,0.994
13,1:?,N,,0.951
14,1:?,N,,0.974
15,1:?,N,,0.926
16,1:?,N,,0.613
17,1:?,N,,0.751
18,1:?,N,,0.986
19,1:?,N,,0.993
20,1:?,N,,0.946
21,1:?,N,,0.971
22,1:?,N,,0.949
23,1:?,N,,0.972
24,1:?,N,,0.817
25,1:?,N,,0.894
26,1:?,N,,0.995
27,1:?,N,,0.997
28,1:?,N,,0.98
29,1:?,N,,0.989
30,1:?,N,,0.996
31,1:?,N,,0.968
32,1:?,N,,0.983
33,1:?,N,,0.999
34,1:?,N,,1
35,1:?,N,,0.997
36,1:?,N,,0.998
37,1:?,N,,0.997
38,1:?,N,,0.998
39,1:?,N,,0.988
40,1:?,N,,0.994
41,1:?,N,,1
42,1:?,N,,1
43,1:?,N,,0.999
44,1:?,N,,0.999
45,1:?,N,,0.997
46,1:?,N,,0.998
47,1:?,N,,0.987
48,1:?,N,,0.993
49,1:?,N,,1
50,1:?,N,,1
51,1:?,N,,0.999
52,1:?,N,,0.999
53,1:?,N,,0.999
54,1:?,N,,0.999
55,1:?,N,,0.995
56,1:?,N,,0.998
57,1:?,N,,1
58,1:?,N,,1
59,1:?,N,,1
60,1:?,N,,1
61,1:?,Y,,0.924
62,1:?,Y,,0.866
63,1:?,N,,0.79
64,1:?,N,,0.877
65,1:?,Y,,0.526
66,1:?,N,,0.631
67,1:?,Y,,0.51
68,1:?,N,,0.646
69,1:?,Y,,0.813
70,1:?,Y,,0.696
71,1:?,N,,0.914
72,1:?,N,,0.952
73,1:?,N,,0.717
74,1:?,N,,0.828
75,1:?,Y,,0.537
76,1:?,N,,0.62
77,1:?,Y,,0.829
78,1:?,Y,,0.719
79,1:?,N,,0.904
80,1:?,N,,0.947
81,1:?,N,,0.694
82,1:?,N,,0.811
83,1:?,N,,0.707
84,1:?,N,,0.821
85,1:?,Y,,0.633
86,1:?,N,,0.523
87,1:?,N,,0.964
88,1:?,N,,0.981
89,1:?,N,,0.864
90,1:?,N,,0.924
91,1:?,N,,0.968
92,1:?,N,,0.795
93,1:?,N,,0.88
94,1:?,N,,0.994
95,1:?,N,,0.997
96,1:?,N,,0.977
97,1:?,N,,0.988
98,1:?,N,,0.979
99,1:?,N,,0.989
100,1:?,N,,0.916
101,1:?,N,,0.954
102,1:?,N,,0.998
103,1:?,N,,0.999
104,1:?,N,,0.992
105,1:?,N,,0.996
106,1:?,N,,0.976
107,1:?,N,,0.987
108,1:?,N,,0.907
109,1:?,N,,0.949
110,1:?,N,,0.998
111,1:?,N,,0.999
112,1:?,N,,0.991
113,1:?,N,,0.995
114,1:?,N,,0.991
115,1:?,N,,0.995
116,1:?,N,,0.965
117,1:?,N,,0.981
118,1:?,N,,0.999
119,1:?,N,,1
120,1:?,N,,0.997
121,1:?,N,,0.998
122,1:?,N,,0.965
123,1:?,N,,0.779
124,1:?,N,,0.87
125,1:?,N,,0.994
126,1:?,N,,0.997
127,1:?,N,,0.975
128,1:?,N,,0.987
129,1:?,N,,0.976
130,1:?,N,,0.987
131,1:?,N,,0.908
132,1:?,N,,0.949
133,1:?,N,,0.998
134,1:?,N,,0.999
135,1:?,N,,0.991
136,1:?,N,,0.995
137,1:?,N,,0.986
138,1:?,N,,0.898
139,1:?,N,,0.944
140,1:?,N,,0.998
141,1:?,N,,0.999
142,1:?,N,,0.99
143,1:?,N,,0.995
144,1:?,N,,0.99
145,1:?,N,,0.995
146,1:?,N,,0.961
147,1:?,N,,0.979
148,1:?,N,,0.999
149,1:?,N,,1
150,1:?,N,,0.996
151,1:?,N,,0.998
152,1:?,N,,0.999
153,1:?,N,,0.999
154,1:?,N,,0.994
155,1:?,N,,0.997
156,1:?,N,,1
157,1:?,N,,1
158,1:?,N,,0.999
159,1:?,N,,1
160,1:?,N,,0.999
161,1:?,N,,1
162,1:?,N,,0.998
163,1:?,N,,0.999
164,1:?,N,,1
165,1:?,N,,1
166,1:?,N,,1
167,1:?,N,,1
168,1:?,N,,0.999
169,1:?,N,,1
170,1:?,N,,0.998
171,1:?,N,,0.999
172,1:?,N,,1
173,1:?,N,,1
174,1:?,N,,1
175,1:?,N,,1
176,1:?,N,,1
177,1:?,N,,1
178,1:?,N,,0.999
179,1:?,N,,1
180,1:?,N,,1
181,1:?,N,,1
182,1:?,N,,1
183,1:?,N,,1
184,1:?,N,,0.656
185,1:?,N,,0.783
186,1:?,Y,,0.686
187,1:?,Y,,0.536
188,1:?,N,,0.955
189,1:?,N,,0.975
190,1:?,N,,0.834
191,1:?,N,,0.905
192,1:?,N,,0.843
193,1:?,N,,0.91
194,1:?,N,,0.562
195,1:?,N,,0.709
196,1:?,N,,0.983
197,1:?,N,,0.991
198,1:?,N,,0.934
199,1:?,N,,0.964
200,1:?,N,,0.827
201,1:?,N,,0.901
202,1:?,N,,0.535
203,1:?,N,,0.685
204,1:?,N,,0.981
205,1:?,N,,0.99
206,1:?,N,,0.927
207,1:?,N,,0.96
208,1:?,N,,0.931
209,1:?,N,,0.962
210,1:?,N,,0.763
211,1:?,N,,0.86
212,1:?,N,,0.993
213,1:?,N,,0.996
214,1:?,N,,0.973
215,1:?,N,,0.985
216,1:?,N,,0.989
217,1:?,N,,0.994
218,1:?,N,,0.956
219,1:?,N,,0.976
220,1:?,N,,0.999
221,1:?,N,,0.999
222,1:?,N,,0.996
223,1:?,N,,0.998
224,1:?,N,,0.996
225,1:?,N,,0.998
226,1:?,N,,0.984
227,1:?,N,,0.991
228,1:?,N,,1
229,1:?,N,,1
230,1:?,N,,0.999
231,1:?,N,,0.999
232,1:?,N,,0.998
233,1:?,N,,0.982
234,1:?,N,,0.99
235,1:?,N,,1
236,1:?,N,,1
237,1:?,N,,0.998
238,1:?,N,,0.999
239,1:?,N,,0.998
240,1:?,N,,0.999
241,1:?,N,,0.994
242,1:?,N,,0.997
243,1:?,N,,1
244,1:?,N,,1
245,1:?,N,,0.999
246,1:?,N,,1
247,1:?,N,,0.853
248,1:?,N,,0.917
249,1:?,N,,0.582
250,1:?,N,,0.725
251,1:?,N,,0.985
252,1:?,N,,0.992
253,1:?,N,,0.939
254,1:?,N,,0.967
255,1:?,N,,0.969
256,1:?,N,,0.796
257,1:?,N,,0.881
258,1:?,N,,0.994
259,1:?,N,,0.997
260,1:?,N,,0.977
261,1:?,N,,0.988
262,1:?,N,,0.936
263,1:?,N,,0.965
264,1:?,N,,0.778
265,1:?,N,,0.869
266,1:?,N,,0.994
267,1:?,N,,0.997
268,1:?,N,,0.975
269,1:?,N,,0.986
270,1:?,N,,0.976
271,1:?,N,,0.987
272,1:?,N,,0.908
273,1:?,N,,0.949
274,1:?,N,,0.998
275,1:?,N,,0.999
276,1:?,N,,0.991
277,1:?,N,,0.995
278,1:?,N,,0.996
279,1:?,N,,0.998
280,1:?,N,,0.985
281,1:?,N,,0.992
282,1:?,N,,1
283,1:?,N,,1
284,1:?,N,,0.999
285,1:?,N,,0.999
286,1:?,N,,0.999
287,1:?,N,,0.999
288,1:?,N,,0.995
289,1:?,N,,0.997
290,1:?,N,,1
291,1:?,N,,1
292,1:?,N,,1
293,1:?,N,,1
294,1:?,N,,0.999
295,1:?,N,,0.999
296,1:?,N,,0.994
297,1:?,N,,0.997
298,1:?,N,,1
299,1:?,N,,1
300,1:?,N,,0.999
301,1:?,N,,1
302,1:?,N,,0.999
303,1:?,N,,1
304,1:?,N,,0.998
305,1:?,N,,0.999
306,1:?,N,,1
307,1:?,N,,1
308,1:?,N,,1
309,1:?,N,,1
310,1:?,Y,,0.57
311,1:?,N,,0.588
312,1:?,Y,,0.847
313,1:?,Y,,0.745
314,1:?,N,,0.892
315,1:?,N,,0.94
316,1:?,N,,0.665
317,1:?,N,,0.79
318,1:?,N,,0.679
319,1:?,N,,0.801
320,1:?,Y,,0.663
321,1:?,Y,,0.51
322,1:?,N,,0.959
323,1:?,N,,0.978
324,1:?,N,,0.848
325,1:?,N,,0.914
326,1:?,N,,0.655
327,1:?,N,,0.782
328,1:?,Y,,0.688
329,1:?,Y,,0.537
330,1:?,N,,0.954
331,1:?,N,,0.975
332,1:?,N,,0.833
333,1:?,N,,0.905
334,1:?,N,,0.842
335,1:?,N,,0.91
336,1:?,N,,0.561
337,1:?,N,,0.708
338,1:?,N,,0.983
339,1:?,N,,0.991
340,1:?,N,,0.934
341,1:?,N,,0.964
342,1:?,N,,0.973
343,1:?,N,,0.985
344,1:?,N,,0.895
345,1:?,N,,0.942
346,1:?,N,,0.997
347,1:?,N,,0.999
348,1:?,N,,0.989
349,1:?,N,,0.994
350,1:?,N,,0.995
351,1:?,N,,0.96
352,1:?,N,,0.979
353,1:?,N,,0.999
354,1:?,N,,1
355,1:?,N,,0.996
356,1:?,N,,0.998
357,1:?,N,,0.989
358,1:?,N,,0.994
359,1:?,N,,0.956
360,1:?,N,,0.976
361,1:?,N,,0.999
362,1:?,N,,0.999
363,1:?,N,,0.996
364,1:?,N,,0.998
365,1:?,N,,0.996
366,1:?,N,,0.998
367,1:?,N,,0.984
368,1:?,N,,0.991
369,1:?,N,,1
370,1:?,N,,1
371,1:?,N,,0.998
372,1:?,N,,0.999
373,1:?,N,,0.97
374,1:?,N,,0.984
375,1:?,N,,0.886
376,1:?,N,,0.936
377,1:?,N,,0.997
378,1:?,N,,0.999
379,1:?,N,,0.988
380,1:?,N,,0.994
381,1:?,N,,0.989
382,1:?,N,,0.994
383,1:?,N,,0.956
384,1:?,N,,0.976
385,1:?,N,,0.999
386,1:?,N,,0.999
387,1:?,N,,0.996
388,1:?,N,,0.998
389,1:?,N,,0.988
390,1:?,N,,0.994
391,1:?,N,,0.951
392,1:?,N,,0.974
393,1:?,N,,0.999
394,1:?,N,,0.999
395,1:?,N,,0.995
396,1:?,N,,0.998
397,1:?,N,,0.998
398,1:?,N,,0.982
399,1:?,N,,0.99
400,1:?,N,,1
401,1:?,N,,1
402,1:?,N,,0.998
403,1:?,N,,0.999
404,1:?,N,,0.999
405,1:?,N,,1
406,1:?,N,,0.997
407,1:?,N,,0.999
408,1:?,N,,1
409,1:?,N,,1
410,1:?,N,,1
411,1:?,N,,1
412,1:?,N,,1
413,1:?,N,,1
414,1:?,N,,0.999
415,1:?,N,,0.999
416,1:?,N,,1
417,1:?,N,,1
418,1:?,N,,1
419,1:?,N,,1
420,1:?,N,,1
421,1:?,N,,1
422,1:?,N,,0.999
423,1:?,N,,0.999
424,1:?,N,,1
425,1:?,N,,1
426,1:?,N,,1
427,1:?,N,,1
428,1:?,N,,1
429,1:?,N,,1
430,1:?,N,,1
431,1:?,N,,1
432,1:?,N,,1
433,1:?,N,,1
434,1:?,N,,1
435,1:?,N,,1
436,1:?,N,,0.808
437,1:?,N,,0.888
438,1:?,N,,0.502
439,1:?,N,,0.656
440,1:?,N,,0.979
441,1:?,N,,0.989
442,1:?,N,,0.917
443,1:?,N,,0.955
444,1:?,N,,0.922
445,1:?,N,,0.957
446,1:?,N,,0.739
447,1:?,N,,0.843
448,1:?,N,,0.992
449,1:?,N,,0.996
450,1:?,N,,0.969
451,1:?,N,,0.983
452,1:?,N,,0.914
453,1:?,N,,0.952
454,1:?,N,,0.717
455,1:?,N,,0.828
456,1:?,N,,0.991
457,1:?,N,,0.995
458,1:?,N,,0.965
459,1:?,N,,0.981
460,1:?,N,,0.967
461,1:?,N,,0.983
462,1:?,N,,0.877
463,1:?,N,,0.931
464,1:?,N,,0.997
465,1:?,N,,0.998
466,1:?,N,,0.987
467,1:?,N,,0.993
468,1:?,N,,0.995
469,1:?,N,,0.997
470,1:?,N,,0.979
471,1:?,N,,0.989
472,1:?,N,,1
473,1:?,N,,1
474,1:?,N,,0.998
475,1:?,N,,0.999
476,1:?,N,,0.998
477,1:?,N,,0.999
478,1:?,N,,0.993
479,1:?,N,,0.996
480,1:?,N,,1
481,1:?,N,,1
482,1:?,N,,0.999
483,1:?,N,,1
484,1:?,N,,0.998
485,1:?,N,,0.999
486,1:?,N,,0.992
487,1:?,N,,0.996
488,1:?,N,,1
489,1:?,N,,1
490,1:?,N,,0.999
491,1:?,N,,1
492,1:?,N,,1
493,1:?,N,,0.997
494,1:?,N,,0.998
495,1:?,N,,1
496,1:?,N,,1
497,1:?,N,,1
498,1:?,N,,1
499,1:?,Y,,0.837
500,1:?,Y,,0.73
501,1:?,Y,,0.955
502,1:?,Y,,0.919
503,1:?,N,,0.803
504,1:?,Y,,0.661
505,1:?,Y,,0.507
506,1:?,Y,,0.646
507,1:?,N,,0.509
508,1:?,Y,,0.884
509,1:?,Y,,0.801
510,1:?,N,,0.858
511,1:?,N,,0.919
512,1:?,N,,0.591
513,1:?,N,,0.732
514,1:?,Y,,0.671
515,1:?,Y,,0.518
516,1:?,Y,,0.895
517,1:?,Y,,0.818
518,1:?,N,,0.844
519,1:?,N,,0.911
520,1:?,N,,0.564
521,1:?,N,,0.71
522,1:?,N,,0.579
523,1:?,N,,0.723
524,1:?,Y,,0.752
525,1:?,Y,,0.615
526,1:?,N,,0.938
527,1:?,N,,0.966
528,1:?,N,,0.784
529,1:?,N,,0.873
530,1:?,N,,0.902
531,1:?,N,,0.946
532,1:?,N,,0.689
533,1:?,N,,0.807
534,1:?,N,,0.99
535,1:?,N,,0.995
536,1:?,N,,0.961
537,1:?,N,,0.979
538,1:?,N,,0.963
539,1:?,N,,0.98
540,1:?,N,,0.861
541,1:?,N,,0.922
542,1:?,N,,0.997
543,1:?,N,,0.998
544,1:?,N,,0.986
545,1:?,N,,0.992
546,1:?,N,,0.959
547,1:?,N,,0.978
548,1:?,N,,0.848
549,1:?,N,,0.913
550,1:?,N,,0.996
551,1:?,N,,0.998
552,1:?,N,,0.984
553,1:?,N,,0.991
554,1:?,N,,0.985
555,1:?,N,,0.992
556,1:?,N,,0.94
557,1:?,N,,0.967
558,1:?,N,,0.999
559,1:?,N,,0.999
560,1:?,N,,0.994
561,1:?,N,,0.997
562,1:?,Y,,0.975
563,1:?,Y,,0.954
564,1:?,Y,,0.994
565,1:?,Y,,0.989
566,1:?,Y,,0.782
567,1:?,Y,,0.654
568,1:?,Y,,0.937
569,1:?,Y,,0.888
570,1:?,Y,,0.934
571,1:?,Y,,0.881
572,1:?,Y,,0.983
573,1:?,Y,,0.969
574,1:?,Y,,0.561
575,1:?,N,,0.597
576,1:?,Y,,0.842
577,1:?,Y,,0.738
578,1:?,Y,,0.94
579,1:?,Y,,0.892
580,1:?,Y,,0.985
581,1:?,Y,,0.972
582,1:?,Y,,0.588
583,1:?,N,,0.57
584,1:?,Y,,0.856
585,1:?,Y,,0.759
586,1:?,Y,,0.848
587,1:?,Y,,0.747
588,1:?,Y,,0.959
589,1:?,Y,,0.925
590,1:?,N,,0.663
591,1:?,N,,0.789
592,1:?,Y,,0.68
593,1:?,Y,,0.528
594,1:?,N,,0.545
595,1:?,N,,0.695
596,1:?,Y,,0.777
597,1:?,Y,,0.647
598,1:?,N,,0.962
599,1:?,N,,0.76
600,1:?,N,,0.857
601,1:?,N,,0.771
602,1:?,N,,0.865
603,1:?,Y,,0.553
604,1:?,N,,0.605
605,1:?,N,,0.974
606,1:?,N,,0.986
607,1:?,N,,0.899
608,1:?,N,,0.944
609,1:?,N,,0.751
610,1:?,N,,0.851
611,1:?,Y,,0.58
612,1:?,N,,0.578
613,1:?,N,,0.971
614,1:?,N,,0.984
615,1:?,N,,0.888
616,1:?,N,,0.938
617,1:?,N,,0.894
618,1:?,N,,0.941
619,1:?,N,,0.67
620,1:?,N,,0.794
621,1:?,N,,0.989
622,1:?,N,,0.994
623,1:?,N,,0.957
624,1:?,N,,0.977
625,1:?,N,,0.521
626,1:?,N,,0.673
627,1:?,Y,,0.794
628,1:?,Y,,0.67
629,1:?,N,,0.923
630,1:?,N,,0.958
631,1:?,N,,0.741
632,1:?,N,,0.844
633,1:?,N,,0.753
634,1:?,N,,0.853
635,1:?,Y,,0.578
636,1:?,N,,0.581
637,1:?,N,,0.971
638,1:?,N,,0.985
639,1:?,N,,0.889
640,1:?,N,,0.938
641,1:?,N,,0.732
642,1:?,N,,0.838
643,1:?,Y,,0.604
644,1:?,N,,0.554
645,1:?,N,,0.878
646,1:?,N,,0.932
647,1:?,N,,0.885
648,1:?,N,,0.936
649,1:?,N,,0.648
650,1:?,N,,0.777
651,1:?,N,,0.988
652,1:?,N,,0.994
653,1:?,N,,0.953
654,1:?,N,,0.975
655,1:?,N,,0.981
656,1:?,N,,0.99
657,1:?,N,,0.925
658,1:?,N,,0.959
659,1:?,N,,0.998
660,1:?,N,,0.999
661,1:?,N,,0.993
662,1:?,N,,0.996
663,1:?,N,,0.993
664,1:?,N,,0.996
665,1:?,N,,0.972
666,1:?,N,,0.985
667,1:?,N,,0.999
668,1:?,N,,1
669,1:?,N,,0.997
670,1:?,N,,0.999
671,1:?,N,,0.992
672,1:?,N,,0.996
673,1:?,N,,0.969
674,1:?,N,,0.983
675,1:?,N,,0.999
676,1:?,N,,1
677,1:?,N,,0.997
678,1:?,N,,0.998
679,1:?,N,,0.997
680,1:?,N,,0.999
681,1:?,N,,0.989
682,1:?,N,,0.994
683,1:?,N,,1
684,1:?,N,,1
685,1:?,N,,0.999
686,1:?,N,,0.999
687,1:?,Y,,0.876
688,1:?,Y,,0.789
689,1:?,Y,,0.967
690,1:?,Y,,0.94
691,1:?,N,,0.608
692,1:?,N,,0.746
693,1:?,Y,,0.729
694,1:?,Y,,0.587
695,1:?,Y,,0.716
696,1:?,Y,,0.571
697,1:?,Y,,0.913
698,1:?,Y,,0.847
699,1:?,N,,0.813
700,1:?,N,,0.892
701,1:?,N,,0.511
702,1:?,N,,0.664
703,1:?,Y,,0.738
704,1:?,Y,,0.598
705,1:?,Y,,0.922
706,1:?,Y,,0.861
707,1:?,N,,0.796
708,1:?,N,,0.881
709,1:?,Y,,0.517
710,1:?,N,,0.639
711,1:?,Y,,0.501
712,1:?,N,,0.654
713,1:?,Y,,0.807
714,1:?,Y,,0.688
715,1:?,N,,0.916
716,1:?,N,,0.954
717,1:?,N,,0.724
718,1:?,N,,0.833
719,1:?,N,,0.87
720,1:?,N,,0.927
721,1:?,N,,0.616
722,1:?,N,,0.752
723,1:?,N,,0.987
724,1:?,N,,0.993
725,1:?,N,,0.946
726,1:?,N,,0.971
727,1:?,N,,0.949
728,1:?,N,,0.973
729,1:?,N,,0.818
730,1:?,N,,0.895
731,1:?,N,,0.995
732,1:?,N,,0.997
733,1:?,N,,0.98
734,1:?,N,,0.989
735,1:?,N,,0.944
736,1:?,N,,0.97
737,1:?,N,,0.801
738,1:?,N,,0.884
739,1:?,N,,0.997
740,1:?,N,,0.978
741,1:?,N,,0.988
742,1:?,N,,0.979
743,1:?,N,,0.989
744,1:?,N,,0.919
745,1:?,N,,0.955
746,1:?,N,,0.998
747,1:?,N,,0.999
748,1:?,N,,0.992
749,1:?,N,,0.996
750,1:?,Y,,0.7
751,1:?,Y,,0.907
752,1:?,Y,,0.837
753,1:?,N,,0.825
754,1:?,N,,0.9
755,1:?,N,,0.531
756,1:?,N,,0.682
757,1:?,N,,0.547
758,1:?,N,,0.696
759,1:?,Y,,0.776
760,1:?,Y,,0.646
761,1:?,N,,0.962
762,1:?,N,,0.761
763,1:?,N,,0.858
764,1:?,N,,0.519
765,1:?,N,,0.672
766,1:?,Y,,0.794
767,1:?,Y,,0.671
768,1:?,N,,0.922
769,1:?,N,,0.957
770,1:?,N,,0.74
771,1:?,N,,0.844
772,1:?,N,,0.752
773,1:?,N,,0.852
774,1:?,Y,,0.579
775,1:?,N,,0.579
776,1:?,N,,0.971
777,1:?,N,,0.984
778,1:?,N,,0.889
779,1:?,N,,0.938
780,1:?,N,,0.953
781,1:?,N,,0.975
782,1:?,N,,0.83
783,1:?,N,,0.902
784,1:?,N,,0.996
785,1:?,N,,0.998
786,1:?,N,,0.982
787,1:?,N,,0.99
788,1:?,N,,0.983
789,1:?,N,,0.991
790,1:?,N,,0.932
791,1:?,N,,0.963
792,1:?,N,,0.998
793,1:?,N,,0.999
794,1:?,N,,0.993
795,1:?,N,,0.997
796,1:?,N,,0.981
797,1:?,N,,0.99
798,1:?,N,,0.925
799,1:?,N,,0.959
800,1:?,N,,0.998
801,1:?,N,,0.999
802,1:?,N,,0.993
803,1:?,N,,0.996
804,1:?,N,,0.993
805,1:?,N,,0.996
806,1:?,N,,0.972
807,1:?,N,,0.985
808,1:?,N,,0.999
809,1:?,N,,1
810,1:?,N,,0.997
811,1:?,N,,0.999
812,1:?,Y,,0.947
813,1:?,Y,,0.904
814,1:?,Y,,0.987
815,1:?,Y,,0.975
816,1:?,Y,,0.62
817,1:?,N,,0.538
818,1:?,Y,,0.872
819,1:?,Y,,0.782
820,1:?,Y,,0.864
821,1:?,Y,,0.771
822,1:?,Y,,0.964
823,1:?,Y,,0.934
824,1:?,N,,0.633
825,1:?,N,,0.766
826,1:?,Y,,0.708
827,1:?,Y,,0.561
828,1:?,Y,,0.877
829,1:?,Y,,0.79
830,1:?,Y,,0.967
831,1:?,Y,,0.94
832,1:?,N,,0.607
833,1:?,N,,0.745
834,1:?,Y,,0.73
835,1:?,Y,,0.588
836,1:?,Y,,0.717
837,1:?,Y,,0.572
838,1:?,Y,,0.914
839,1:?,Y,,0.848
840,1:?,N,,0.813
841,1:?,N,,0.892
842,1:?,N,,0.51
843,1:?,N,,0.663
844,1:?,N,,0.726
845,1:?,N,,0.834
846,1:?,Y,,0.612
847,1:?,N,,0.546
848,1:?,N,,0.967
849,1:?,N,,0.982
850,1:?,N,,0.874
851,1:?,N,,0.93
852,1:?,N,,0.881
853,1:?,N,,0.934
854,1:?,N,,0.64
855,1:?,N,,0.771
856,1:?,N,,0.994
857,1:?,N,,0.951
858,1:?,N,,0.974
859,1:?,N,,0.869
860,1:?,N,,0.926
861,1:?,N,,0.614
862,1:?,N,,0.751
863,1:?,N,,0.987
864,1:?,N,,0.993
865,1:?,N,,0.946
866,1:?,N,,0.971
867,1:?,N,,0.949
868,1:?,N,,0.973
869,1:?,N,,0.817
870,1:?,N,,0.895
871,1:?,N,,0.995
872,1:?,N,,0.997
873,1:?,N,,0.98
874,1:?,N,,0.989
875,1:?,N,,0.705
876,1:?,Y,,0.636
877,1:?,N,,0.521
878,1:?,N,,0.963
879,1:?,N,,0.98
880,1:?,N,,0.863
881,1:?,N,,0.923
882,1:?,N,,0.871
883,1:?,N,,0.927
884,1:?,N,,0.617
885,1:?,N,,0.753
886,1:?,N,,0.987
887,1:?,N,,0.993
888,1:?,N,,0.947
889,1:?,N,,0.971
890,1:?,N,,0.858
891,1:?,N,,0.919
892,1:?,N,,0.591
893,1:?,N,,0.732
894,1:?,N,,0.985
895,1:?,N,,0.992
896,1:?,N,,0.941
897,1:?,N,,0.968
898,1:?,N,,0.944
899,1:?,N,,0.97
900,1:?,N,,0.802
901,1:?,N,,0.885
902,1:?,N,,0.997
903,1:?,N,,0.978
904,1:?,N,,0.988
905,1:?,N,,0.991
906,1:?,N,,0.995
907,1:?,N,,0.964
908,1:?,N,,0.981
909,1:?,N,,0.999
910,1:?,N,,1
911,1:?,N,,0.997
912,1:?,N,,0.998
913,1:?,N,,0.997
914,1:?,N,,0.998
915,1:?,N,,0.987
916,1:?,N,,0.993
917,1:?,N,,1
918,1:?,N,,1
919,1:?,N,,0.999
920,1:?,N,,0.999
921,1:?,N,,0.997
922,1:?,N,,0.998
923,1:?,N,,0.986
924,1:?,N,,0.992
925,1:?,N,,1
926,1:?,N,,1
927,1:?,N,,0.999
928,1:?,N,,0.999
929,1:?,N,,0.999
930,1:?,N,,0.999
931,1:?,N,,0.995
932,1:?,N,,0.997
933,1:?,N,,1
934,1:?,N,,1
935,1:?,N,,1
936,1:?,N,,1
937,1:?,Y,,0.763
938,1:?,Y,,0.629
939,1:?,Y,,0.931
940,1:?,Y,,0.876
941,1:?,N,,0.774
942,1:?,N,,0.866
943,1:?,Y,,0.55
944,1:?,N,,0.608
945,1:?,Y,,0.534
946,1:?,N,,0.623
947,1:?,Y,,0.827
948,1:?,Y,,0.716
949,1:?,N,,0.906
950,1:?,N,,0.948
951,1:?,N,,0.697
952,1:?,N,,0.814
953,1:?,Y,,0.561
954,1:?,N,,0.597
955,1:?,Y,,0.842
956,1:?,Y,,0.738
957,1:?,N,,0.896
958,1:?,N,,0.942
959,1:?,N,,0.673
960,1:?,N,,0.796
961,1:?,N,,0.687
962,1:?,N,,0.806
963,1:?,Y,,0.655
964,1:?,Y,,0.501
965,1:?,N,,0.96
966,1:?,N,,0.979
967,1:?,N,,0.853
968,1:?,N,,0.916
969,1:?,N,,0.936
970,1:?,N,,0.965
971,1:?,N,,0.779
972,1:?,N,,0.87
973,1:?,N,,0.994
974,1:?,N,,0.997
975,1:?,N,,0.975
976,1:?,N,,0.987
977,1:?,N,,0.976
978,1:?,N,,0.987
979,1:?,N,,0.908
980,1:?,N,,0.949
981,1:?,N,,0.998
982,1:?,N,,0.999
983,1:?,N,,0.991
984,1:?,N,,0.995
985,1:?,N,,0.974
986,1:?,N,,0.986
987,1:?,N,,0.899
988,1:?,N,,0.944
989,1:?,N,,0.998
990,1:?,N,,0.999
991,1:?,N,,0.99
992,1:?,N,,0.995
993,1:?,N,,0.99
994,1:?,N,,0.995
995,1:?,N,,0.961
996,1:?,N,,0.979
997,1:?,N,,1
998,1:?,N,,0.996
999,1:?,N,,0.998
1000,1:?,N,,0.904
1001,1:?,N,,0.947
1002,1:?,N,,0.811
1003,1:?,N,,0.99
1004,1:?,N,,0.995
1005,1:?,N,,0.961
1006,1:?,N,,0.979
1007,1:?,N,,0.964
1008,1:?,N,,0.981
1009,1:?,N,,0.864
1010,1:?,N,,0.923
1011,1:?,N,,0.997
1012,1:?,N,,0.998
1013,1:?,N,,0.986
1014,1:?,N,,0.993
1015,1:?,N,,0.96
1016,1:?,N,,0.978
1017,1:?,N,,0.851
1018,1:?,N,,0.915
1019,1:?,N,,0.996
1020,1:?,N,,0.998
1021,1:?,N,,0.984
1022,1:?,N,,0.992
1023,1:?,N,,0.985
1024,1:?,N,,0.992
1025,1:?,N,,0.941
1026,1:?,N,,0.968
1027,1:?,N,,0.999
1028,1:?,N,,0.999
1029,1:?,N,,0.994
1030,1:?,N,,0.997
1031,1:?,N,,0.998
1032,1:?,N,,0.999
1033,1:?,N,,0.991
1034,1:?,N,,0.995
1035,1:?,N,,1
1036,1:?,N,,1
1037,1:?,N,,0.999
1038,1:?,N,,1
1039,1:?,N,,0.999
1040,1:?,N,,1
1041,1:?,N,,0.997
1042,1:?,N,,0.998
1043,1:?,N,,1
1044,1:?,N,,1
1045,1:?,N,,1
1046,1:?,N,,1
1047,1:?,N,,0.999
1048,1:?,N,,1
1049,1:?,N,,0.996
1050,1:?,N,,0.998
1051,1:?,N,,1
1052,1:?,N,,1
1053,1:?,N,,1
1054,1:?,N,,1
1055,1:?,N,,1
1056,1:?,N,,1
1057,1:?,N,,0.999
1058,1:?,N,,0.999
1059,1:?,N,,1
1060,1:?,N,,1
1061,1:?,N,,1
1062,1:?,N,,1
1063,1:?,N,,0.551
1064,1:?,Y,,0.773
1065,1:?,Y,,0.642
1066,1:?,N,,0.931
1067,1:?,N,,0.962
1068,1:?,N,,0.764
1069,1:?,N,,0.86
1070,1:?,N,,0.775
1071,1:?,N,,0.867
1072,1:?,Y,,0.548
1073,1:?,N,,0.61
1074,1:?,N,,0.974
1075,1:?,N,,0.986
1076,1:?,N,,0.901
1077,1:?,N,,0.945
1078,1:?,N,,0.755
1079,1:?,N,,0.854
1080,1:?,Y,,0.575
1081,1:?,N,,0.584
1082,1:?,N,,0.971
1083,1:?,N,,0.985
1084,1:?,N,,0.891
1085,1:?,N,,0.939
1086,1:?,N,,0.897
1087,1:?,N,,0.943
1088,1:?,N,,0.675
1089,1:?,N,,0.797
1090,1:?,N,,0.99
1091,1:?,N,,0.994
1092,1:?,N,,0.958
1093,1:?,N,,0.977
1094,1:?,N,,0.983
1095,1:?,N,,0.991
1096,1:?,N,,0.964
1097,1:?,N,,0.998
1098,1:?,N,,0.999
1099,1:?,N,,0.994
1100,1:?,N,,0.997
1101,1:?,N,,0.994
1102,1:?,N,,0.997
1103,1:?,N,,0.975
1104,1:?,N,,0.987
1105,1:?,N,,0.999
1106,1:?,N,,1
1107,1:?,N,,0.998
1108,1:?,N,,0.999
1109,1:?,N,,0.993
1110,1:?,N,,0.996
1111,1:?,N,,0.972
1112,1:?,N,,0.985
1113,1:?,N,,0.999
1114,1:?,N,,1
1115,1:?,N,,0.997
1116,1:?,N,,0.999
1117,1:?,N,,0.998
1118,1:?,N,,0.999
1119,1:?,N,,0.99
1120,1:?,N,,0.995
1121,1:?,N,,1
1122,1:?,N,,1
1123,1:?,N,,0.999
1124,1:?,N,,1
1125,1:?,N,,0.981
1126,1:?,N,,0.99
1127,1:?,N,,0.927
1128,1:?,N,,0.96
1129,1:?,N,,0.998
1130,1:?,N,,0.999
1131,1:?,N,,0.993
1132,1:?,N,,0.996
1133,1:?,N,,0.993
1134,1:?,N,,0.996
1135,1:?,N,,0.973
1136,1:?,N,,0.985
1137,1:?,N,,0.999
1138,1:?,N,,1
1139,1:?,N,,0.997
1140,1:?,N,,0.999
1141,1:?,N,,0.993
1142,1:?,N,,0.996
1143,1:?,N,,0.984
1144,1:?,N,,0.999
1145,1:?,N,,1
1146,1:?,N,,0.997
1147,1:?,N,,0.998
1148,1:?,N,,0.997
1149,1:?,N,,0.999
1150,1:?,N,,0.989
1151,1:?,N,,0.994
1152,1:?,N,,1
1153,1:?,N,,1
1154,1:?,N,,0.999
1155,1:?,N,,0.999
1156,1:?,N,,1
1157,1:?,N,,1
1158,1:?,N,,0.998
1159,1:?,N,,0.999
1160,1:?,N,,1
1161,1:?,N,,1
1162,1:?,N,,1
1163,1:?,N,,1
1164,1:?,N,,1
1165,1:?,N,,1
1166,1:?,N,,0.999
1167,1:?,N,,1
1168,1:?,N,,1
1169,1:?,N,,1
1170,1:?,N,,1
1171,1:?,N,,1
1172,1:?,N,,1
1173,1:?,N,,1
1174,1:?,N,,0.999
1175,1:?,N,,1
1176,1:?,N,,1
1177,1:?,N,,1
1178,1:?,N,,1
1179,1:?,N,,1
1180,1:?,N,,1
1181,1:?,N,,1
1182,1:?,N,,1
1183,1:?,N,,1
1184,1:?,N,,1
1185,1:?,N,,1
1186,1:?,N,,1
1187,1:?,N,,1
1188,1:?,N,,0.872
1189,1:?,N,,0.928
1190,1:?,N,,0.621
1191,1:?,N,,0.756
1192,1:?,N,,0.987
1193,1:?,N,,0.993
1194,1:?,N,,0.947
1195,1:?,N,,0.972
1196,1:?,N,,0.951
1197,1:?,N,,0.973
1198,1:?,N,,0.822
1199,1:?,N,,0.897
1200,1:?,N,,0.995
1201,1:?,N,,0.998
1202,1:?,N,,0.981
1203,1:?,N,,0.99
1204,1:?,N,,0.945
1205,1:?,N,,0.97
1206,1:?,N,,0.805
1207,1:?,N,,0.887
1208,1:?,N,,0.995
1209,1:?,N,,0.997
1210,1:?,N,,0.978
1211,1:?,N,,0.988
1212,1:?,N,,0.98
1213,1:?,N,,0.989
1214,1:?,N,,0.92
1215,1:?,N,,0.956
1216,1:?,N,,0.998
1217,1:?,N,,0.999
1218,1:?,N,,0.992
1219,1:?,N,,0.996
1220,1:?,N,,0.997
1221,1:?,N,,0.998
1222,1:?,N,,0.987
1223,1:?,N,,0.993
1224,1:?,N,,1
1225,1:?,N,,1
1226,1:?,N,,0.999
1227,1:?,N,,0.999
1228,1:?,N,,0.999
1229,1:?,N,,0.999
1230,1:?,N,,0.995
1231,1:?,N,,0.998
1232,1:?,N,,1
1233,1:?,N,,1
1234,1:?,N,,1
1235,1:?,N,,1
1236,1:?,N,,0.999
1237,1:?,N,,0.999
1238,1:?,N,,0.997
1239,1:?,N,,1
1240,1:?,N,,1
1241,1:?,N,,1
1242,1:?,N,,1
1243,1:?,N,,1
1244,1:?,N,,1
1245,1:?,N,,0.998
1246,1:?,N,,0.999
1247,1:?,N,,1
1248,1:?,N,,1
1249,1:?,N,,1
1250,1:?,N,,1
1251,1:?,N,,0.954
1252,1:?,N,,0.975
1253,1:?,N,,0.833
1254,1:?,N,,0.904
1255,1:?,N,,0.996
1256,1:?,N,,0.998
1257,1:?,N,,0.982
1258,1:?,N,,0.99
1259,1:?,N,,0.983
1260,1:?,N,,0.991
1261,1:?,N,,0.964
1262,1:?,N,,0.998
1263,1:?,N,,0.999
1264,1:?,N,,0.994
1265,1:?,N,,0.997
1266,1:?,N,,0.981
1267,1:?,N,,0.99
1268,1:?,N,,0.926
1269,1:?,N,,0.96
1270,1:?,N,,0.998
1271,1:?,N,,0.999
1272,1:?,N,,0.993
1273,1:?,N,,0.996
1274,1:?,N,,0.993
1275,1:?,N,,0.996
1276,1:?,N,,0.972
1277,1:?,N,,0.985
1278,1:?,N,,0.999
1279,1:?,N,,1
1280,1:?,N,,0.997
1281,1:?,N,,0.999
1282,1:?,N,,0.999
1283,1:?,N,,0.999
1284,1:?,N,,0.996
1285,1:?,N,,0.998
1286,1:?,N,,1
1287,1:?,N,,1
1288,1:?,N,,1
1289,1:?,N,,1
1290,1:?,N,,1
1291,1:?,N,,1
1292,1:?,N,,0.998
1293,1:?,N,,0.999
1294,1:?,N,,1
1295,1:?,N,,1
1296,1:?,N,,1
1297,1:?,N,,1
1298,1:?,N,,1
1299,1:?,N,,1
1300,1:?,N,,0.998
1301,1:?,N,,0.999
1302,1:?,N,,1
1303,1:?,N,,1
1304,1:?,N,,1
1305,1:?,N,,1
1306,1:?,N,,1
1307,1:?,N,,1
1308,1:?,N,,0.999
1309,1:?,N,,1
1310,1:?,N,,1
1311,1:?,N,,1
1312,1:?,N,,1
1313,1:?,N,,1
1314,1:?,N,,0.73
1315,1:?,N,,0.837
1316,1:?,Y,,0.607
1317,1:?,N,,0.551
1318,1:?,N,,0.967
1319,1:?,N,,0.983
1320,1:?,N,,0.877
1321,1:?,N,,0.931
1322,1:?,N,,0.884
1323,1:?,N,,0.935
1324,1:?,N,,0.645
1325,1:?,N,,0.775
1326,1:?,N,,0.988
1327,1:?,N,,0.994
1328,1:?,N,,0.952
1329,1:?,N,,0.974
1330,1:?,N,,0.872
1331,1:?,N,,0.928
1332,1:?,N,,0.62
1333,1:?,N,,0.755
1334,1:?,N,,0.987
1335,1:?,N,,0.993
1336,1:?,N,,0.947
1337,1:?,N,,0.971
1338,1:?,N,,0.95
1339,1:?,N,,0.973
1340,1:?,N,,0.821
1341,1:?,N,,0.897
1342,1:?,N,,0.995
1343,1:?,N,,0.997
1344,1:?,N,,0.981
1345,1:?,N,,0.99
1346,1:?,N,,0.992
1347,1:?,N,,0.996
1348,1:?,N,,0.968
1349,1:?,N,,0.983
1350,1:?,N,,0.999
1351,1:?,N,,1
1352,1:?,N,,0.997
1353,1:?,N,,0.998
1354,1:?,N,,0.997
1355,1:?,N,,0.999
1356,1:?,N,,0.994
1357,1:?,N,,1
1358,1:?,N,,1
1359,1:?,N,,0.999
1360,1:?,N,,0.999
1361,1:?,N,,0.997
1362,1:?,N,,0.998
1363,1:?,N,,0.987
1364,1:?,N,,0.993
1365,1:?,N,,1
1366,1:?,N,,1
1367,1:?,N,,0.999
1368,1:?,N,,0.999
1369,1:?,N,,0.999
1370,1:?,N,,0.999
1371,1:?,N,,0.995
1372,1:?,N,,0.998
1373,1:?,N,,1
1374,1:?,N,,1
1375,1:?,N,,1
1376,1:?,N,,1
1377,1:?,N,,0.991
1378,1:?,N,,0.995
1379,1:?,N,,0.965
1380,1:?,N,,0.981
1381,1:?,N,,0.999
1382,1:?,N,,1
1383,1:?,N,,0.997
1384,1:?,N,,0.998
1385,1:?,N,,0.997
1386,1:?,N,,0.998
1387,1:?,N,,0.987
1388,1:?,N,,0.993
1389,1:?,N,,1
1390,1:?,N,,1
1391,1:?,N,,0.999
1392,1:?,N,,0.999
1393,1:?,N,,0.997
1394,1:?,N,,0.998
1395,1:?,N,,0.986
1396,1:?,N,,0.993
1397,1:?,N,,1
1398,1:?,N,,1
1399,1:?,N,,0.999
1400,1:?,N,,0.999
1401,1:?,N,,0.999
1402,1:?,N,,0.999
1403,1:?,N,,0.997
1404,1:?,N,,1
1405,1:?,N,,1
1406,1:?,N,,1
1407,1:?,N,,1
1408,1:?,N,,1
1409,1:?,N,,1
1410,1:?,N,,0.999
1411,1:?,N,,1
1412,1:?,N,,1
1413,1:?,N,,1
1414,1:?,N,,1
1415,1:?,N,,1
1416,1:?,N,,1
1417,1:?,N,,1
1418,1:?,N,,1
1419,1:?,N,,1
1420,1:?,N,,1
1421,1:?,N,,1
1422,1:?,N,,1
1423,1:?,N,,1
1424,1:?,N,,1
1425,1:?,N,,1
1426,1:?,N,,1
1427,1:?,N,,1
1428,1:?,N,,1
1429,1:?,N,,1
1430,1:?,N,,1
1431,1:?,N,,1
1432,1:?,N,,1
1433,1:?,N,,1
1434,1:?,N,,1
1435,1:?,N,,1
1436,1:?,N,,1
1437,1:?,N,,1
1438,1:?,N,,1
1439,1:?,N,,1
1440,1:?,N,,0.938
1441,1:?,N,,0.966
1442,1:?,N,,0.783
1443,1:?,N,,0.873
1444,1:?,N,,0.994
1445,1:?,N,,0.997
1446,1:?,N,,0.975
1447,1:?,N,,0.987
1448,1:?,N,,0.977
1449,1:?,N,,0.988
1450,1:?,N,,0.91
1451,1:?,N,,0.951
1452,1:?,N,,0.998
1453,1:?,N,,0.999
1454,1:?,N,,0.991
1455,1:?,N,,0.995
1456,1:?,N,,0.974
1457,1:?,N,,0.986
1458,1:?,N,,0.901
1459,1:?,N,,0.945
1460,1:?,N,,0.998
1461,1:?,N,,0.999
1462,1:?,N,,0.99
1463,1:?,N,,0.995
1464,1:?,N,,0.991
1465,1:?,N,,0.995
1466,1:?,N,,0.962
1467,1:?,N,,0.98
1468,1:?,N,,0.999
1469,1:?,N,,1
1470,1:?,N,,0.996
1471,1:?,N,,0.998
1472,1:?,N,,0.999
1473,1:?,N,,0.999
1474,1:?,N,,0.994
1475,1:?,N,,0.997
1476,1:?,N,,1
1477,1:?,N,,1
1478,1:?,N,,0.999
1479,1:?,N,,1
1480,1:?,N,,1
1481,1:?,N,,1
1482,1:?,N,,0.998
1483,1:?,N,,0.999
1484,1:?,N,,1
1485,1:?,N,,1
1486,1:?,N,,1
1487,1:?,N,,1
1488,1:?,N,,0.999
1489,1:?,N,,1
1490,1:?,N,,0.998
1491,1:?,N,,0.999
1492,1:?,N,,1
1493,1:?,N,,1
1494,1:?,N,,1
1495,1:?,N,,1
1496,1:?,N,,1
1497,1:?,N,,1
1498,1:?,N,,1
1499,1:?,N,,1
1500,1:?,N,,1
1501,1:?,N,,1
1502,1:?,N,,1
1503,1:?,Y,,0.857
1504,1:?,Y,,0.759
1505,1:?,N,,0.885
1506,1:?,N,,0.936
1507,1:?,N,,0.777
1508,1:?,N,,0.663
1509,1:?,N,,0.788
1510,1:?,Y,,0.68
1511,1:?,Y,,0.529
1512,1:?,N,,0.956
1513,1:?,N,,0.976
1514,1:?,N,,0.838
1515,1:?,N,,0.907
1516,1:?,N,,0.637
1517,1:?,N,,0.769
1518,1:?,Y,,0.704
1519,1:?,Y,,0.556
1520,1:?,N,,0.951
1521,1:?,N,,0.973
1522,1:?,N,,0.822
1523,1:?,N,,0.898
1524,1:?,N,,0.832
1525,1:?,N,,0.903
1526,1:?,N,,0.542
1527,1:?,N,,0.692
1528,1:?,N,,0.982
1529,1:?,N,,0.99
1530,1:?,N,,0.929
1531,1:?,N,,0.961
1532,1:?,N,,0.971
1533,1:?,N,,0.984
1534,1:?,N,,0.888
1535,1:?,N,,0.938
1536,1:?,N,,0.997
1537,1:?,N,,0.999
1538,1:?,N,,0.989
1539,1:?,N,,0.994
1540,1:?,N,,0.989
1541,1:?,N,,0.994
1542,1:?,N,,0.957
1543,1:?,N,,0.977
1544,1:?,N,,0.999
1545,1:?,N,,0.999
1546,1:?,N,,0.996
1547,1:?,N,,0.998
1548,1:?,N,,0.988
1549,1:?,N,,0.994
1550,1:?,N,,0.952
1551,1:?,N,,0.974
1552,1:?,N,,0.999
1553,1:?,N,,0.999
1554,1:?,N,,0.995
1555,1:?,N,,0.998
1556,1:?,N,,0.996
1557,1:?,N,,0.998
1558,1:?,N,,0.982
1559,1:?,N,,0.991
1560,1:?,N,,1
1561,1:?,N,,1
1562,1:?,N,,0.998
1563,1:?,N,,0.999
1564,1:?,Y,,0.917
1565,1:?,Y,,0.853
1566,1:?,Y,,0.979
1567,1:?,Y,,0.96
1568,1:?,Y,,0.5
1569,1:?,N,,0.654
1570,1:?,Y,,0.807
1571,1:?,Y,,0.688
1572,1:?,Y,,0.797
1573,1:?,Y,,0.674
1574,1:?,Y,,0.942
1575,1:?,Y,,0.896
1576,1:?,N,,0.737
1577,1:?,N,,0.842
1578,1:?,Y,,0.598
1579,1:?,N,,0.56
1580,1:?,Y,,0.814
1581,1:?,Y,,0.698
1582,1:?,Y,,0.948
1583,1:?,Y,,0.906
1584,1:?,N,,0.715
1585,1:?,N,,0.826
1586,1:?,Y,,0.624
1587,1:?,N,,0.533
1588,1:?,Y,,0.609
1589,1:?,N,,0.549
1590,1:?,Y,,0.867
1591,1:?,Y,,0.774
1592,1:?,N,,0.876
1593,1:?,N,,0.93
1594,1:?,N,,0.628
1595,1:?,N,,0.762
1596,1:?,N,,0.811
1597,1:?,N,,0.891
1598,1:?,N,,0.508
1599,1:?,N,,0.661
1600,1:?,N,,0.979
1601,1:?,N,,0.989
1602,1:?,N,,0.956
1603,1:?,N,,0.924
1604,1:?,N,,0.958
1605,1:?,N,,0.743
1606,1:?,N,,0.846
1607,1:?,N,,0.993
1608,1:?,N,,0.996
1609,1:?,N,,0.97
1610,1:?,N,,0.984
1611,1:?,N,,0.915
1612,1:?,N,,0.954
1613,1:?,N,,0.722
1614,1:?,N,,0.831
1615,1:?,N,,0.992
1616,1:?,N,,0.996
1617,1:?,N,,0.966
1618,1:?,N,,0.982
1619,1:?,N,,0.968
1620,1:?,N,,0.983
1621,1:?,N,,0.879
1622,1:?,N,,0.932
1623,1:?,N,,0.997
1624,1:?,N,,0.998
1625,1:?,N,,0.988
1626,1:?,N,,0.993
1627,1:?,N,,0.796
1628,1:?,N,,0.881
1629,1:?,Y,,0.517
1630,1:?,N,,0.639
1631,1:?,N,,0.977
1632,1:?,N,,0.988
1633,1:?,N,,0.911
1634,1:?,N,,0.951
1635,1:?,N,,0.916
1636,1:?,N,,0.954
1637,1:?,N,,0.724
1638,1:?,N,,0.832
1639,1:?,N,,0.992
1640,1:?,N,,0.996
1641,1:?,N,,0.966
1642,1:?,N,,0.982
1643,1:?,N,,0.907
1644,1:?,N,,0.949
1645,1:?,N,,0.701
1646,1:?,N,,0.816
1647,1:?,N,,0.991
1648,1:?,N,,0.995
1649,1:?,N,,0.98
1650,1:?,N,,0.965
1651,1:?,N,,0.981
1652,1:?,N,,0.868
1653,1:?,N,,0.926
1654,1:?,N,,0.997
1655,1:?,N,,0.998
1656,1:?,N,,0.986
1657,1:?,N,,0.993
1658,1:?,N,,0.995
1659,1:?,N,,0.997
1660,1:?,N,,0.978
1661,1:?,N,,0.988
1662,1:?,N,,1
1663,1:?,N,,1
1664,1:?,N,,0.998
1665,1:?,N,,0.999
1666,1:?,N,,0.998
1667,1:?,N,,0.999
1668,1:?,N,,0.992
1669,1:?,N,,0.996
1670,1:?,N,,1
1671,1:?,N,,1
1672,1:?,N,,0.999
1673,1:?,N,,1
1674,1:?,N,,0.998
1675,1:?,N,,0.999
1676,1:?,N,,0.991
1677,1:?,N,,0.995
1678,1:?,N,,1
1679,1:?,N,,1
1680,1:?,N,,0.999
1681,1:?,N,,1
1682,1:?,N,,0.999
1683,1:?,N,,1
1684,1:?,N,,0.997
1685,1:?,N,,0.998
1686,1:?,N,,1
1687,1:?,N,,1
1688,1:?,N,,1
1689,1:?,N,,1
1690,1:?,Y,,0.664
1691,1:?,Y,,0.51
1692,1:?,Y,,0.892
1693,1:?,Y,,0.813
1694,1:?,N,,0.848
1695,1:?,N,,0.913
1696,1:?,N,,0.571
1697,1:?,N,,0.717
1698,1:?,N,,0.587
1699,1:?,N,,0.729
1700,1:?,Y,,0.746
1701,1:?,Y,,0.608
1702,1:?,N,,0.94
1703,1:?,N,,0.967
1704,1:?,N,,0.789
1705,1:?,N,,0.877
1706,1:?,N,,0.56
1707,1:?,N,,0.707
1708,1:?,Y,,0.766
1709,1:?,Y,,0.634
1710,1:?,N,,0.933
1711,1:?,N,,0.964
1712,1:?,N,,0.77
1713,1:?,N,,0.864
1714,1:?,N,,0.781
1715,1:?,N,,0.871
1716,1:?,Y,,0.539
1717,1:?,N,,0.619
1718,1:?,N,,0.975
1719,1:?,N,,0.987
1720,1:?,N,,0.904
1721,1:?,N,,0.947
1722,1:?,N,,0.96
1723,1:?,N,,0.978
1724,1:?,N,,0.852
1725,1:?,N,,0.916
1726,1:?,N,,0.996
1727,1:?,N,,0.998
1728,1:?,N,,0.984
1729,1:?,N,,0.992
1730,1:?,N,,0.985
1731,1:?,N,,0.992
1732,1:?,N,,0.942
1733,1:?,N,,0.968
1734,1:?,N,,0.999
1735,1:?,N,,0.999
1736,1:?,N,,0.994
1737,1:?,N,,0.997
1738,1:?,N,,0.984
1739,1:?,N,,0.991
1740,1:?,N,,0.935
1741,1:?,N,,0.965
1742,1:?,N,,0.998
1743,1:?,N,,0.999
1744,1:?,N,,0.997
1745,1:?,N,,0.994
1746,1:?,N,,0.997
1747,1:?,N,,0.976
1748,1:?,N,,0.987
1749,1:?,N,,0.999
1750,1:?,N,,1
1751,1:?,N,,0.998
1752,1:?,N,,0.999
1753,1:?,N,,0.606
1754,1:?,N,,0.745
1755,1:?,Y,,0.73
1756,1:?,Y,,0.588
1757,1:?,N,,0.944
1758,1:?,N,,0.97
1759,1:?,N,,0.802
1760,1:?,N,,0.885
1761,1:?,N,,0.812
1762,1:?,N,,0.891
1763,1:?,N,,0.509
1764,1:?,N,,0.663
1765,1:?,N,,0.979
1766,1:?,N,,0.989
1767,1:?,N,,0.956
1768,1:?,N,,0.795
1769,1:?,N,,0.88
1770,1:?,Y,,0.519
1771,1:?,N,,0.638
1772,1:?,N,,0.977
1773,1:?,N,,0.988
1774,1:?,N,,0.911
1775,1:?,N,,0.951
1776,1:?,N,,0.916
1777,1:?,N,,0.954
1778,1:?,N,,0.723
1779,1:?,N,,0.832
1780,1:?,N,,0.992
1781,1:?,N,,0.996
1782,1:?,N,,0.966
1783,1:?,N,,0.982
1784,1:?,N,,0.986
1785,1:?,N,,0.993
1786,1:?,N,,0.946
1787,1:?,N,,0.971
1788,1:?,N,,0.999
1789,1:?,N,,0.999
1790,1:?,N,,0.995
1791,1:?,N,,0.997
1792,1:?,N,,0.995
1793,1:?,N,,0.997
1794,1:?,N,,0.98
1795,1:?,N,,0.989
1796,1:?,N,,1
1797,1:?,N,,1
1798,1:?,N,,0.998
1799,1:?,N,,0.999
1800,1:?,N,,0.995
1801,1:?,N,,0.997
1802,1:?,N,,0.978
1803,1:?,N,,0.988
1804,1:?,N,,1
1805,1:?,N,,1
1806,1:?,N,,0.998
1807,1:?,N,,0.999
1808,1:?,N,,0.998
1809,1:?,N,,0.999
1810,1:?,N,,0.992
1811,1:?,N,,0.996
1812,1:?,N,,1
1813,1:?,N,,1
1814,1:?,N,,0.999
1815,1:?,N,,1
1816,1:?,Y,,0.833
1817,1:?,Y,,0.725
1818,1:?,Y,,0.954
1819,1:?,Y,,0.917
1820,1:?,N,,0.688
1821,1:?,N,,0.807
1822,1:?,Y,,0.655
1823,1:?,Y,,0.5
1824,1:?,Y,,0.64
1825,1:?,N,,0.516
1826,1:?,Y,,0.881
1827,1:?,Y,,0.797
1828,1:?,N,,0.861
1829,1:?,N,,0.921
1830,1:?,N,,0.597
1831,1:?,N,,0.737
1832,1:?,Y,,0.665
1833,1:?,Y,,0.512
1834,1:?,Y,,0.892
1835,1:?,Y,,0.814
1836,1:?,N,,0.847
1837,1:?,N,,0.913
1838,1:?,N,,0.57
1839,1:?,N,,0.715
1840,1:?,N,,0.586
1841,1:?,N,,0.728
1842,1:?,Y,,0.747
1843,1:?,Y,,0.609
1844,1:?,N,,0.94
1845,1:?,N,,0.967
1846,1:?,N,,0.788
1847,1:?,N,,0.876
1848,1:?,N,,0.905
1849,1:?,N,,0.947
1850,1:?,N,,0.694
1851,1:?,N,,0.812
1852,1:?,N,,0.991
1853,1:?,N,,0.995
1854,1:?,N,,0.962
1855,1:?,N,,0.979
1856,1:?,N,,0.964
1857,1:?,N,,0.981
1858,1:?,N,,0.865
1859,1:?,N,,0.924
1860,1:?,N,,0.997
1861,1:?,N,,0.998
1862,1:?,N,,0.993
1863,1:?,N,,0.96
1864,1:?,N,,0.978
1865,1:?,N,,0.851
1866,1:?,N,,0.915
1867,1:?,N,,0.996
1868,1:?,N,,0.998
1869,1:?,N,,0.984
1870,1:?,N,,0.992
1871,1:?,N,,0.985
1872,1:?,N,,0.992
1873,1:?,N,,0.941
1874,1:?,N,,0.968
1875,1:?,N,,0.999
1876,1:?,N,,0.999
1877,1:?,N,,0.994
1878,1:?,N,,0.997
1879,1:?,N,,0.896
1880,1:?,N,,0.942
1881,1:?,N,,0.673
1882,1:?,N,,0.796
1883,1:?,N,,0.99
1884,1:?,N,,0.994
1885,1:?,N,,0.958
1886,1:?,N,,0.977
1887,1:?,N,,0.96
1888,1:?,N,,0.979
1889,1:?,N,,0.852
1890,1:?,N,,0.916
1891,1:?,N,,0.996
1892,1:?,N,,0.998
1893,1:?,N,,0.985
1894,1:?,N,,0.992
1895,1:?,N,,0.956
1896,1:?,N,,0.976
1897,1:?,N,,0.838
1898,1:?,N,,0.907
1899,1:?,N,,0.996
1900,1:?,N,,0.998
1901,1:?,N,,0.983
1902,1:?,N,,0.991
1903,1:?,N,,0.984
1904,1:?,N,,0.991
1905,1:?,N,,0.936
1906,1:?,N,,0.965
1907,1:?,N,,0.999
1908,1:?,N,,0.999
1909,1:?,N,,0.997
1910,1:?,N,,0.998
1911,1:?,N,,0.999
1912,1:?,N,,0.99
1913,1:?,N,,0.995
1914,1:?,N,,1
1915,1:?,N,,1
1916,1:?,N,,0.999
1917,1:?,N,,1
1918,1:?,N,,0.999
1919,1:?,N,,1
1920,1:?,N,,0.996
1921,1:?,N,,0.998
1922,1:?,N,,1
1923,1:?,N,,1
1924,1:?,N,,1
1925,1:?,N,,1
1926,1:?,N,,0.999
1927,1:?,N,,0.999
1928,1:?,N,,0.996
1929,1:?,N,,0.998
1930,1:?,N,,1
1931,1:?,N,,1
1932,1:?,N,,1
1933,1:?,N,,1
1934,1:?,N,,1
1935,1:?,N,,1
1936,1:?,N,,0.999
1937,1:?,N,,0.999
1938,1:?,N,,1
1939,1:?,N,,1
1940,1:?,N,,1
1941,1:?,N,,1
1942,1:?,N,,0.527
1943,1:?,N,,0.679
1944,1:?,Y,,0.789
1945,1:?,Y,,0.664
1946,1:?,N,,0.925
1947,1:?,N,,0.959
1948,1:?,N,,0.746
1949,1:?,N,,0.848
1950,1:?,N,,0.758
1951,1:?,N,,0.856
1952,1:?,Y,,0.571
1953,1:?,N,,0.587
1954,1:?,N,,0.972
1955,1:?,N,,0.985
1956,1:?,N,,0.892
1957,1:?,N,,0.94
1958,1:?,N,,0.737
1959,1:?,N,,0.842
1960,1:?,Y,,0.598
1961,1:?,N,,0.56
1962,1:?,N,,0.969
1963,1:?,N,,0.983
1964,1:?,N,,0.881
1965,1:?,N,,0.933
1966,1:?,N,,0.887
1967,1:?,N,,0.937
1968,1:?,N,,0.654
1969,1:?,N,,0.782
1970,1:?,N,,0.989
1971,1:?,N,,0.994
1972,1:?,N,,0.954
1973,1:?,N,,0.975
1974,1:?,N,,0.981
1975,1:?,N,,0.99
1976,1:?,N,,0.927
1977,1:?,N,,0.96
1978,1:?,N,,0.998
1979,1:?,N,,0.999
1980,1:?,N,,0.993
1981,1:?,N,,0.996
1982,1:?,N,,0.993
1983,1:?,N,,0.996
1984,1:?,N,,0.973
1985,1:?,N,,0.985
1986,1:?,N,,0.999
1987,1:?,N,,1
1988,1:?,N,,0.997
1989,1:?,N,,0.999
1990,1:?,N,,0.993
1991,1:?,N,,0.996
1992,1:?,N,,0.97
1993,1:?,N,,0.984
1994,1:?,N,,0.999
1995,1:?,N,,1
1996,1:?,N,,0.997
1997,1:?,N,,0.998
1998,1:?,N,,0.997
1999,1:?,N,,0.999
2000,1:?,N,,0.989
2001,1:?,N,,0.994
2002,1:?,N,,1
2003,1:?,N,,1
2004,1:?,N,,0.999
2005,1:?,Y,,0.833
2006,1:?,Y,,0.724
2007,1:?,N,,0.902
2008,1:?,N,,0.946
2009,1:?,N,,0.688
2010,1:?,N,,0.807
2011,1:?,N,,0.702
2012,1:?,N,,0.817
2013,1:?,Y,,0.639
2014,1:?,N,,0.517
2015,1:?,N,,0.963
2016,1:?,N,,0.98
2017,1:?,N,,0.861
2018,1:?,N,,0.922
2019,1:?,N,,0.678
2020,1:?,N,,0.8
2021,1:?,Y,,0.664
2022,1:?,Y,,0.511
2023,1:?,N,,0.959
2024,1:?,N,,0.978
2025,1:?,N,,0.848
2026,1:?,N,,0.913
2027,1:?,N,,0.856
2028,1:?,N,,0.918
2029,1:?,N,,0.587
2030,1:?,N,,0.729
2031,1:?,N,,0.985
2032,1:?,N,,0.992
2033,1:?,N,,0.94
2034,1:?,N,,0.967
2035,1:?,N,,0.975
2036,1:?,N,,0.987
2037,1:?,N,,0.905
2038,1:?,N,,0.947
2039,1:?,N,,0.998
2040,1:?,N,,0.999
2041,1:?,N,,0.991
2042,1:?,N,,0.995
2043,1:?,N,,0.991
2044,1:?,N,,0.995
2045,1:?,N,,0.964
2046,1:?,N,,0.981
2047,1:?,N,,0.999
2048,1:?,N,,1
2049,1:?,N,,0.997
2050,1:?,N,,0.998
2051,1:?,N,,0.99
2052,1:?,N,,0.995
2053,1:?,N,,0.96
2054,1:?,N,,0.978
2055,1:?,N,,0.999
2056,1:?,N,,1
2057,1:?,N,,0.996
2058,1:?,N,,0.998
2059,1:?,N,,0.996
2060,1:?,N,,0.998
2061,1:?,N,,0.985
2062,1:?,N,,0.992
2063,1:?,N,,1
2064,1:?,N,,1
2065,1:?,N,,0.999
2066,1:?,N,,0.999
2067,1:?,Y,,0.902
2068,1:?,Y,,0.829
2069,1:?,Y,,0.975
2070,1:?,Y,,0.953
2071,1:?,N,,0.545
2072,1:?,N,,0.694
2073,1:?,Y,,0.777
2074,1:?,Y,,0.648
2075,1:?,Y,,0.766
2076,1:?,Y,,0.633
2077,1:?,Y,,0.932
2078,1:?,Y,,0.878
2079,1:?,N,,0.771
2080,1:?,N,,0.865
2081,1:?,Y,,0.554
2082,1:?,N,,0.605
2083,1:?,Y,,0.785
2084,1:?,Y,,0.658
2085,1:?,Y,,0.938
2086,1:?,Y,,0.889
2087,1:?,N,,0.751
2088,1:?,N,,0.851
2089,1:?,Y,,0.581
2090,1:?,N,,0.578
2091,1:?,Y,,0.565
2092,1:?,N,,0.593
2093,1:?,Y,,0.844
2094,1:?,Y,,0.741
2095,1:?,N,,0.894
2096,1:?,N,,0.941
2097,1:?,N,,0.67
2098,1:?,N,,0.794
2099,1:?,N,,0.838
2100,1:?,N,,0.553
2101,1:?,N,,0.701
2102,1:?,N,,0.983
2103,1:?,N,,0.991
2104,1:?,N,,0.932
2105,1:?,N,,0.963
2106,1:?,N,,0.935
2107,1:?,N,,0.965
2108,1:?,N,,0.776
2109,1:?,N,,0.868
2110,1:?,N,,0.994
2111,1:?,N,,0.997
2112,1:?,N,,0.974
2113,1:?,N,,0.986
2114,1:?,N,,0.928
2115,1:?,N,,0.961
2116,1:?,N,,0.757
2117,1:?,N,,0.855
2118,1:?,N,,0.993
2119,1:?,N,,0.996
2120,1:?,N,,0.972
2121,1:?,N,,0.985
2122,1:?,N,,0.973
2123,1:?,N,,0.986
2124,1:?,N,,0.897
2125,1:?,N,,0.943
2126,1:?,N,,0.998
2127,1:?,N,,0.999
2128,1:?,N,,0.99
2129,1:?,N,,0.995
2130,1:?,N,,0.824
2131,1:?,N,,0.899
2132,1:?,N,,0.528
2133,1:?,N,,0.68
2134,1:?,N,,0.981
2135,1:?,N,,0.99
2136,1:?,N,,0.925
2137,1:?,N,,0.959
2138,1:?,N,,0.929
2139,1:?,N,,0.961
2140,1:?,N,,0.759
2141,1:?,N,,0.856
2142,1:?,N,,0.993
2143,1:?,N,,0.996
2144,1:?,N,,0.972
2145,1:?,N,,0.985
2146,1:?,N,,0.922
2147,1:?,N,,0.738
2148,1:?,N,,0.842
2149,1:?,N,,0.992
2150,1:?,N,,0.969
2151,1:?,N,,0.983
2152,1:?,N,,0.971
2153,1:?,N,,0.984
2154,1:?,N,,0.888
2155,1:?,N,,0.937
2156,1:?,N,,0.997
2157,1:?,N,,0.999
2158,1:?,N,,0.989
2159,1:?,N,,0.994
2160,1:?,N,,0.996
2161,1:?,N,,0.998
2162,1:?,N,,0.981
2163,1:?,N,,0.99
2164,1:?,N,,1
2165,1:?,N,,1
2166,1:?,N,,0.998
2167,1:?,N,,0.999
2168,1:?,N,,0.998
2169,1:?,N,,0.999
2170,1:?,N,,0.993
2171,1:?,N,,0.996
2172,1:?,N,,1
2173,1:?,N,,1
2174,1:?,N,,0.999
2175,1:?,N,,1
2176,1:?,N,,0.998
2177,1:?,N,,0.999
2178,1:?,N,,0.993
2179,1:?,N,,0.996
2180,1:?,N,,1
2181,1:?,N,,1
2182,1:?,N,,0.999
2183,1:?,N,,1
2184,1:?,N,,0.999
2185,1:?,N,,1
2186,1:?,N,,0.997
2187,1:?,N,,0.999
2188,1:?,N,,1
2189,1:?,N,,1
2190,1:?,N,,1
2191,1:?,N,,1
2192,1:?,Y,,0.622
2193,1:?,N,,0.535
2194,1:?,Y,,0.873
2195,1:?,Y,,0.784
2196,1:?,N,,0.87
2197,1:?,N,,0.927
2198,1:?,N,,0.615
2199,1:?,N,,0.752
2200,1:?,N,,0.63
2201,1:?,N,,0.764
2202,1:?,Y,,0.71
2203,1:?,Y,,0.564
2204,1:?,N,,0.949
2205,1:?,N,,0.973
2206,1:?,N,,0.818
2207,1:?,N,,0.895
2208,1:?,N,,0.604
2209,1:?,N,,0.743
2210,1:?,Y,,0.732
2211,1:?,Y,,0.591
2212,1:?,N,,0.944
2213,1:?,N,,0.97
2214,1:?,N,,0.801
2215,1:?,N,,0.884
2216,1:?,N,,0.811
2217,1:?,N,,0.89
2218,1:?,N,,0.507
2219,1:?,N,,0.661
2220,1:?,N,,0.979
2221,1:?,N,,0.989
2222,1:?,N,,0.919
2223,1:?,N,,0.955
2224,1:?,N,,0.966
2225,1:?,N,,0.982
2226,1:?,N,,0.873
2227,1:?,N,,0.929
2228,1:?,N,,0.997
2229,1:?,N,,0.998
2230,1:?,N,,0.987
2231,1:?,N,,0.993
2232,1:?,N,,0.988
2233,1:?,N,,0.994
2234,1:?,N,,0.951
2235,1:?,N,,0.973
2236,1:?,N,,0.999
2237,1:?,N,,0.999
2238,1:?,N,,0.995
2239,1:?,N,,0.998
2240,1:?,N,,0.986
2241,1:?,N,,0.945
2242,1:?,N,,0.97
2243,1:?,N,,0.999
2244,1:?,N,,0.999
2245,1:?,N,,0.995
2246,1:?,N,,0.997
2247,1:?,N,,0.995
2248,1:?,N,,0.997
2249,1:?,N,,0.98
2250,1:?,N,,0.989
2251,1:?,N,,1
2252,1:?,N,,1
2253,1:?,N,,0.998
2254,1:?,N,,0.999
2255,1:?,N,,0.649
2256,1:?,N,,0.778
2257,1:?,Y,,0.693
2258,1:?,Y,,0.544
2259,1:?,N,,0.953
2260,1:?,N,,0.975
2261,1:?,N,,0.83
2262,1:?,N,,0.902
2263,1:?,N,,0.838
2264,1:?,N,,0.554
2265,1:?,N,,0.702
2266,1:?,N,,0.983
2267,1:?,N,,0.991
2268,1:?,N,,0.932
2269,1:?,N,,0.963
2270,1:?,N,,0.823
2271,1:?,N,,0.898
2272,1:?,N,,0.527
2273,1:?,N,,0.678
2274,1:?,N,,0.981
2275,1:?,N,,0.99
2276,1:?,N,,0.925
2277,1:?,N,,0.959
2278,1:?,N,,0.929
2279,1:?,N,,0.961
2280,1:?,N,,0.758
2281,1:?,N,,0.856
2282,1:?,N,,0.993
2283,1:?,N,,0.996
2284,1:?,N,,0.972
2285,1:?,N,,0.985
2286,1:?,N,,0.989
2287,1:?,N,,0.994
2288,1:?,N,,0.954
2289,1:?,N,,0.975
2290,1:?,N,,0.999
2291,1:?,N,,0.999
2292,1:?,N,,0.996
2293,1:?,N,,0.998
2294,1:?,N,,0.996
2295,1:?,N,,0.998
2296,1:?,N,,0.983
2297,1:?,N,,0.991
2298,1:?,N,,1
2299,1:?,N,,1
2300,1:?,N,,0.998
2301,1:?,N,,0.999
2302,1:?,N,,0.995
2303,1:?,N,,0.998
2304,1:?,N,,0.981
2305,1:?,N,,0.99
2306,1:?,N,,1
2307,1:?,N,,1
2308,1:?,N,,0.998
2309,1:?,N,,0.999
2310,1:?,N,,0.998
2311,1:?,N,,0.999
2312,1:?,N,,0.993
2313,1:?,N,,0.996
2314,1:?,N,,1
2315,1:?,N,,1
2316,1:?,N,,0.999
2317,1:?,N,,1
2318,1:?,Y,,0.806
2319,1:?,Y,,0.687
2320,1:?,Y,,0.946
2321,1:?,Y,,0.902
2322,1:?,N,,0.725
2323,1:?,N,,0.833
2324,1:?,Y,,0.613
2325,1:?,N,,0.545
2326,1:?,Y,,0.597
2327,1:?,N,,0.561
2328,1:?,Y,,0.861
2329,1:?,Y,,0.766
2330,1:?,N,,0.881
2331,1:?,N,,0.934
2332,1:?,N,,0.64
2333,1:?,N,,0.771
2334,1:?,Y,,0.624
2335,1:?,N,,0.534
2336,1:?,Y,,0.874
2337,1:?,Y,,0.785
2338,1:?,N,,0.869
2339,1:?,N,,0.926
2340,1:?,N,,0.614
2341,1:?,N,,0.751
2342,1:?,N,,0.629
2343,1:?,N,,0.763
2344,1:?,Y,,0.711
2345,1:?,Y,,0.565
2346,1:?,N,,0.949
2347,1:?,N,,0.973
2348,1:?,N,,0.817
2349,1:?,N,,0.894
2350,1:?,N,,0.919
2351,1:?,N,,0.956
2352,1:?,N,,0.732
2353,1:?,N,,0.838
2354,1:?,N,,0.992
2355,1:?,N,,0.996
2356,1:?,N,,0.968
2357,1:?,N,,0.983
2358,1:?,N,,0.97
2359,1:?,N,,0.884
2360,1:?,N,,0.936
2361,1:?,N,,0.997
2362,1:?,N,,0.999
2363,1:?,N,,0.988
2364,1:?,N,,0.994
2365,1:?,N,,0.966
2366,1:?,N,,0.982
2367,1:?,N,,0.873
2368,1:?,N,,0.929
2369,1:?,N,,0.997
2370,1:?,N,,0.998
2371,1:?,N,,0.987
2372,1:?,N,,0.993
2373,1:?,N,,0.988
2374,1:?,N,,0.993
2375,1:?,N,,0.951
2376,1:?,N,,0.973
2377,1:?,N,,0.999
2378,1:?,N,,0.999
2379,1:?,N,,0.995
2380,1:?,N,,0.998
2381,1:?,N,,0.911
2382,1:?,N,,0.951
2383,1:?,N,,0.712
2384,1:?,N,,0.824
2385,1:?,N,,0.991
2386,1:?,N,,0.995
2387,1:?,N,,0.964
2388,1:?,N,,0.981
2389,1:?,N,,0.967
2390,1:?,N,,0.982
2391,1:?,N,,0.874
2392,1:?,N,,0.929
2393,1:?,N,,0.997
2394,1:?,N,,0.998
2395,1:?,N,,0.987
2396,1:?,N,,0.993
2397,1:?,N,,0.963
2398,1:?,N,,0.98
2399,1:?,N,,0.861
2400,1:?,N,,0.922
2401,1:?,N,,0.997
2402,1:?,N,,0.998
2403,1:?,N,,0.986
2404,1:?,N,,0.992
2405,1:?,N,,0.986
2406,1:?,N,,0.946
2407,1:?,N,,0.971
2408,1:?,N,,0.999
2409,1:?,N,,0.999
2410,1:?,N,,0.995
2411,1:?,N,,0.997
2412,1:?,N,,0.998
2413,1:?,N,,0.999
2414,1:?,N,,0.992
2415,1:?,N,,0.996
2416,1:?,N,,1
2417,1:?,N,,1
2418,1:?,N,,0.999
2419,1:?,N,,1
2420,1:?,N,,0.999
2421,1:?,N,,1
2422,1:?,N,,0.997
2423,1:?,N,,0.998
2424,1:?,N,,1
2425,1:?,N,,1
2426,1:?,N,,1
2427,1:?,N,,1
2428,1:?,N,,0.999
2429,1:?,N,,1
2430,1:?,N,,0.997
2431,1:?,N,,0.998
2432,1:?,N,,1
2433,1:?,N,,1
2434,1:?,N,,1
2435,1:?,N,,1
2436,1:?,N,,1
2437,1:?,N,,1
2438,1:?,N,,0.999
2439,1:?,N,,0.999
2440,1:?,N,,1
2441,1:?,N,,1
2442,1:?,N,,1
2443,1:?,N,,1
2444,1:?,N,,0.572
2445,1:?,N,,0.717
2446,1:?,Y,,0.757
2447,1:?,Y,,0.622
2448,1:?,N,,0.936
2449,1:?,N,,0.965
2450,1:?,N,,0.779
2451,1:?,N,,0.87
2452,1:?,N,,0.79
2453,1:?,N,,0.877
2454,1:?,Y,,0.526
2455,1:?,N,,0.63
2456,1:?,N,,0.976
2457,1:?,N,,0.987
2458,1:?,N,,0.908
2459,1:?,N,,0.949
2460,1:?,N,,0.771
2461,1:?,N,,0.864
2462,1:?,Y,,0.554
2463,1:?,N,,0.604
2464,1:?,N,,0.974
2465,1:?,N,,0.986
2466,1:?,N,,0.899
2467,1:?,N,,0.944
2468,1:?,N,,0.904
2469,1:?,N,,0.947
2470,1:?,N,,0.694
2471,1:?,N,,0.811
2472,1:?,N,,0.99
2473,1:?,N,,0.995
2474,1:?,N,,0.961
2475,1:?,N,,0.979
2476,1:?,N,,0.984
2477,1:?,N,,0.992
2478,1:?,N,,0.938
2479,1:?,N,,0.966
2480,1:?,N,,0.999
2481,1:?,N,,0.999
2482,1:?,N,,0.994
2483,1:?,N,,0.997
2484,1:?,N,,0.994
2485,1:?,N,,0.997
2486,1:?,N,,0.977
2487,1:?,N,,0.988
2488,1:?,N,,0.999
2489,1:?,N,,1
2490,1:?,N,,0.998
2491,1:?,N,,0.999
2492,1:?,N,,0.994
2493,1:?,N,,0.997
2494,1:?,N,,0.974
2495,1:?,N,,0.986
2496,1:?,N,,0.999
2497,1:?,N,,1
2498,1:?,N,,0.998
2499,1:?,N,,0.999
2500,1:?,N,,0.998
2501,1:?,N,,0.991
2502,1:?,N,,0.995
2503,1:?,N,,1
2504,1:?,N,,1
2505,1:?,N,,0.999
2506,1:?,N,,1
2507,1:?,Y,,0.942
2508,1:?,Y,,0.895
2509,1:?,Y,,0.985
2510,1:?,Y,,0.973
2511,1:?,Y,,0.594
2512,1:?,Y,,0.859
2513,1:?,Y,,0.763
2514,1:?,Y,,0.852
2515,1:?,Y,,0.752
2516,1:?,Y,,0.96
2517,1:?,Y,,0.927
2518,1:?,N,,0.657
2519,1:?,N,,0.784
2520,1:?,Y,,0.685
2521,1:?,Y,,0.535
2522,1:?,Y,,0.865
2523,1:?,Y,,0.772
2524,1:?,Y,,0.964
2525,1:?,Y,,0.934
2526,1:?,N,,0.632
2527,1:?,Y,,0.709
2528,1:?,Y,,0.562
2529,1:?,Y,,0.695
2530,1:?,Y,,0.546
2531,1:?,Y,,0.905
2532,1:?,Y,,0.834
2533,1:?,N,,0.828
2534,1:?,N,,0.901
2535,1:?,N,,0.536
2536,1:?,N,,0.686
2537,1:?,N,,0.746
2538,1:?,N,,0.848
2539,1:?,Y,,0.587
2540,1:?,N,,0.572
2541,1:?,N,,0.97
2542,1:?,N,,0.984
2543,1:?,N,,0.886
2544,1:?,N,,0.936
2545,1:?,N,,0.892
2546,1:?,N,,0.94
2547,1:?,N,,0.664
2548,1:?,N,,0.789
2549,1:?,N,,0.989
2550,1:?,N,,0.994
2551,1:?,N,,0.956
2552,1:?,N,,0.976
2553,1:?,N,,0.881
2554,1:?,N,,0.933
2555,1:?,N,,0.639
2556,1:?,N,,0.77
2557,1:?,N,,0.988
2558,1:?,N,,0.994
2559,1:?,N,,0.951
2560,1:?,N,,0.974
2561,1:?,N,,0.954
2562,1:?,N,,0.975
2563,1:?,N,,0.833
2564,1:?,N,,0.904
2565,1:?,N,,0.996
2566,1:?,N,,0.998
2567,1:?,N,,0.982
2568,1:?,N,,0.99
2569,1:?,Y,,0.992
2570,1:?,Y,,0.985
2571,1:?,Y,,0.998
2572,1:?,Y,,0.996
2573,1:?,Y,,0.919
2574,1:?,Y,,0.856
2575,1:?,Y,,0.979
2576,1:?,Y,,0.961
2577,1:?,Y,,0.978
2578,1:?,Y,,0.959
2579,1:?,Y,,0.995
2580,1:?,Y,,0.99
2581,1:?,Y,,0.801
2582,1:?,Y,,0.679
2583,1:?,Y,,0.944
2584,1:?,Y,,0.898
2585,1:?,Y,,0.98
2586,1:?,Y,,0.963
2587,1:?,Y,,0.995
2588,1:?,Y,,0.991
2589,1:?,Y,,0.818
2590,1:?,Y,,0.703
2591,1:?,Y,,0.949
2592,1:?,Y,,0.908
2593,1:?,Y,,0.946
2594,1:?,Y,,0.903
2595,1:?,Y,,0.987
2596,1:?,Y,,0.975
2597,1:?,Y,,0.615
2598,1:?,N,,0.543
2599,1:?,Y,,0.869
2600,1:?,Y,,0.779
2601,1:?,Y,,0.724
2602,1:?,Y,,0.58
2603,1:?,Y,,0.916
2604,1:?,Y,,0.852
2605,1:?,N,,0.808
2606,1:?,N,,0.502
2607,1:?,N,,0.656
2608,1:?,N,,0.518
2609,1:?,N,,0.67
2610,1:?,Y,,0.796
2611,1:?,Y,,0.672
2612,1:?,N,,0.922
2613,1:?,N,,0.957
2614,1:?,N,,0.739
2615,1:?,N,,0.843
2616,1:?,Y,,0.51
2617,1:?,N,,0.645
2618,1:?,Y,,0.813
2619,1:?,Y,,0.696
2620,1:?,N,,0.914
2621,1:?,N,,0.952
2622,1:?,N,,0.717
2623,1:?,N,,0.828
2624,1:?,N,,0.73
2625,1:?,N,,0.836
2626,1:?,Y,,0.607
2627,1:?,N,,0.551
2628,1:?,N,,0.967
2629,1:?,N,,0.983
2630,1:?,N,,0.877
2631,1:?,N,,0.931
2632,1:?,Y,,0.743
2633,1:?,Y,,0.604
2634,1:?,Y,,0.924
2635,1:?,Y,,0.864
2636,1:?,N,,0.792
2637,1:?,Y,,0.523
2638,1:?,N,,0.633
2639,1:?,Y,,0.507
2640,1:?,N,,0.648
2641,1:?,Y,,0.811
2642,1:?,Y,,0.694
2643,1:?,N,,0.914
2644,1:?,N,,0.953
2645,1:?,N,,0.719
2646,1:?,N,,0.829
2647,1:?,Y,,0.535
2648,1:?,Y,,0.828
2649,1:?,Y,,0.717
2650,1:?,N,,0.696
2651,1:?,N,,0.71
2652,1:?,N,,0.822
2653,1:?,Y,,0.631
2654,1:?,N,,0.526
2655,1:?,N,,0.964
2656,1:?,N,,0.866
2657,1:?,N,,0.924
2658,1:?,N,,0.942
2659,1:?,N,,0.969
2660,1:?,N,,0.797
2661,1:?,N,,0.881
2662,1:?,N,,0.994
2663,1:?,N,,0.997
2664,1:?,N,,0.977
2665,1:?,N,,0.988
2666,1:?,N,,0.979
2667,1:?,N,,0.989
2668,1:?,N,,0.917
2669,1:?,N,,0.954
2670,1:?,N,,0.998
2671,1:?,N,,0.999
2672,1:?,N,,0.992
2673,1:?,N,,0.996
2674,1:?,N,,0.976
2675,1:?,N,,0.987
2676,1:?,N,,0.908
2677,1:?,N,,0.949
2678,1:?,N,,0.998
2679,1:?,N,,0.991
2680,1:?,N,,0.995
2681,1:?,N,,0.991
2682,1:?,N,,0.995
2683,1:?,N,,0.965
2684,1:?,N,,0.981
2685,1:?,N,,0.999
2686,1:?,N,,1
2687,1:?,N,,0.997
2688,1:?,N,,0.998
2689,1:?,Y,,0.957
2690,1:?,Y,,0.922
2691,1:?,Y,,0.989
2692,1:?,Y,,0.98
2693,1:?,Y,,0.669
2694,1:?,Y,,0.516
2695,1:?,Y,,0.894
2696,1:?,Y,,0.817
2697,1:?,Y,,0.888
2698,1:?,Y,,0.807
2699,1:?,Y,,0.971
2700,1:?,Y,,0.946
2701,1:?,N,,0.581
2702,1:?,N,,0.725
2703,1:?,Y,,0.75
2704,1:?,Y,,0.613
2705,1:?,Y,,0.898
2706,1:?,Y,,0.824
2707,1:?,Y,,0.974
2708,1:?,Y,,0.951
2709,1:?,N,,0.554
2710,1:?,Y,,0.771
2711,1:?,Y,,0.639
2712,1:?,Y,,0.759
2713,1:?,Y,,0.624
2714,1:?,Y,,0.929
2715,1:?,Y,,0.874
2716,1:?,N,,0.777
2717,1:?,N,,0.869
2718,1:?,Y,,0.545
2719,1:?,N,,0.613
2720,1:?,N,,0.68
2721,1:?,N,,0.801
2722,1:?,Y,,0.662
2723,1:?,Y,,0.509
2724,1:?,N,,0.959
2725,1:?,N,,0.978
2726,1:?,N,,0.849
2727,1:?,N,,0.914
2728,1:?,N,,0.857
2729,1:?,N,,0.919
2730,1:?,N,,0.589
2731,1:?,N,,0.731
2732,1:?,N,,0.985
2733,1:?,N,,0.992
2734,1:?,N,,0.94
2735,1:?,N,,0.968
2736,1:?,N,,0.843
2737,1:?,N,,0.91
2738,1:?,N,,0.562
2739,1:?,N,,0.709
2740,1:?,N,,0.983
2741,1:?,N,,0.934
2742,1:?,N,,0.964
2743,1:?,N,,0.938
2744,1:?,N,,0.966
2745,1:?,N,,0.783
2746,1:?,N,,0.872
2747,1:?,N,,0.994
2748,1:?,N,,0.997
2749,1:?,N,,0.975
2750,1:?,N,,0.987
2751,1:?,Y,,0.88
2752,1:?,Y,,0.794
2753,1:?,Y,,0.968
2754,1:?,Y,,0.942
2755,1:?,N,,0.601
2756,1:?,N,,0.74
2757,1:?,Y,,0.735
2758,1:?,Y,,0.594
2759,1:?,Y,,0.723
2760,1:?,Y,,0.579
2761,1:?,Y,,0.916
2762,1:?,Y,,0.852
2763,1:?,N,,0.809
2764,1:?,N,,0.503
2765,1:?,N,,0.657
2766,1:?,Y,,0.744
2767,1:?,Y,,0.605
2768,1:?,Y,,0.924
2769,1:?,Y,,0.865
2770,1:?,N,,0.791
2771,1:?,N,,0.878
2772,1:?,Y,,0.525
2773,1:?,N,,0.632
2774,1:?,Y,,0.509
2775,1:?,N,,0.647
2776,1:?,Y,,0.812
2777,1:?,Y,,0.695
2778,1:?,N,,0.914
2779,1:?,N,,0.953
2780,1:?,N,,0.718
2781,1:?,N,,0.828
2782,1:?,N,,0.866
2783,1:?,N,,0.925
2784,1:?,N,,0.608
2785,1:?,N,,0.746
2786,1:?,N,,0.986
2787,1:?,N,,0.993
2788,1:?,N,,0.945
2789,1:?,N,,0.97
2790,1:?,N,,0.948
2791,1:?,N,,0.972
2792,1:?,N,,0.813
2793,1:?,N,,0.892
2794,1:?,N,,0.995
2795,1:?,N,,0.997
2796,1:?,N,,0.98
2797,1:?,N,,0.989
2798,1:?,N,,0.942
2799,1:?,N,,0.969
2800,1:?,N,,0.796
2801,1:?,N,,0.881
2802,1:?,N,,0.994
2803,1:?,N,,0.997
2804,1:?,N,,0.977
2805,1:?,N,,0.988
2806,1:?,N,,0.979
2807,1:?,N,,0.989
2808,1:?,N,,0.916
2809,1:?,N,,0.954
2810,1:?,N,,0.998
2811,1:?,N,,0.999
2812,1:?,N,,0.992
2813,1:?,N,,0.996
2814,1:?,Y,,0.983
2815,1:?,Y,,0.967
2816,1:?,Y,,0.996
2817,1:?,Y,,0.992
2818,1:?,Y,,0.837
2819,1:?,Y,,0.73
2820,1:?,Y,,0.955
2821,1:?,Y,,0.919
2822,1:?,Y,,0.952
2823,1:?,Y,,0.914
2824,1:?,Y,,0.988
2825,1:?,Y,,0.978
2826,1:?,Y,,0.646
2827,1:?,N,,0.51
2828,1:?,Y,,0.884
2829,1:?,Y,,0.8
2830,1:?,Y,,0.957
2831,1:?,Y,,0.922
2832,1:?,Y,,0.989
2833,1:?,Y,,0.98
2834,1:?,Y,,0.67
2835,1:?,Y,,0.518
2836,1:?,Y,,0.895
2837,1:?,Y,,0.818
2838,1:?,Y,,0.888
2839,1:?,Y,,0.808
2840,1:?,Y,,0.971
2841,1:?,Y,,0.946
2842,1:?,N,,0.58
2843,1:?,N,,0.724
2844,1:?,Y,,0.751
2845,1:?,Y,,0.615
2846,1:?,Y,,0.543
2847,1:?,N,,0.615
2848,1:?,Y,,0.832
2849,1:?,Y,,0.724
2850,1:?,N,,0.903
2851,1:?,N,,0.946
2852,1:?,N,,0.689
2853,1:?,N,,0.808
2854,1:?,N,,0.703
2855,1:?,N,,0.818
2856,1:?,Y,,0.638
2857,1:?,N,,0.518
2858,1:?,N,,0.963
2859,1:?,N,,0.862
2860,1:?,N,,0.922
2861,1:?,N,,0.679
2862,1:?,N,,0.8
2863,1:?,Y,,0.664
2864,1:?,Y,,0.51
2865,1:?,N,,0.959
2866,1:?,N,,0.978
2867,1:?,N,,0.848
2868,1:?,N,,0.914
2869,1:?,N,,0.856
2870,1:?,N,,0.919
2871,1:?,N,,0.588
2872,1:?,N,,0.73
2873,1:?,N,,0.985
2874,1:?,N,,0.992
2875,1:?,N,,0.94
2876,1:?,N,,0.967
2877,1:?,Y,,0.568
2878,1:?,N,,0.591
2879,1:?,Y,,0.846
2880,1:?,Y,,0.743
2881,1:?,N,,0.893
2882,1:?,N,,0.941
2883,1:?,N,,0.668
2884,1:?,N,,0.792
2885,1:?,N,,0.682
2886,1:?,N,,0.802
2887,1:?,Y,,0.661
2888,1:?,Y,,0.507
2889,1:?,N,,0.959
2890,1:?,N,,0.978
2891,1:?,N,,0.849
2892,1:?,N,,0.914
2893,1:?,N,,0.657
2894,1:?,N,,0.784
2895,1:?,Y,,0.685
2896,1:?,Y,,0.535
2897,1:?,N,,0.955
2898,1:?,N,,0.835
2899,1:?,N,,0.905
2900,1:?,N,,0.843
2901,1:?,N,,0.911
2902,1:?,N,,0.563
2903,1:?,N,,0.71
2904,1:?,N,,0.983
2905,1:?,N,,0.934
2906,1:?,N,,0.964
2907,1:?,N,,0.973
2908,1:?,N,,0.986
2909,1:?,N,,0.896
2910,1:?,N,,0.942
2911,1:?,N,,0.997
2912,1:?,N,,0.999
2913,1:?,N,,0.99
2914,1:?,N,,0.994
2915,1:?,N,,0.99
2916,1:?,N,,0.995
2917,1:?,N,,0.96
2918,1:?,N,,0.979
2919,1:?,N,,0.999
2920,1:?,N,,1
2921,1:?,N,,0.996
2922,1:?,N,,0.998
2923,1:?,N,,0.989
2924,1:?,N,,0.994
2925,1:?,N,,0.956
2926,1:?,N,,0.976
2927,1:?,N,,0.999
2928,1:?,N,,0.999
2929,1:?,N,,0.996
2930,1:?,N,,0.998
2931,1:?,N,,0.996
2932,1:?,N,,0.998
2933,1:?,N,,0.984
2934,1:?,N,,0.991
2935,1:?,N,,1
2936,1:?,N,,1
2937,1:?,N,,0.999
2938,1:?,N,,0.999
2939,1:?,Y,,0.91
2940,1:?,Y,,0.842
2941,1:?,Y,,0.977
2942,1:?,Y,,0.957
2943,1:?,N,,0.521
2944,1:?,N,,0.674
2945,1:?,Y,,0.793
2946,1:?,Y,,0.669
2947,1:?,Y,,0.782
2948,1:?,Y,,0.655
2949,1:?,Y,,0.938
2950,1:?,Y,,0.888
2951,1:?,N,,0.754
2952,1:?,N,,0.853
2953,1:?,Y,,0.577
2954,1:?,N,,0.581
2955,1:?,Y,,0.801
2956,1:?,Y,,0.679
2957,1:?,Y,,0.944
2958,1:?,Y,,0.898
2959,1:?,N,,0.733
2960,1:?,N,,0.838
2961,1:?,Y,,0.604
2962,1:?,N,,0.554
2963,1:?,Y,,0.588
2964,1:?,N,,0.57
2965,1:?,Y,,0.857
2966,1:?,Y,,0.759
2967,1:?,N,,0.885
2968,1:?,N,,0.936
2969,1:?,N,,0.648
2970,1:?,N,,0.777
2971,1:?,N,,0.824
2972,1:?,N,,0.899
2973,1:?,N,,0.529
2974,1:?,N,,0.68
2975,1:?,N,,0.981
2976,1:?,N,,0.99
2977,1:?,N,,0.925
2978,1:?,N,,0.959
2979,1:?,N,,0.929
2980,1:?,N,,0.961
2981,1:?,N,,0.759
2982,1:?,N,,0.857
2983,1:?,N,,0.993
2984,1:?,N,,0.996
2985,1:?,N,,0.972
2986,1:?,N,,0.985
2987,1:?,N,,0.922
2988,1:?,N,,0.957
2989,1:?,N,,0.739
2990,1:?,N,,0.843
2991,1:?,N,,0.992
2992,1:?,N,,0.996
2993,1:?,N,,0.969
2994,1:?,N,,0.983
2995,1:?,N,,0.971
2996,1:?,N,,0.984
2997,1:?,N,,0.888
2998,1:?,N,,0.938
2999,1:?,N,,0.997
3000,1:?,N,,0.989
3001,1:?,N,,0.994
3002,1:?,N,,0.75
3003,1:?,N,,0.851
3004,1:?,Y,,0.581
3005,1:?,N,,0.971
3006,1:?,N,,0.984
3007,1:?,N,,0.888
3008,1:?,N,,0.938
3009,1:?,N,,0.894
3010,1:?,N,,0.941
3011,1:?,N,,0.669
3012,1:?,N,,0.793
3013,1:?,N,,0.989
3014,1:?,N,,0.994
3015,1:?,N,,0.957
3016,1:?,N,,0.977
3017,1:?,N,,0.883
3018,1:?,N,,0.935
3019,1:?,N,,0.644
3020,1:?,N,,0.774
3021,1:?,N,,0.988
3022,1:?,N,,0.994
3023,1:?,N,,0.952
3024,1:?,N,,0.974
3025,1:?,N,,0.955
3026,1:?,N,,0.976
3027,1:?,N,,0.836
3028,1:?,N,,0.906
3029,1:?,N,,0.996
3030,1:?,N,,0.998
3031,1:?,N,,0.982
3032,1:?,N,,0.991
3033,1:?,N,,0.993
3034,1:?,N,,0.996
3035,1:?,N,,0.972
3036,1:?,N,,0.985
3037,1:?,N,,0.999
3038,1:?,N,,1
3039,1:?,N,,0.997
3040,1:?,N,,0.999
3041,1:?,N,,0.998
3042,1:?,N,,0.999
3043,1:?,N,,0.99
3044,1:?,N,,0.995
3045,1:?,N,,1
3046,1:?,N,,1
3047,1:?,N,,0.999
3048,1:?,N,,1
3049,1:?,N,,0.997
3050,1:?,N,,0.999
3051,1:?,N,,0.988
3052,1:?,N,,0.994
3053,1:?,N,,1
3054,1:?,N,,1
3055,1:?,N,,0.999
3056,1:?,N,,0.999
3057,1:?,N,,0.999
3058,1:?,N,,0.999
3059,1:?,N,,0.996
3060,1:?,N,,0.998
3061,1:?,N,,1
3062,1:?,N,,1
3063,1:?,N,,1
3064,1:?,N,,1
3065,1:?,Y,,0.719
3066,1:?,Y,,0.575
3067,1:?,Y,,0.914
3068,1:?,Y,,0.849
3069,1:?,N,,0.811
3070,1:?,N,,0.891
3071,1:?,N,,0.507
3072,1:?,N,,0.661
3073,1:?,N,,0.523
3074,1:?,N,,0.675
3075,1:?,Y,,0.792
3076,1:?,Y,,0.667
3077,1:?,N,,0.924
3078,1:?,N,,0.958
3079,1:?,N,,0.743
3080,1:?,N,,0.846
3081,1:?,Y,,0.504
3082,1:?,N,,0.651
3083,1:?,Y,,0.809
3084,1:?,Y,,0.691
3085,1:?,N,,0.915
3086,1:?,N,,0.953
3087,1:?,N,,0.721
3088,1:?,N,,0.831
3089,1:?,N,,0.734
3090,1:?,N,,0.84
3091,1:?,Y,,0.602
3092,1:?,N,,0.556
3093,1:?,N,,0.968
3094,1:?,N,,0.983
3095,1:?,N,,0.879
3096,1:?,N,,0.932
3097,1:?,N,,0.949
3098,1:?,N,,0.972
3099,1:?,N,,0.816
3100,1:?,N,,0.995
3101,1:?,N,,0.997
3102,1:?,N,,0.98
3103,1:?,N,,0.989
3104,1:?,N,,0.981
3105,1:?,N,,0.99
3106,1:?,N,,0.926
3107,1:?,N,,0.959
3108,1:?,N,,0.998
3109,1:?,N,,0.999
3110,1:?,N,,0.993
3111,1:?,N,,0.996
3112,1:?,N,,0.979
3113,1:?,N,,0.989
3114,1:?,N,,0.918
3115,1:?,N,,0.955
3116,1:?,N,,0.998
3117,1:?,N,,0.999
3118,1:?,N,,0.992
3119,1:?,N,,0.996
3120,1:?,N,,0.992
3121,1:?,N,,0.996
3122,1:?,N,,0.969
3123,1:?,N,,0.983
3124,1:?,N,,0.999
3125,1:?,N,,1
3126,1:?,N,,0.997
3127,1:?,N,,0.998
3128,1:?,N,,0.944
3129,1:?,N,,0.969
3130,1:?,N,,0.801
3131,1:?,N,,0.884
3132,1:?,N,,0.995
3133,1:?,N,,0.997
3134,1:?,N,,0.978
3135,1:?,N,,0.988
3136,1:?,N,,0.979
3137,1:?,N,,0.989
3138,1:?,N,,0.919
3139,1:?,N,,0.955
3140,1:?,N,,0.998
3141,1:?,N,,0.999
3142,1:?,N,,0.992
3143,1:?,N,,0.996
3144,1:?,N,,0.977
3145,1:?,N,,0.988
3146,1:?,N,,0.91
3147,1:?,N,,0.998
3148,1:?,N,,0.999
3149,1:?,N,,0.991
3150,1:?,N,,0.995
3151,1:?,N,,0.992
3152,1:?,N,,0.996
3153,1:?,N,,0.966
3154,1:?,N,,0.982
3155,1:?,N,,0.999
3156,1:?,N,,1
3157,1:?,N,,0.997
3158,1:?,N,,0.998
3159,1:?,N,,0.999
3160,1:?,N,,0.999
3161,1:?,N,,0.995
3162,1:?,N,,0.997
3163,1:?,N,,1
3164,1:?,N,,1
3165,1:?,N,,1
3166,1:?,N,,1
3167,1:?,N,,1
3168,1:?,N,,1
3169,1:?,N,,0.998
3170,1:?,N,,0.999
3171,1:?,N,,1
3172,1:?,N,,1
3173,1:?,N,,1
3174,1:?,N,,1
3175,1:?,N,,0.999
3176,1:?,N,,1
3177,1:?,N,,0.998
3178,1:?,N,,0.999
3179,1:?,N,,1
3180,1:?,N,,1
3181,1:?,N,,1
3182,1:?,N,,1
3183,1:?,N,,1
3184,1:?,N,,1
3185,1:?,N,,0.999
3186,1:?,N,,1
3187,1:?,N,,1
3188,1:?,N,,1
3189,1:?,N,,1
3190,1:?,N,,1
3191,1:?,N,,0.685
3192,1:?,N,,0.805
3193,1:?,Y,,0.657
3194,1:?,Y,,0.503
3195,1:?,N,,0.96
3196,1:?,N,,0.978
3197,1:?,N,,0.852
3198,1:?,N,,0.916
3199,1:?,N,,0.859
3200,1:?,N,,0.921
3201,1:?,N,,0.594
3202,1:?,N,,0.735
3203,1:?,N,,0.985
3204,1:?,N,,0.992
3205,1:?,N,,0.942
3206,1:?,N,,0.968
3207,1:?,N,,0.846
3208,1:?,N,,0.912
3209,1:?,N,,0.567
3210,1:?,N,,0.713
3211,1:?,N,,0.984
3212,1:?,N,,0.991
3213,1:?,N,,0.935
3214,1:?,N,,0.965
3215,1:?,N,,0.939
3216,1:?,N,,0.967
3217,1:?,N,,0.787
3218,1:?,N,,0.875
3219,1:?,N,,0.994
3220,1:?,N,,0.997
3221,1:?,N,,0.976
3222,1:?,N,,0.987
3223,1:?,N,,0.99
3224,1:?,N,,0.995
3225,1:?,N,,0.961
3226,1:?,N,,0.979
3227,1:?,N,,0.999
3228,1:?,N,,1
3229,1:?,N,,0.996
3230,1:?,N,,0.998
3231,1:?,N,,0.997
3232,1:?,N,,0.998
3233,1:?,N,,0.986
3234,1:?,N,,0.992
3235,1:?,N,,1
3236,1:?,N,,1
3237,1:?,N,,0.999
3238,1:?,N,,0.999
3239,1:?,N,,0.996
3240,1:?,N,,0.998
3241,1:?,N,,0.984
3242,1:?,N,,1
3243,1:?,N,,1
3244,1:?,N,,0.999
3245,1:?,N,,0.999
3246,1:?,N,,0.999
3247,1:?,N,,0.999
3248,1:?,N,,0.994
3249,1:?,N,,0.997
3250,1:?,N,,1
3251,1:?,N,,1
3252,1:?,N,,0.999
3253,1:?,N,,1
3254,1:?,N,,0.869
3255,1:?,N,,0.926
3256,1:?,N,,0.614
3257,1:?,N,,0.751
3258,1:?,N,,0.986
3259,1:?,N,,0.993
3260,1:?,N,,0.946
3261,1:?,N,,0.971
3262,1:?,N,,0.949
3263,1:?,N,,0.972
3264,1:?,N,,0.817
3265,1:?,N,,0.995
3266,1:?,N,,0.997
3267,1:?,N,,0.98
3268,1:?,N,,0.989
3269,1:?,N,,0.943
3270,1:?,N,,0.969
3271,1:?,N,,0.8
3272,1:?,N,,0.883
3273,1:?,N,,0.995
3274,1:?,N,,0.997
3275,1:?,N,,0.978
3276,1:?,N,,0.988
3277,1:?,N,,0.979
3278,1:?,N,,0.989
3279,1:?,N,,0.918
3280,1:?,N,,0.955
3281,1:?,N,,0.998
3282,1:?,N,,0.999
3283,1:?,N,,0.992
3284,1:?,N,,0.996
3285,1:?,N,,0.997
3286,1:?,N,,0.998
3287,1:?,N,,0.987
3288,1:?,N,,0.993
3289,1:?,N,,1
3290,1:?,N,,1
3291,1:?,N,,0.999
3292,1:?,N,,0.999
3293,1:?,N,,0.999
3294,1:?,N,,0.999
3295,1:?,N,,0.995
3296,1:?,N,,0.998
3297,1:?,N,,1
3298,1:?,N,,1
3299,1:?,N,,1
3300,1:?,N,,1
3301,1:?,N,,0.999
3302,1:?,N,,0.999
3303,1:?,N,,0.995
3304,1:?,N,,0.997
3305,1:?,N,,1
3306,1:?,N,,1
3307,1:?,N,,1
3308,1:?,N,,1
3309,1:?,N,,1
3310,1:?,N,,1
3311,1:?,N,,0.998
3312,1:?,N,,0.999
3313,1:?,N,,1
3314,1:?,N,,1
3315,1:?,N,,1
3316,1:?,N,,1
3317,1:?,Y,,0.537
3318,1:?,N,,0.62
3319,1:?,Y,,0.829
3320,1:?,Y,,0.719
3321,1:?,N,,0.904
3322,1:?,N,,0.947
3323,1:?,N,,0.694
3324,1:?,N,,0.811
3325,1:?,N,,0.707
3326,1:?,N,,0.821
3327,1:?,Y,,0.633
3328,1:?,N,,0.523
3329,1:?,N,,0.964
3330,1:?,N,,0.981
3331,1:?,N,,0.864
3332,1:?,N,,0.924
3333,1:?,N,,0.684
3334,1:?,N,,0.804
3335,1:?,Y,,0.658
3336,1:?,Y,,0.504
3337,1:?,N,,0.96
3338,1:?,N,,0.978
3339,1:?,N,,0.851
3340,1:?,N,,0.915
3341,1:?,N,,0.859
3342,1:?,N,,0.92
3343,1:?,N,,0.593
3344,1:?,N,,0.734
3345,1:?,N,,0.985
3346,1:?,N,,0.992
3347,1:?,N,,0.941
3348,1:?,N,,0.968
3349,1:?,N,,0.976
3350,1:?,N,,0.987
3351,1:?,N,,0.907
3352,1:?,N,,0.949
3353,1:?,N,,0.998
3354,1:?,N,,0.999
3355,1:?,N,,0.991
3356,1:?,N,,0.995
3357,1:?,N,,0.991
3358,1:?,N,,0.995
3359,1:?,N,,0.965
3360,1:?,N,,0.999
3361,1:?,N,,1
3362,1:?,N,,0.997
3363,1:?,N,,0.998
3364,1:?,N,,0.99
3365,1:?,N,,0.995
3366,1:?,N,,0.961
3367,1:?,N,,0.979
3368,1:?,N,,0.999
3369,1:?,N,,1
3370,1:?,N,,0.996
3371,1:?,N,,0.998
3372,1:?,N,,0.997
3373,1:?,N,,0.998
3374,1:?,N,,0.986
3375,1:?,N,,0.992
3376,1:?,N,,1
3377,1:?,N,,1
3378,1:?,N,,0.999
3379,1:?,N,,0.999
3380,1:?,N,,0.974
3381,1:?,N,,0.986
3382,1:?,N,,0.898
3383,1:?,N,,0.944
3384,1:?,N,,0.998
3385,1:?,N,,0.999
3386,1:?,N,,0.99
3387,1:?,N,,0.995
3388,1:?,N,,0.99
3389,1:?,N,,0.995
3390,1:?,N,,0.961
3391,1:?,N,,0.979
3392,1:?,N,,0.999
3393,1:?,N,,1
3394,1:?,N,,0.996
3395,1:?,N,,0.998
3396,1:?,N,,0.989
3397,1:?,N,,0.994
3398,1:?,N,,0.957
3399,1:?,N,,0.977
3400,1:?,N,,0.999
3401,1:?,N,,0.999
3402,1:?,N,,0.996
3403,1:?,N,,0.998
3404,1:?,N,,0.996
3405,1:?,N,,0.998
3406,1:?,N,,0.984
3407,1:?,N,,1
3408,1:?,N,,1
3409,1:?,N,,0.999
3410,1:?,N,,0.999
3411,1:?,N,,0.999
3412,1:?,N,,1
3413,1:?,N,,0.998
3414,1:?,N,,0.999
3415,1:?,N,,1
3416,1:?,N,,1
3417,1:?,N,,1
3418,1:?,N,,1
3419,1:?,N,,1
3420,1:?,N,,1
3421,1:?,N,,0.999
3422,1:?,N,,1
3423,1:?,N,,1
3424,1:?,N,,1
3425,1:?,N,,1
3426,1:?,N,,1
3427,1:?,N,,1
3428,1:?,N,,1
3429,1:?,N,,0.999
3430,1:?,N,,0.999
3431,1:?,N,,1
3432,1:?,N,,1
3433,1:?,N,,1
3434,1:?,N,,1
3435,1:?,N,,1
3436,1:?,N,,1
3437,1:?,N,,1
3438,1:?,N,,1
3439,1:?,N,,1
3440,1:?,N,,1
3441,1:?,N,,1
3442,1:?,N,,1
3443,1:?,N,,0.828
3444,1:?,N,,0.901
3445,1:?,N,,0.535
3446,1:?,N,,0.685
3447,1:?,N,,0.981
3448,1:?,N,,0.99
3449,1:?,N,,0.927
3450,1:?,N,,0.96
3451,1:?,N,,0.931
3452,1:?,N,,0.962
3453,1:?,N,,0.764
3454,1:?,N,,0.86
3455,1:?,N,,0.993
3456,1:?,N,,0.996
3457,1:?,N,,0.973
3458,1:?,N,,0.985
3459,1:?,N,,0.923
3460,1:?,N,,0.958
3461,1:?,N,,0.743
3462,1:?,N,,0.846
3463,1:?,N,,0.993
3464,1:?,N,,0.996
3465,1:?,N,,0.97
3466,1:?,N,,0.984
3467,1:?,N,,0.971
3468,1:?,N,,0.985
3469,1:?,N,,0.89
3470,1:?,N,,0.939
3471,1:?,N,,0.997
3472,1:?,N,,0.999
3473,1:?,N,,0.989
3474,1:?,N,,0.994
3475,1:?,N,,0.996
3476,1:?,N,,0.998
3477,1:?,N,,0.982
3478,1:?,N,,0.99
3479,1:?,N,,1
3480,1:?,N,,1
3481,1:?,N,,0.998
3482,1:?,N,,0.999
3483,1:?,N,,0.998
3484,1:?,N,,0.999
3485,1:?,N,,0.994
3486,1:?,N,,0.997
3487,1:?,N,,1
3488,1:?,N,,1
3489,1:?,N,,0.999
3490,1:?,N,,1
3491,1:?,N,,0.998
3492,1:?,N,,0.999
3493,1:?,N,,0.993
3494,1:?,N,,0.996
3495,1:?,N,,1
3496,1:?,N,,1
3497,1:?,N,,0.999
3498,1:?,N,,1
3499,1:?,N,,0.999
3500,1:?,N,,1
3501,1:?,N,,0.997
3502,1:?,N,,1
3503,1:?,N,,1
3504,1:?,N,,1
3505,1:?,N,,1
3506,1:?,Y,,0.949
3507,1:?,Y,,0.908
3508,1:?,N,,0.71
3509,1:?,N,,0.823
3510,1:?,Y,,0.63
3511,1:?,Y,,0.615
3512,1:?,N,,0.542
3513,1:?,Y,,0.87
3514,1:?,Y,,0.779
3515,1:?,N,,0.873
3516,1:?,N,,0.929
3517,1:?,N,,0.622
3518,1:?,N,,0.757
3519,1:?,Y,,0.641
3520,1:?,N,,0.515
3521,1:?,Y,,0.882
3522,1:?,Y,,0.797
3523,1:?,N,,0.86
3524,1:?,N,,0.921
3525,1:?,N,,0.596
3526,1:?,N,,0.737
3527,1:?,N,,0.611
3528,1:?,N,,0.749
3529,1:?,Y,,0.726
3530,1:?,Y,,0.583
3531,1:?,N,,0.945
3532,1:?,N,,0.97
3533,1:?,N,,0.806
3534,1:?,N,,0.887
3535,1:?,N,,0.913
3536,1:?,N,,0.952
3537,1:?,N,,0.716
3538,1:?,N,,0.827
3539,1:?,N,,0.991
3540,1:?,N,,0.995
3541,1:?,N,,0.965
3542,1:?,N,,0.981
3543,1:?,N,,0.967
3544,1:?,N,,0.982
3545,1:?,N,,0.876
3546,1:?,N,,0.931
3547,1:?,N,,0.997
3548,1:?,N,,0.998
3549,1:?,N,,0.987
3550,1:?,N,,0.993
3551,1:?,N,,0.964
3552,1:?,N,,0.98
3553,1:?,N,,0.864
3554,1:?,N,,0.923
3555,1:?,N,,0.997
3556,1:?,N,,0.998
3557,1:?,N,,0.986
3558,1:?,N,,0.993
3559,1:?,N,,0.987
3560,1:?,N,,0.993
3561,1:?,N,,0.947
3562,1:?,N,,0.971
3563,1:?,N,,0.999
3564,1:?,N,,0.999
3565,1:?,N,,0.995
3566,1:?,N,,0.997
3567,1:?,Y,,0.972
3568,1:?,Y,,0.948
3569,1:?,Y,,0.993
3570,1:?,Y,,0.987
3571,1:?,Y,,0.759
3572,1:?,Y,,0.624
3573,1:?,Y,,0.929
3574,1:?,Y,,0.874
3575,1:?,Y,,0.925
3576,1:?,Y,,0.867
3577,1:?,Y,,0.981
3578,1:?,Y,,0.964
3579,1:?,Y,,0.528
3580,1:?,N,,0.629
3581,1:?,Y,,0.824
3582,1:?,Y,,0.711
3583,1:?,Y,,0.932
3584,1:?,Y,,0.879
3585,1:?,Y,,0.983
3586,1:?,Y,,0.968
3587,1:?,Y,,0.556
3588,1:?,N,,0.603
3589,1:?,Y,,0.839
3590,1:?,Y,,0.734
3591,1:?,Y,,0.83
3592,1:?,Y,,0.721
3593,1:?,Y,,0.953
3594,1:?,Y,,0.915
3595,1:?,N,,0.692
3596,1:?,N,,0.81
3597,1:?,Y,,0.65
3598,1:?,N,,0.505
3599,1:?,N,,0.578
3600,1:?,N,,0.722
3601,1:?,Y,,0.753
3602,1:?,Y,,0.617
3603,1:?,N,,0.938
3604,1:?,N,,0.966
3605,1:?,N,,0.783
3606,1:?,N,,0.794
3607,1:?,N,,0.879
3608,1:?,Y,,0.52
3609,1:?,N,,0.636
3610,1:?,N,,0.977
3611,1:?,N,,0.988
3612,1:?,N,,0.91
3613,1:?,N,,0.951
3614,1:?,N,,0.775
3615,1:?,N,,0.867
3616,1:?,Y,,0.548
3617,1:?,N,,0.61
3618,1:?,N,,0.974
3619,1:?,N,,0.986
3620,1:?,N,,0.901
3621,1:?,N,,0.945
3622,1:?,N,,0.906
3623,1:?,N,,0.948
3624,1:?,N,,0.699
3625,1:?,N,,0.815
3626,1:?,N,,0.991
3627,1:?,N,,0.995
3628,1:?,N,,0.962
3629,1:?,N,,0.98
3630,1:?,N,,0.554
3631,1:?,N,,0.702
3632,1:?,Y,,0.771
3633,1:?,Y,,0.64
3634,1:?,N,,0.932
3635,1:?,N,,0.963
3636,1:?,N,,0.766
3637,1:?,N,,0.861
3638,1:?,N,,0.777
3639,1:?,N,,0.868
3640,1:?,Y,,0.545
3641,1:?,N,,0.613
3642,1:?,N,,0.975
3643,1:?,N,,0.986
3644,1:?,N,,0.902
3645,1:?,N,,0.946
3646,1:?,N,,0.757
3647,1:?,N,,0.855
3648,1:?,Y,,0.572
3649,1:?,N,,0.586
3650,1:?,N,,0.972
3651,1:?,N,,0.892
3652,1:?,N,,0.898
3653,1:?,N,,0.943
3654,1:?,N,,0.677
3655,1:?,N,,0.799
3656,1:?,N,,0.99
3657,1:?,N,,0.995
3658,1:?,N,,0.958
3659,1:?,N,,0.978
3660,1:?,N,,0.983
3661,1:?,N,,0.991
3662,1:?,N,,0.934
3663,1:?,N,,0.964
3664,1:?,N,,0.998
3665,1:?,N,,0.999
3666,1:?,N,,0.994
3667,1:?,N,,0.997
3668,1:?,N,,0.994
3669,1:?,N,,0.997
3670,1:?,N,,0.975
3671,1:?,N,,0.987
3672,1:?,N,,0.999
3673,1:?,N,,1
3674,1:?,N,,0.998
3675,1:?,N,,0.999
3676,1:?,N,,0.993
3677,1:?,N,,0.996
3678,1:?,N,,0.973
3679,1:?,N,,0.985
3680,1:?,N,,0.999
3681,1:?,N,,1
3682,1:?,N,,0.997
3683,1:?,N,,0.999
3684,1:?,N,,0.998
3685,1:?,N,,0.999
3686,1:?,N,,0.99
3687,1:?,N,,0.995
3688,1:?,N,,1
3689,1:?,N,,1
3690,1:?,N,,0.999
3691,1:?,N,,1
3692,1:?,Y,,0.861
3693,1:?,Y,,0.766
3694,1:?,Y,,0.963
3695,1:?,Y,,0.932
3696,1:?,N,,0.639
3697,1:?,N,,0.771
3698,1:?,Y,,0.702
3699,1:?,Y,,0.554
3700,1:?,Y,,0.688
3701,1:?,Y,,0.538
3702,1:?,Y,,0.902
3703,1:?,Y,,0.83
3704,1:?,N,,0.833
3705,1:?,N,,0.904
3706,1:?,N,,0.544
3707,1:?,N,,0.693
3708,1:?,Y,,0.712
3709,1:?,Y,,0.566
3710,1:?,Y,,0.912
3711,1:?,Y,,0.845
3712,1:?,N,,0.817
3713,1:?,N,,0.894
3714,1:?,N,,0.516
3715,1:?,N,,0.669
3716,1:?,N,,0.532
3717,1:?,N,,0.683
3718,1:?,Y,,0.786
3719,1:?,Y,,0.659
3720,1:?,N,,0.926
3721,1:?,N,,0.96
3722,1:?,N,,0.75
3723,1:?,N,,0.85
3724,1:?,N,,0.884
3725,1:?,N,,0.935
3726,1:?,N,,0.646
3727,1:?,N,,0.776
3728,1:?,N,,0.988
3729,1:?,N,,0.994
3730,1:?,N,,0.953
3731,1:?,N,,0.974
3732,1:?,N,,0.955
3733,1:?,N,,0.976
3734,1:?,N,,0.837
3735,1:?,N,,0.907
3736,1:?,N,,0.996
3737,1:?,N,,0.998
3738,1:?,N,,0.983
3739,1:?,N,,0.991
3740,1:?,N,,0.95
3741,1:?,N,,0.973
3742,1:?,N,,0.821
3743,1:?,N,,0.897
3744,1:?,N,,0.995
3745,1:?,N,,0.998
3746,1:?,N,,0.981
3747,1:?,N,,0.982
3748,1:?,N,,0.99
3749,1:?,N,,0.928
3750,1:?,N,,0.961
3751,1:?,N,,0.998
3752,1:?,N,,0.999
3753,1:?,N,,0.993
3754,1:?,N,,0.996
3755,1:?,Y,,0.895
3756,1:?,Y,,0.818
3757,1:?,N,,0.844
3758,1:?,N,,0.911
3759,1:?,N,,0.564
3760,1:?,N,,0.71
3761,1:?,N,,0.579
3762,1:?,N,,0.723
3763,1:?,Y,,0.752
3764,1:?,Y,,0.615
3765,1:?,N,,0.938
3766,1:?,N,,0.966
3767,1:?,N,,0.784
3768,1:?,N,,0.552
3769,1:?,N,,0.7
3770,1:?,Y,,0.772
3771,1:?,Y,,0.641
3772,1:?,N,,0.931
3773,1:?,N,,0.963
3774,1:?,N,,0.765
3775,1:?,N,,0.86
3776,1:?,N,,0.776
3777,1:?,N,,0.868
3778,1:?,Y,,0.546
3779,1:?,N,,0.611
3780,1:?,N,,0.974
3781,1:?,N,,0.986
3782,1:?,N,,0.901
3783,1:?,N,,0.945
3784,1:?,N,,0.959
3785,1:?,N,,0.978
3786,1:?,N,,0.848
3787,1:?,N,,0.913
3788,1:?,N,,0.996
3789,1:?,N,,0.998
3790,1:?,N,,0.984
3791,1:?,N,,0.991
3792,1:?,N,,0.985
3793,1:?,N,,0.992
3794,1:?,N,,0.94
3795,1:?,N,,0.967
3796,1:?,N,,0.999
3797,1:?,N,,0.999
3798,1:?,N,,0.994
3799,1:?,N,,0.997
3800,1:?,N,,0.983
3801,1:?,N,,0.991
3802,1:?,N,,0.933
3803,1:?,N,,0.964
3804,1:?,N,,0.998
3805,1:?,N,,0.999
3806,1:?,N,,0.994
3807,1:?,N,,0.997
3808,1:?,N,,0.994
3809,1:?,N,,0.997
3810,1:?,N,,0.975
3811,1:?,N,,0.987
3812,1:?,N,,0.999
3813,1:?,N,,1
3814,1:?,N,,0.998
3815,1:?,N,,0.999
3816,1:?,Y,,0.94
3817,1:?,Y,,0.892
3818,1:?,Y,,0.985
3819,1:?,Y,,0.972
3820,1:?,Y,,0.588
3821,1:?,N,,0.57
3822,1:?,Y,,0.856
3823,1:?,Y,,0.759
3824,1:?,Y,,0.848
3825,1:?,Y,,0.747
3826,1:?,Y,,0.959
3827,1:?,Y,,0.925
3828,1:?,N,,0.663
3829,1:?,N,,0.789
3830,1:?,Y,,0.68
3831,1:?,Y,,0.528
3832,1:?,Y,,0.862
3833,1:?,Y,,0.767
3834,1:?,Y,,0.963
3835,1:?,Y,,0.932
3836,1:?,N,,0.638
3837,1:?,N,,0.77
3838,1:?,Y,,0.703
3839,1:?,Y,,0.555
3840,1:?,Y,,0.69
3841,1:?,Y,,0.54
3842,1:?,Y,,0.903
3843,1:?,Y,,0.83
3844,1:?,N,,0.832
3845,1:?,N,,0.904
3846,1:?,N,,0.543
3847,1:?,N,,0.692
3848,1:?,N,,0.751
3849,1:?,N,,0.851
3850,1:?,Y,,0.58
3851,1:?,N,,0.578
3852,1:?,N,,0.971
3853,1:?,N,,0.984
3854,1:?,N,,0.888
3855,1:?,N,,0.938
3856,1:?,N,,0.895
3857,1:?,N,,0.941
3858,1:?,N,,0.67
3859,1:?,N,,0.794
3860,1:?,N,,0.989
3861,1:?,N,,0.994
3862,1:?,N,,0.957
3863,1:?,N,,0.884
3864,1:?,N,,0.935
3865,1:?,N,,0.645
3866,1:?,N,,0.775
3867,1:?,N,,0.988
3868,1:?,N,,0.994
3869,1:?,N,,0.952
3870,1:?,N,,0.974
3871,1:?,N,,0.955
3872,1:?,N,,0.976
3873,1:?,N,,0.836
3874,1:?,N,,0.906
3875,1:?,N,,0.996
3876,1:?,N,,0.998
3877,1:?,N,,0.983
3878,1:?,N,,0.991
3879,1:?,N,,0.732
3880,1:?,N,,0.838
3881,1:?,Y,,0.604
3882,1:?,N,,0.554
3883,1:?,N,,0.968
3884,1:?,N,,0.983
3885,1:?,N,,0.878
3886,1:?,N,,0.932
3887,1:?,N,,0.885
3888,1:?,N,,0.936
3889,1:?,N,,0.648
3890,1:?,N,,0.777
3891,1:?,N,,0.988
3892,1:?,N,,0.994
3893,1:?,N,,0.953
3894,1:?,N,,0.975
3895,1:?,N,,0.873
3896,1:?,N,,0.929
3897,1:?,N,,0.622
3898,1:?,N,,0.757
3899,1:?,N,,0.987
3900,1:?,N,,0.993
3901,1:?,N,,0.948
3902,1:?,N,,0.972
3903,1:?,N,,0.951
3904,1:?,N,,0.973
3905,1:?,N,,0.822
3906,1:?,N,,0.898
3907,1:?,N,,0.995
3908,1:?,N,,0.998
3909,1:?,N,,0.981
3910,1:?,N,,0.992
3911,1:?,N,,0.996
3912,1:?,N,,0.969
3913,1:?,N,,0.983
3914,1:?,N,,0.999
3915,1:?,N,,1
3916,1:?,N,,0.997
3917,1:?,N,,0.998
3918,1:?,N,,0.997
3919,1:?,N,,0.999
3920,1:?,N,,0.989
3921,1:?,N,,0.994
3922,1:?,N,,1
3923,1:?,N,,1
3924,1:?,N,,0.999
3925,1:?,N,,0.999
3926,1:?,N,,0.997
3927,1:?,N,,0.998
3928,1:?,N,,0.987
3929,1:?,N,,0.993
3930,1:?,N,,1
3931,1:?,N,,1
3932,1:?,N,,0.999
3933,1:?,N,,0.999
3934,1:?,N,,0.999
3935,1:?,N,,0.999
3936,1:?,N,,0.995
3937,1:?,N,,0.998
3938,1:?,N,,1
3939,1:?,N,,1
3940,1:?,N,,1
3941,1:?,N,,1
3942,1:?,Y,,0.738
3943,1:?,Y,,0.598
3944,1:?,Y,,0.922
3945,1:?,Y,,0.861
3946,1:?,N,,0.796
3947,1:?,N,,0.881
3948,1:?,Y,,0.517
3949,1:?,N,,0.639
3950,1:?,Y,,0.501
3951,1:?,N,,0.654
3952,1:?,Y,,0.807
3953,1:?,Y,,0.688
3954,1:?,N,,0.916
3955,1:?,N,,0.954
3956,1:?,N,,0.724
3957,1:?,N,,0.833
3958,1:?,Y,,0.528
3959,1:?,N,,0.629
3960,1:?,Y,,0.824
3961,1:?,Y,,0.712
3962,1:?,N,,0.908
3963,1:?,N,,0.949
3964,1:?,N,,0.702
3965,1:?,N,,0.817
3966,1:?,N,,0.715
3967,1:?,N,,0.826
3968,1:?,Y,,0.625
3969,1:?,N,,0.532
3970,1:?,N,,0.965
3971,1:?,N,,0.981
3972,1:?,N,,0.869
3973,1:?,N,,0.926
3974,1:?,N,,0.944
3975,1:?,N,,0.97
3976,1:?,N,,0.801
3977,1:?,N,,0.884
3978,1:?,N,,0.995
3979,1:?,N,,0.997
3980,1:?,N,,0.978
3981,1:?,N,,0.988
3982,1:?,N,,0.979
3983,1:?,N,,0.989
3984,1:?,N,,0.919
3985,1:?,N,,0.955
3986,1:?,N,,0.998
3987,1:?,N,,0.999
3988,1:?,N,,0.992
3989,1:?,N,,0.996
3990,1:?,N,,0.977
3991,1:?,N,,0.988
3992,1:?,N,,0.91
3993,1:?,N,,0.951
3994,1:?,N,,0.998
3995,1:?,N,,0.999
3996,1:?,N,,0.991
3997,1:?,N,,0.995
3998,1:?,N,,0.992
3999,1:?,N,,0.996
4000,1:?,N,,0.966
4001,1:?,N,,0.982
4002,1:?,N,,0.999
4003,1:?,N,,1
4004,1:?,N,,0.997